%YAML 1.1
%TAG !u! tag:unity3d.com,2011:
--- !u!1001 &5384122630014589649
PrefabInstance:
  m_ObjectHideFlags: 0
  serializedVersion: 2
  m_Modification:
    m_TransformParent: {fileID: 0}
    m_Modifications:
    - target: {fileID: 4089265257020987286, guid: a387155b6d8911c46bad67c5a8e51bf0, type: 3}
      propertyPath: _data._json
      value: '{"declarations":{"collection":{"$content":[{"name":"JewelAnimIndex","value":{"$content":2,"$type":"System.Int32"},"$version":"A"}],"$version":"A"},"$version":"A"}}'
      objectReference: {fileID: 0}
    - target: {fileID: 6953454366272850233, guid: a387155b6d8911c46bad67c5a8e51bf0, type: 3}
      propertyPath: m_RootOrder
      value: 0
      objectReference: {fileID: 0}
    - target: {fileID: 6953454366272850233, guid: a387155b6d8911c46bad67c5a8e51bf0, type: 3}
      propertyPath: m_LocalPosition.x
      value: 0
      objectReference: {fileID: 0}
    - target: {fileID: 6953454366272850233, guid: a387155b6d8911c46bad67c5a8e51bf0, type: 3}
      propertyPath: m_LocalPosition.y
      value: 0
      objectReference: {fileID: 0}
    - target: {fileID: 6953454366272850233, guid: a387155b6d8911c46bad67c5a8e51bf0, type: 3}
      propertyPath: m_LocalPosition.z
      value: 0
      objectReference: {fileID: 0}
    - target: {fileID: 6953454366272850233, guid: a387155b6d8911c46bad67c5a8e51bf0, type: 3}
      propertyPath: m_LocalRotation.w
      value: 1
      objectReference: {fileID: 0}
    - target: {fileID: 6953454366272850233, guid: a387155b6d8911c46bad67c5a8e51bf0, type: 3}
      propertyPath: m_LocalRotation.x
      value: 0
      objectReference: {fileID: 0}
    - target: {fileID: 6953454366272850233, guid: a387155b6d8911c46bad67c5a8e51bf0, type: 3}
      propertyPath: m_LocalRotation.y
      value: 0
      objectReference: {fileID: 0}
    - target: {fileID: 6953454366272850233, guid: a387155b6d8911c46bad67c5a8e51bf0, type: 3}
      propertyPath: m_LocalRotation.z
      value: 0
      objectReference: {fileID: 0}
    - target: {fileID: 6953454366272850233, guid: a387155b6d8911c46bad67c5a8e51bf0, type: 3}
      propertyPath: m_LocalEulerAnglesHint.x
      value: 0
      objectReference: {fileID: 0}
    - target: {fileID: 6953454366272850233, guid: a387155b6d8911c46bad67c5a8e51bf0, type: 3}
      propertyPath: m_LocalEulerAnglesHint.y
      value: 0
      objectReference: {fileID: 0}
    - target: {fileID: 6953454366272850233, guid: a387155b6d8911c46bad67c5a8e51bf0, type: 3}
      propertyPath: m_LocalEulerAnglesHint.z
      value: 0
      objectReference: {fileID: 0}
    - target: {fileID: 7724923828541150083, guid: a387155b6d8911c46bad67c5a8e51bf0, type: 3}
      propertyPath: m_Name
      value: Necklace
      objectReference: {fileID: 0}
    m_RemovedComponents: []
  m_SourcePrefab: {fileID: 100100000, guid: a387155b6d8911c46bad67c5a8e51bf0, type: 3}
