%YAML 1.1
%TAG !u! tag:unity3d.com,2011:
--- !u!21 &2100000
Material:
  serializedVersion: 6
  m_ObjectHideFlags: 0
  m_CorrespondingSourceObject: {fileID: 0}
  m_PrefabInstance: {fileID: 0}
  m_PrefabAsset: {fileID: 0}
  m_Name: Sprite Ghost Shader 1
  m_Shader: {fileID: 4800000, guid: abb66c1d1ea2c344498806a0b06c2691, type: 3}
  m_ShaderKeywords: 
  m_LightmapFlags: 0
  m_EnableInstancingVariants: 0
  m_DoubleSidedGI: 0
  m_CustomRenderQueue: -1
  stringTagMap: {}
  disabledShaderPasses: []
  m_SavedProperties:
    serializedVersion: 3
    m_TexEnvs:
    - _Texture0:
        m_Texture: {fileID: -3344552940337364543, guid: 6d1802e6da0886c48bf8dee786fbfea4, type: 3}
        m_Scale: {x: 1, y: 1}
        m_Offset: {x: 0, y: 0}
    - _TopTexture1:
        m_Texture: {fileID: 2800000, guid: 27bc543b9fe328a4288f1b271db1dd0f, type: 3}
        m_Scale: {x: 1, y: 1}
        m_Offset: {x: 0, y: 0}
    - _texcoord:
        m_Texture: {fileID: 0}
        m_Scale: {x: 1, y: 1}
        m_Offset: {x: 0, y: 0}
    m_Floats:
    - _Cutoff: 0.5
    - _Float0: 1
    - _Float5: 2
    - _Float6: 1
    - _LowerLimit: 0.3176471
    - _NoiseScale: 36.67862
    - _NoiseScale2: 5
    - _OffsetX: 0.018
    - _OffsetY: 0.018
    - _TilingMultiplierDissolve: 1
    - _TimeScaleBig: 1
    - _TimeScaleSmall: 1
    - _Timeline: 0.4718255
    - _UpperLimit: 0.55
    - __dirty: 0
    m_Colors: []
  m_BuildTextureStacks: []
