%YAML 1.1
%TAG !u! tag:unity3d.com,2011:
--- !u!21 &2100000
Material:
  serializedVersion: 6
  m_ObjectHideFlags: 0
  m_CorrespondingSourceObject: {fileID: 0}
  m_PrefabInstance: {fileID: 0}
  m_PrefabAsset: {fileID: 0}
  m_Name: StandingStone_Plump-Clean__MAT
  m_Shader: {fileID: 4800000, guid: 1d5617489ab261c439603468fa49fb71, type: 3}
  m_ShaderKeywords: _DETAIL_MULX2 _DISSOLVEAXIS_X _DISSOLVEDIRECTION_TOPTOBOTTOM
    _METALLICGLOSSMAP _NORMALMAP _SPECGLOSSMAP
  m_LightmapFlags: 4
  m_EnableInstancingVariants: 0
  m_DoubleSidedGI: 0
  m_CustomRenderQueue: -1
  stringTagMap: {}
  disabledShaderPasses: []
  m_SavedProperties:
    serializedVersion: 3
    m_TexEnvs:
    - _Albedo:
        m_Texture: {fileID: 2800000, guid: 1f5fbaceced084c45ba015c0c6e0154b, type: 3}
        m_Scale: {x: 1, y: 1}
        m_Offset: {x: 0, y: 0}
    - _BumpMap:
        m_Texture: {fileID: 2800000, guid: e6536c7450ab3324fbfd8a3340e1d11c, type: 3}
        m_Scale: {x: 1, y: 1}
        m_Offset: {x: 0, y: 0}
    - _DetailAlbedoMap:
        m_Texture: {fileID: 2800000, guid: 1aca878b4a5995148b09bd6dcf0dce25, type: 3}
        m_Scale: {x: 0, y: 0}
        m_Offset: {x: 0, y: 0}
    - _DetailMask:
        m_Texture: {fileID: 0}
        m_Scale: {x: 1, y: 1}
        m_Offset: {x: 0, y: 0}
    - _DetailNormalMap:
        m_Texture: {fileID: 2800000, guid: 34502db5a5923fd4e847952a940aee60, type: 3}
        m_Scale: {x: 1, y: 1}
        m_Offset: {x: 0, y: 0}
    - _EmissionMap:
        m_Texture: {fileID: 0}
        m_Scale: {x: 1, y: 1}
        m_Offset: {x: 0, y: 0}
    - _Gradient:
        m_Texture: {fileID: 2800000, guid: 48b5b2cb266878f4b8968d64dbad2aa4, type: 3}
        m_Scale: {x: 1, y: 1}
        m_Offset: {x: 0, y: 0}
    - _MainTex:
        m_Texture: {fileID: 2800000, guid: f4830f2b3ca8d394e91c35e960f14a76, type: 3}
        m_Scale: {x: 1, y: 1}
        m_Offset: {x: 0, y: 0}
    - _MetallicGlossMap:
        m_Texture: {fileID: 2800000, guid: 1f5fbaceced084c45ba015c0c6e0154b, type: 3}
        m_Scale: {x: 1, y: 1}
        m_Offset: {x: 0, y: 0}
    - _NoiseTexture:
        m_Texture: {fileID: 2800000, guid: 27bc543b9fe328a4288f1b271db1dd0f, type: 3}
        m_Scale: {x: 1, y: 1}
        m_Offset: {x: 0, y: 0}
    - _Normal:
        m_Texture: {fileID: 2800000, guid: e6536c7450ab3324fbfd8a3340e1d11c, type: 3}
        m_Scale: {x: 1, y: 1}
        m_Offset: {x: 0, y: 0}
    - _OcclusionMap:
        m_Texture: {fileID: 2800000, guid: 4a3df05285f316640bf1c01791ce7ce0, type: 3}
        m_Scale: {x: 1, y: 1}
        m_Offset: {x: 0, y: 0}
    - _ParallaxMap:
        m_Texture: {fileID: 0}
        m_Scale: {x: 1, y: 1}
        m_Offset: {x: 0, y: 0}
    - _SpecGlossMap:
        m_Texture: {fileID: 2800000, guid: c107d0085ff5db04892007d22e2dd42e, type: 3}
        m_Scale: {x: 1, y: 1}
        m_Offset: {x: 0, y: 0}
    - _texcoord:
        m_Texture: {fileID: 0}
        m_Scale: {x: 1, y: 1}
        m_Offset: {x: 0, y: 0}
    m_Floats:
    - _BumpScale: -1.3
    - _CenterOffset: -0.38
    - _Cutoff: 0.5
    - _DetailNormalMapScale: 0
    - _DissolveAxis: 0
    - _DissolveDirection: 1
    - _DissolveWidth: 1
    - _DstBlend: 0
    - _GlossMapScale: 0
    - _Glossiness: 0
    - _GlossyReflections: 1
    - _Metallic: 0
    - _Mode: 0
    - _ObjectHeight: 1.77
    - _OcclusionStrength: 1
    - _Parallax: 0.02
    - _PreviewHeightGradient: 0
    - _RimOffset: 1
    - _RimPower: 0.25
    - _RimPower2: -0.55
    - _RimStep: 0.275
    - _ShadowPower: 0.49
    - _SmoothnessTextureChannel: 0
    - _SpecularHighlights: 1
    - _SrcBlend: 1
    - _Timeline: 0
    - _UVSec: 0
    - _UseCustomRim: 0.28
    - _ZWrite: 1
    - __dirty: 0
    m_Colors:
    - _Color: {r: 0.990566, g: 0.9851747, b: 0.9204788, a: 1}
    - _EmissionColor: {r: 0, g: 0, b: 0, a: 1}
    - _Rimcolor: {r: 0.022392299, g: 0.3207547, b: 0.13011345, a: 1}
    - _SpecColor: {r: 0.2, g: 0.2, b: 0.2, a: 1}
    - _Tint: {r: 0.6982556, g: 0.7924528, b: 0.6982556, a: 0}
    - _YGradient: {r: 1, g: 0, b: 0, a: 0}
  m_BuildTextureStacks: []
