%YAML 1.1
%TAG !u! tag:unity3d.com,2011:
--- !u!21 &2100000
Material:
  serializedVersion: 6
  m_ObjectHideFlags: 0
  m_CorrespondingSourceObject: {fileID: 0}
  m_PrefabInstance: {fileID: 0}
  m_PrefabAsset: {fileID: 0}
  m_Name: StandingStone_Plump-Mossy__MAT
  m_Shader: {fileID: 4800000, guid: 1d5617489ab261c439603468fa49fb71, type: 3}
  m_ShaderKeywords: _DETAIL_MULX2 _DISSOLVEAXIS_X _DISSOLVEDIRECTION_BOTTOMTOTOP
    _METALLICGLOSSMAP _NORMALMAP
  m_LightmapFlags: 4
  m_EnableInstancingVariants: 0
  m_DoubleSidedGI: 0
  m_CustomRenderQueue: -1
  stringTagMap: {}
  disabledShaderPasses: []
  m_SavedProperties:
    serializedVersion: 3
    m_TexEnvs:
    - _Albedo:
        m_Texture: {fileID: 2800000, guid: f4830f2b3ca8d394e91c35e960f14a76, type: 3}
        m_Scale: {x: 1, y: 1}
        m_Offset: {x: 0, y: 0}
    - _BumpMap:
        m_Texture: {fileID: 2800000, guid: e6536c7450ab3324fbfd8a3340e1d11c, type: 3}
        m_Scale: {x: 1, y: 1}
        m_Offset: {x: 0, y: 0}
    - _DetailAlbedoMap:
        m_Texture: {fileID: 2800000, guid: 8dc2d05726525dd43886b782f3bcef16, type: 3}
        m_Scale: {x: 2, y: 1}
        m_Offset: {x: 0, y: 0}
    - _DetailMask:
        m_Texture: {fileID: 0}
        m_Scale: {x: 1, y: 1}
        m_Offset: {x: 0, y: 0}
    - _DetailNormalMap:
        m_Texture: {fileID: 2800000, guid: 78310e9ce702040448cd007d1363c7ec, type: 3}
        m_Scale: {x: 1, y: 1}
        m_Offset: {x: 0, y: 0}
    - _EmissionMap:
        m_Texture: {fileID: 2800000, guid: f4830f2b3ca8d394e91c35e960f14a76, type: 3}
        m_Scale: {x: 1, y: 1}
        m_Offset: {x: 0, y: 0}
    - _Gradient:
        m_Texture: {fileID: 2800000, guid: ffe65d51e4b2a8d4ea1da48dbf62df9d, type: 3}
        m_Scale: {x: 1, y: 1}
        m_Offset: {x: 0, y: 0}
    - _MainTex:
        m_Texture: {fileID: 2800000, guid: 1f5fbaceced084c45ba015c0c6e0154b, type: 3}
        m_Scale: {x: 1, y: 1}
        m_Offset: {x: 0, y: 0}
    - _MetallicGlossMap:
        m_Texture: {fileID: 2800000, guid: 975106ba0b724734fa9403d9086a752f, type: 3}
        m_Scale: {x: 1, y: 1}
        m_Offset: {x: 0, y: 0}
    - _NoiseTexture:
        m_Texture: {fileID: 2800000, guid: 27bc543b9fe328a4288f1b271db1dd0f, type: 3}
        m_Scale: {x: 1, y: 1}
        m_Offset: {x: 0, y: 0}
    - _Normal:
        m_Texture: {fileID: 2800000, guid: e6536c7450ab3324fbfd8a3340e1d11c, type: 3}
        m_Scale: {x: 1, y: 1}
        m_Offset: {x: 0, y: 0}
    - _OcclusionMap:
        m_Texture: {fileID: 2800000, guid: c107d0085ff5db04892007d22e2dd42e, type: 3}
        m_Scale: {x: 1, y: 1}
        m_Offset: {x: 0, y: 0}
    - _ParallaxMap:
        m_Texture: {fileID: 0}
        m_Scale: {x: 1, y: 1}
        m_Offset: {x: 0, y: 0}
    - _texcoord:
        m_Texture: {fileID: 0}
        m_Scale: {x: 1, y: 1}
        m_Offset: {x: 0, y: 0}
    m_Floats:
    - _BlendOp: 0
    - _BumpScale: 0.49
    - _CameraFadingEnabled: 0
    - _CameraFarFadeDistance: 2
    - _CameraNearFadeDistance: 1
    - _CenterOffset: -0.68
    - _Cull: 2
    - _Cutoff: 0.5
    - _DetailNormalMapScale: 0
    - _DissolveAxis: 0
    - _DissolveDirection: 0
    - _DissolveWidth: 1
    - _DistortionBlend: 0.5
    - _DistortionEnabled: 0
    - _DistortionStrength: 1
    - _DistortionStrengthScaled: 0
    - _DstBlend: 0
    - _EmissionEnabled: 0
    - _FlipbookMode: 0
    - _GlossMapScale: 0
    - _Glossiness: 0
    - _GlossyReflections: 1
    - _LightingEnabled: 1
    - _Metallic: 0
    - _Mode: 0
    - _ObjectHeight: 1.67
    - _OcclusionStrength: 0.978
    - _Parallax: 0.02
    - _PreviewHeightGradient: 0
    - _RimOffset: 1
    - _RimPower: 0.77
    - _RimPower2: 0.6
    - _RimStep: 0.21
    - _ShadowPower: 0.36
    - _SmoothnessTextureChannel: 0
    - _SoftParticlesEnabled: 0
    - _SoftParticlesFarFadeDistance: 1
    - _SoftParticlesNearFadeDistance: 0
    - _SpecularHighlights: 1
    - _SrcBlend: 1
    - _Timeline: 0
    - _UVSec: 0
    - _UseCustomRim: 0.86
    - _ZWrite: 1
    - __dirty: 0
    m_Colors:
    - _CameraFadeParams: {r: 0, g: Infinity, b: 0, a: 0}
    - _Color: {r: 0.7054557, g: 0.7830189, b: 0.7054557, a: 1}
    - _EmissionColor: {r: 0.4716981, g: 0.298884, b: 0.26477394, a: 1}
    - _Rimcolor: {r: 0.3211819, g: 0.49056602, b: 0.35836378, a: 1}
    - _SoftParticleFadeParams: {r: 0, g: 0, b: 0, a: 0}
    - _Tint: {r: 0.7608046, g: 0.8113208, b: 0.79448205, a: 0}
    - _YGradient: {r: 1, g: 0, b: 0, a: 0}
  m_BuildTextureStacks: []
