%YAML 1.1
%TAG !u! tag:unity3d.com,2011:
--- !u!21 &2100000
Material:
  serializedVersion: 6
  m_ObjectHideFlags: 0
  m_CorrespondingSourceObject: {fileID: 0}
  m_PrefabInstance: {fileID: 0}
  m_PrefabAsset: {fileID: 0}
  m_Name: StandingStone_Spiky-Clean__MAT 2
  m_Shader: {fileID: 4800000, guid: 1d5617489ab261c439603468fa49fb71, type: 3}
  m_ShaderKeywords: _DETAIL_MULX2 _METALLICGLOSSMAP _NORMALMAP
  m_LightmapFlags: 4
  m_EnableInstancingVariants: 0
  m_DoubleSidedGI: 0
  m_CustomRenderQueue: -1
  stringTagMap: {}
  disabledShaderPasses: []
  m_SavedProperties:
    serializedVersion: 3
    m_TexEnvs:
    - _Albedo:
        m_Texture: {fileID: 2800000, guid: 8dc2d05726525dd43886b782f3bcef16, type: 3}
        m_Scale: {x: 3, y: 0.76}
        m_Offset: {x: 0, y: 0}
    - _Albedo1:
        m_Texture: {fileID: 2800000, guid: 8dc2d05726525dd43886b782f3bcef16, type: 3}
        m_Scale: {x: 1, y: 1}
        m_Offset: {x: 0, y: 0}
    - _BumpMap:
        m_Texture: {fileID: 2800000, guid: 2f4f541374b199a45bb67163231113b0, type: 3}
        m_Scale: {x: 1, y: 1}
        m_Offset: {x: 0, y: 0}
    - _DetailAlbedoMap:
        m_Texture: {fileID: 2800000, guid: 2bde169e6f45c8d44970ab0ba1ac8b33, type: 3}
        m_Scale: {x: 2, y: 1}
        m_Offset: {x: 0, y: 0}
    - _DetailMask:
        m_Texture: {fileID: 0}
        m_Scale: {x: 1, y: 1}
        m_Offset: {x: 0, y: 0}
    - _DetailNormalMap:
        m_Texture: {fileID: 2800000, guid: 34502db5a5923fd4e847952a940aee60, type: 3}
        m_Scale: {x: 1, y: 1}
        m_Offset: {x: 0, y: 0}
    - _EmissionMap:
        m_Texture: {fileID: 0}
        m_Scale: {x: 1, y: 1}
        m_Offset: {x: 0, y: 0}
    - _Gradient:
        m_Texture: {fileID: 2800000, guid: 48b5b2cb266878f4b8968d64dbad2aa4, type: 3}
        m_Scale: {x: 1, y: 1}
        m_Offset: {x: 0, y: 0}
    - _Gradient1:
        m_Texture: {fileID: 2800000, guid: 83417cf889036544cad1eac66fc72594, type: 3}
        m_Scale: {x: 1, y: 1}
        m_Offset: {x: 0, y: 0}
    - _MainTex:
        m_Texture: {fileID: 2800000, guid: 6fbdbc49185b785418574675c31bf1d6, type: 3}
        m_Scale: {x: 1, y: 1}
        m_Offset: {x: 0, y: 0}
    - _MetallicGlossMap:
        m_Texture: {fileID: 2800000, guid: 6fbdbc49185b785418574675c31bf1d6, type: 3}
        m_Scale: {x: 1, y: 1}
        m_Offset: {x: 0, y: 0}
    - _NoiseTexture:
        m_Texture: {fileID: 0}
        m_Scale: {x: 1, y: 1}
        m_Offset: {x: 0, y: 0}
    - _Normal:
        m_Texture: {fileID: 2800000, guid: 34502db5a5923fd4e847952a940aee60, type: 3}
        m_Scale: {x: 1, y: 1}
        m_Offset: {x: 0, y: 0}
    - _Normal1:
        m_Texture: {fileID: 2800000, guid: 34502db5a5923fd4e847952a940aee60, type: 3}
        m_Scale: {x: 1, y: 1}
        m_Offset: {x: 0, y: 0}
    - _OcclusionMap:
        m_Texture: {fileID: 2800000, guid: 26748707fdc5ad04caa88f91d9c72d74, type: 3}
        m_Scale: {x: 1, y: 1}
        m_Offset: {x: 0, y: 0}
    - _ParallaxMap:
        m_Texture: {fileID: 0}
        m_Scale: {x: 1, y: 1}
        m_Offset: {x: 0, y: 0}
    - _Roughness:
        m_Texture: {fileID: 0}
        m_Scale: {x: 1, y: 1}
        m_Offset: {x: 0, y: 0}
    - _Texture0:
        m_Texture: {fileID: 0}
        m_Scale: {x: 1, y: 1}
        m_Offset: {x: 0, y: 0}
    - _Texture1:
        m_Texture: {fileID: 0}
        m_Scale: {x: 1, y: 1}
        m_Offset: {x: 0, y: 0}
    - _TextureSample0:
        m_Texture: {fileID: 0}
        m_Scale: {x: 1, y: 1}
        m_Offset: {x: 0, y: 0}
    - _TopTexture0:
        m_Texture: {fileID: 0}
        m_Scale: {x: 1, y: 1}
        m_Offset: {x: 0, y: 0}
    - _texcoord:
        m_Texture: {fileID: 0}
        m_Scale: {x: 1, y: 1}
        m_Offset: {x: 0, y: 0}
    m_Floats:
    - _BumpScale: 2.29
    - _CenterOffset: 0
    - _Cutoff: 0.5
    - _DetailNormalMapScale: 0.35
    - _DissolveAxis: 0
    - _DissolveDirection: 0
    - _DissolveWidth: 1
    - _DstBlend: 0
    - _Float10: 1
    - _Float2: 1
    - _Float3: 1
    - _Float5: 2
    - _Float9: 2
    - _Gloss: 0.172
    - _GlossMapScale: 0
    - _Glossiness: 0.5
    - _GlossyReflections: 1
    - _Lightcolorintensity: 1.64
    - _LowerLimit: 0.3176471
    - _LowerLimit2: 0.3176471
    - _Metallic: 0
    - _Mode: 0
    - _NoiseScale: 36.67862
    - _NoiseScale1: 36.67862
    - _NoiseScale2: 5
    - _NoiseScale3: 5
    - _ObjectHeight: 1
    - _OcclusionStrength: 1
    - _OffsetX: 0.018
    - _OffsetX1: 0.018
    - _OffsetY: 0.018
    - _OffsetY1: 0.018
    - _Parallax: 0.02
    - _PreviewHeightGradient: 0
    - _RimOffset: 0.545
    - _RimOffset1: 0.8
    - _RimPower: 0.24
    - _RimPower1: 0.2705882
    - _RimPower2: -0.21
    - _RimPower3: 0.07058824
    - _RimStep: 0.099
    - _RimStep1: 0.3411765
    - _ShadowPower: 0.43
    - _ShadowPower1: 0
    - _SmoothnessTextureChannel: 0
    - _SpecInitensity: 0.226
    - _SpecularHighlights: 1
    - _SrcBlend: 1
    - _TilingMultiplierDissolve: 1
    - _TilingMultiplierDissolve2: 1
    - _TimeScaleBig: 1
    - _TimeScaleBig1: 1
    - _TimeScaleSmall: 1
    - _TimeScaleSmall1: 1
    - _Timeline: 0
    - _Timeline2: 0.543
    - _UVSec: 0
    - _UpperLimit: 0.55
    - _UpperLimit2: 0.55
    - _UseCustomRim: 0.48
    - _UseCustomRim1: 0
    - _ZWrite: 1
    - __dirty: 0
    m_Colors:
    - _Color: {r: 0.9716981, g: 0.95847654, b: 0.9487807, a: 1}
    - _EmissionColor: {r: 0, g: 0, b: 0, a: 1}
    - _Mountaincolor: {r: 0.5471698, g: 0.5471698, b: 0.5471698, a: 0}
    - _Rimcolor: {r: 1, g: 0.9294118, b: 0.517, a: 1}
    - _Rimcolor1: {r: 1, g: 0.9294118, b: 0.517, a: 1}
    - _Tint: {r: 0.8066038, g: 0.8962264, b: 0.8066038, a: 0}
    - _Tint1: {r: 0.5471698, g: 0.5471698, b: 0.5471698, a: 0}
    - _YGradient: {r: 1, g: 0, b: 0, a: 0}
    - _YGradient1: {r: 1, g: 0, b: 0, a: 0}
    - _gradientstrength: {r: 0.5471698, g: 0.5471698, b: 0.5471698, a: 0}
  m_BuildTextureStacks: []
