%YAML 1.1
%TAG !u! tag:unity3d.com,2011:
--- !u!21 &2100000
Material:
  serializedVersion: 6
  m_ObjectHideFlags: 0
  m_CorrespondingSourceObject: {fileID: 0}
  m_PrefabInstance: {fileID: 0}
  m_PrefabAsset: {fileID: 0}
  m_Name: StandingStone_Short-Mossy__MAT
  m_Shader: {fileID: 4800000, guid: 1d5617489ab261c439603468fa49fb71, type: 3}
  m_ShaderKeywords: _DETAIL_MULX2 _DISSOLVEAXIS_X _DISSOLVEDIRECTION_TOPTOBOTTOM
    _METALLICGLOSSMAP _NORMALMAP
  m_LightmapFlags: 4
  m_EnableInstancingVariants: 0
  m_DoubleSidedGI: 0
  m_CustomRenderQueue: -1
  stringTagMap: {}
  disabledShaderPasses: []
  m_SavedProperties:
    serializedVersion: 3
    m_TexEnvs:
    - _Albedo:
        m_Texture: {fileID: 2800000, guid: 4e8869c2bc88d3344b0222b36ff57fa1, type: 3}
        m_Scale: {x: 1, y: 1}
        m_Offset: {x: 0, y: 0}
    - _BumpMap:
        m_Texture: {fileID: 2800000, guid: cb485fd389ac6cd4a9173ecebfe62049, type: 3}
        m_Scale: {x: 1, y: 1}
        m_Offset: {x: 0, y: 0}
    - _DetailAlbedoMap:
        m_Texture: {fileID: 2800000, guid: 8677ca66a2a1c7b46b99dd3c92ace957, type: 3}
        m_Scale: {x: 1, y: 1}
        m_Offset: {x: 0, y: 0}
    - _DetailMask:
        m_Texture: {fileID: 0}
        m_Scale: {x: 1, y: 1}
        m_Offset: {x: 0, y: 0}
    - _DetailNormalMap:
        m_Texture: {fileID: 0}
        m_Scale: {x: 1, y: 1}
        m_Offset: {x: 0, y: 0}
    - _EmissionMap:
        m_Texture: {fileID: 0}
        m_Scale: {x: 1, y: 1}
        m_Offset: {x: 0, y: 0}
    - _Gradient:
        m_Texture: {fileID: 2800000, guid: ffe65d51e4b2a8d4ea1da48dbf62df9d, type: 3}
        m_Scale: {x: 1, y: 1}
        m_Offset: {x: 0, y: 0}
    - _MainTex:
        m_Texture: {fileID: 2800000, guid: b13905b23051d1d4db68c1ce007225ee, type: 3}
        m_Scale: {x: 1, y: 1}
        m_Offset: {x: 0, y: 0}
    - _MetallicGlossMap:
        m_Texture: {fileID: 2800000, guid: 76f85f3988c78f641a164f8a581acfe1, type: 3}
        m_Scale: {x: 1, y: 1}
        m_Offset: {x: 0, y: 0}
    - _NoiseTexture:
        m_Texture: {fileID: 2800000, guid: 27bc543b9fe328a4288f1b271db1dd0f, type: 3}
        m_Scale: {x: 1, y: 1}
        m_Offset: {x: 0, y: 0}
    - _Normal:
        m_Texture: {fileID: 2800000, guid: 047d147e690fa57479eb7bcd958fced7, type: 3}
        m_Scale: {x: 1, y: 1}
        m_Offset: {x: 0, y: 0}
    - _OcclusionMap:
        m_Texture: {fileID: 2800000, guid: 59d3263a65a6e714192361b1c266c102, type: 3}
        m_Scale: {x: 1, y: 1}
        m_Offset: {x: 0, y: 0}
    - _ParallaxMap:
        m_Texture: {fileID: 0}
        m_Scale: {x: 1, y: 1}
        m_Offset: {x: 0, y: 0}
    - _texcoord:
        m_Texture: {fileID: 0}
        m_Scale: {x: 1, y: 1}
        m_Offset: {x: 0, y: 0}
    m_Floats:
    - _BumpScale: 1
    - _CenterOffset: -0.18
    - _Cutoff: 0.5
    - _DetailNormalMapScale: 1
    - _DissolveAxis: 0
    - _DissolveDirection: 1
    - _DissolveWidth: 1
    - _DstBlend: 0
    - _GlossMapScale: 0.09
    - _Glossiness: 0.18
    - _GlossyReflections: 1
    - _Metallic: 0
    - _Mode: 0
    - _ObjectHeight: 4.18
    - _OcclusionStrength: 1
    - _Parallax: 0.02
    - _PreviewHeightGradient: 0
    - _RimOffset: 1.5
    - _RimPower: 0.97
    - _RimPower2: 0.77
    - _RimStep: 0.1
    - _ShadowPower: 0.52
    - _SmoothnessTextureChannel: 0
    - _SpecularHighlights: 1
    - _SrcBlend: 1
    - _Timeline: 0
    - _UVSec: 0
    - _UseCustomRim: 0.9
    - _ZWrite: 1
    - __dirty: 0
    m_Colors:
    - _Color: {r: 0.9245283, g: 0.80782527, b: 0.68467426, a: 1}
    - _EmissionColor: {r: 0, g: 0, b: 0, a: 1}
    - _Rimcolor: {r: 0.4433962, g: 0.42221603, b: 0.298665, a: 1}
    - _Tint: {r: 0.7483802, g: 0.8679245, b: 0.819021, a: 0}
    - _YGradient: {r: 1, g: 0, b: 0, a: 0}
  m_BuildTextureStacks: []
