%YAML 1.1
%TAG !u! tag:unity3d.com,2011:
--- !u!21 &2100000
Material:
  serializedVersion: 6
  m_ObjectHideFlags: 0
  m_CorrespondingSourceObject: {fileID: 0}
  m_PrefabInstance: {fileID: 0}
  m_PrefabAsset: {fileID: 0}
  m_Name: Ghostshader2
  m_Shader: {fileID: 4800000, guid: a7d2664a2e9ff2d49832d0cae75a8bea, type: 3}
  m_ShaderKeywords: 
  m_LightmapFlags: 4
  m_EnableInstancingVariants: 0
  m_DoubleSidedGI: 0
  m_CustomRenderQueue: -1
  stringTagMap: {}
  disabledShaderPasses: []
  m_SavedProperties:
    serializedVersion: 3
    m_TexEnvs:
    - _Albedo:
        m_Texture: {fileID: 0}
        m_Scale: {x: 1, y: 1}
        m_Offset: {x: 0, y: 0}
    - _MainTex:
        m_Texture: {fileID: 0}
        m_Scale: {x: 1, y: 1}
        m_Offset: {x: 0.5, y: 0}
    - _TextureSample0:
        m_Texture: {fileID: 0}
        m_Scale: {x: 1, y: 1}
        m_Offset: {x: 0, y: 0}
    - _TextureSample1:
        m_Texture: {fileID: 0}
        m_Scale: {x: 1, y: 1}
        m_Offset: {x: 0, y: 0}
    - _texcoord:
        m_Texture: {fileID: 0}
        m_Scale: {x: 1, y: 1}
        m_Offset: {x: 0, y: 0}
    m_Floats:
    - _AlphaMultiplier: 0.357
    - _Colorbalance: 0
    - _Cutoff: 0.5
    - _EdgeGlow: 1
    - _Float0: 0.542
    - _Speed: -0.1
    - __dirty: 0
    m_Colors:
    - _Color0: {r: 0, g: 0, b: 0, a: 0}
    - _Color1: {r: 1, g: 1, b: 1, a: 0}
    - _ColorA: {r: 0, g: 0, b: 8, a: 0}
    - _ColorB: {r: 0, g: 0, b: 8, a: 0}
    - _EmissionColor: {r: 1, g: 0, b: 0.03164482, a: 0}
    - _EyeColor: {r: 0, g: 0, b: 0, a: 0}
    - _Tint: {r: 0.98765564, g: 1, b: 0, a: 0}
  m_BuildTextureStacks: []
