%YAML 1.1
%TAG !u! tag:unity3d.com,2011:
--- !u!21 &2100000
Material:
  serializedVersion: 6
  m_ObjectHideFlags: 0
  m_CorrespondingSourceObject: {fileID: 0}
  m_PrefabInstance: {fileID: 0}
  m_PrefabAsset: {fileID: 0}
  m_Name: ToonShader_MAT
  m_Shader: {fileID: 4800000, guid: 5141ffef6c25d2148a8fee2275940c33, type: 3}
  m_ShaderKeywords: 
  m_LightmapFlags: 4
  m_EnableInstancingVariants: 0
  m_DoubleSidedGI: 0
  m_CustomRenderQueue: -1
  stringTagMap: {}
  disabledShaderPasses: []
  m_SavedProperties:
    serializedVersion: 3
    m_TexEnvs:
    - _Albedo:
        m_Texture: {fileID: 0}
        m_Scale: {x: 1, y: 1}
        m_Offset: {x: 0, y: 0}
    - _Gradient:
        m_Texture: {fileID: 2800000, guid: 8cc72014866635b4fb34d27caa5bc96d, type: 3}
        m_Scale: {x: 1, y: 1}
        m_Offset: {x: 0, y: 0}
    - _Normal:
        m_Texture: {fileID: 0}
        m_Scale: {x: 1, y: 1}
        m_Offset: {x: 0, y: 0}
    - _Roughness:
        m_Texture: {fileID: 0}
        m_Scale: {x: 1, y: 1}
        m_Offset: {x: 0, y: 0}
    - _TextureSample0:
        m_Texture: {fileID: 0}
        m_Scale: {x: 2, y: 2}
        m_Offset: {x: 0, y: 0}
    - _TextureSample1:
        m_Texture: {fileID: 0}
        m_Scale: {x: 1, y: 1}
        m_Offset: {x: 0, y: 0}
    - _TextureSample2:
        m_Texture: {fileID: 0}
        m_Scale: {x: 1, y: 1}
        m_Offset: {x: 0, y: 0}
    - _texcoord:
        m_Texture: {fileID: 0}
        m_Scale: {x: 1, y: 1}
        m_Offset: {x: 0, y: 0}
    m_Floats:
    - _Gloss: 0.02
    - _Lightcolorintensity: 2.17
    - _RimOffset: 1.94
    - _RimPower: 0.609
    - _RimPower2: -0.212
    - _RimStep: 0.13
    - _RoughMultiplier: 0
    - _ShadowPower: 1
    - _Spec: 1
    - _SpecInitensity: 0
    - _Spectrabsition: 0
    - _Step: 0.156
    - _UseCustomRim: 1
    - _UseCustomSpec: 0.845
    - __dirty: 0
    m_Colors:
    - _Color0: {r: 1, g: 1, b: 1, a: 0}
    - _Mountaincolor: {r: 0.4433962, g: 0.4433962, b: 0.4433962, a: 0}
    - _Rimcolor: {r: 1, g: 0.89438564, b: 0.2783019, a: 1}
    - _SpecColor: {r: 0, g: 0, b: 0, a: 0}
    - _SpecularColor: {r: 1, g: 0.9302049, b: 0.4292453, a: 1}
    - _Tint: {r: 0.26432893, g: 0.3098613, b: 0.33962262, a: 1}
    - _gradientstrength: {r: 1, g: 1, b: 1, a: 0}
  m_BuildTextureStacks: []
