%YAML 1.1
%TAG !u! tag:unity3d.com,2011:
--- !u!114 &11400000
MonoBehaviour:
  m_ObjectHideFlags: 0
  m_CorrespondingSourceObject: {fileID: 0}
  m_PrefabInstance: {fileID: 0}
  m_PrefabAsset: {fileID: 0}
  m_GameObject: {fileID: 0}
  m_Enabled: 1
  m_EditorHideFlags: 0
  m_Script: {fileID: 11500000, guid: 322208ba602f0be45bb7f26ee54ad10f, type: 3}
  m_Name: Hundorp_ContentPack_BetaTrack
  m_EditorClassIdentifier: 
  ownersName: BlackBook_Test
  writeKey: cdf6d47475d740a7beb5d64948ee327d
  referenceName: Hundorp2021_Beta
  iOS: 1
  android: 1
  unityScene:
    sceneAsset: {fileID: 102900000, guid: 02c560e2202736745b65dccffa02a7d6, type: 3}
    scenePath: Assets/Scenes/Main.unity
