%YAML 1.1
%TAG !u! tag:unity3d.com,2011:
--- !u!114 &11400000
MonoBehaviour:
  m_ObjectHideFlags: 0
  m_CorrespondingSourceObject: {fileID: 0}
  m_PrefabInstance: {fileID: 0}
  m_PrefabAsset: {fileID: 0}
  m_GameObject: {fileID: 0}
  m_Enabled: 1
  m_EditorHideFlags: 0
  m_Script: {fileID: -1893448595, guid: a040fb66244a7f54289914d98ea4ef7d, type: 3}
  m_Name: CopyRotation
  m_EditorClassIdentifier: 
  _data:
    _json: '{"graph":{"variables":{"collection":{"$content":[],"$version":"A"},"$version":"A"},"controlInputDefinitions":[],"controlOutputDefinitions":[],"valueInputDefinitions":[],"valueOutputDefinitions":[],"title":"CopRotation","summary":"This
      script is copies the rotation of the camera tracker","pan":{"x":616.563,"y":112.8631},"zoom":1.0,"elements":[{"coroutine":false,"defaultValues":{},"position":{"x":-123.0,"y":-27.0},"guid":"7d5e8e18-4afe-4413-abca-b996242ac34e","$version":"A","$type":"Bolt.Start"},{"coroutine":false,"defaultValues":{},"position":{"x":-125.0,"y":62.0},"guid":"854c99ca-caf7-4050-b2d5-2841747542af","$version":"A","$type":"Bolt.Update","$id":"11"},{"chainable":false,"member":{"name":"rotation","parameterTypes":null,"targetType":"UnityEngine.Transform","targetTypeName":"UnityEngine.Transform","$version":"A"},"defaultValues":{"target":null},"position":{"x":371.0,"y":61.0},"guid":"fa86b663-94b7-4f94-8008-01561c0f4a6a","$version":"A","$type":"Bolt.SetMember","$id":"13"},{"member":{"name":"rotation","parameterTypes":null,"targetType":"UnityEngine.Transform","targetTypeName":"UnityEngine.Transform","$version":"A"},"defaultValues":{"target":null},"position":{"x":93.0,"y":229.0},"guid":"0dca2fa2-1a8f-4e64-a923-c45e1df293f5","$version":"A","$type":"Bolt.GetMember","$id":"16"},{"specifyFallback":false,"kind":"Object","defaultValues":{"name":{"$content":"Tracked
      Object","$type":"System.String"},"object":null},"position":{"x":-119.0,"y":224.0},"guid":"6c5d2574-736f-4ad8-ae46-177e30a5607d","$version":"A","$type":"Bolt.GetVariable","$id":"19"},{"sourceUnit":{"$ref":"11"},"sourceKey":"trigger","destinationUnit":{"$ref":"13"},"destinationKey":"assign","guid":"9b038731-0992-4a06-b477-c2694afa0b90","$type":"Bolt.ControlConnection"},{"sourceUnit":{"$ref":"16"},"sourceKey":"value","destinationUnit":{"$ref":"13"},"destinationKey":"input","guid":"121582b7-159f-4c0b-8c42-df7cc062809e","$type":"Bolt.ValueConnection"},{"sourceUnit":{"$ref":"19"},"sourceKey":"value","destinationUnit":{"$ref":"16"},"destinationKey":"target","guid":"640e8af1-509c-4ca1-b978-60ce3bd38722","$type":"Bolt.ValueConnection"}],"$version":"A"}}'
    _objectReferences: []
