%YAML 1.1
%TAG !u! tag:unity3d.com,2011:
--- !u!114 &11400000
MonoBehaviour:
  m_ObjectHideFlags: 0
  m_CorrespondingSourceObject: {fileID: 0}
  m_PrefabInstance: {fileID: 0}
  m_PrefabAsset: {fileID: 0}
  m_GameObject: {fileID: 0}
  m_Enabled: 1
  m_EditorHideFlags: 0
  m_Script: {fileID: -1893448595, guid: a040fb66244a7f54289914d98ea4ef7d, type: 3}
  m_Name: DioramaLocation
  m_EditorClassIdentifier: 
  _data:
    _json: '{"graph":{"variables":{"collection":{"$content":[],"$version":"A"},"$version":"A"},"controlInputDefinitions":[],"controlOutputDefinitions":[],"valueInputDefinitions":[],"valueOutputDefinitions":[],"title":"Diorama
      Location Entry","summary":"This script handles being clickedon and telling
      a central controller about this.","pan":{"x":-73.31606,"y":-95.86256},"zoom":1.0,"elements":[{"coroutine":false,"defaultValues":{"target":null},"position":{"x":-444.0,"y":-317.0},"guid":"dbe707b2-8028-481f-8902-b4847b5621f3","$version":"A","$type":"Bolt.OnMouseDown","$id":"9"},{"chainable":false,"member":{"name":"SetActive","parameterTypes":["System.Boolean"],"targetType":"UnityEngine.GameObject","targetTypeName":"UnityEngine.GameObject","$version":"A"},"defaultValues":{"target":null,"%value":{"$content":true,"$type":"System.Boolean"}},"position":{"x":411.0,"y":-85.0},"guid":"fc646f95-12ad-48b4-9458-281da40df8d7","$version":"A","$type":"Bolt.InvokeMember","$id":"11"},{"specifyFallback":false,"kind":"Object","defaultValues":{"name":{"$content":"DioramaController","$type":"System.String"},"object":null},"position":{"x":-156.0,"y":503.0},"guid":"4782a44d-e86b-4710-a599-00821b7392fe","$version":"A","$type":"Bolt.GetVariable","$id":"14"},{"defaultValues":{},"position":{"x":-32.0,"y":-321.0},"guid":"4ce5addc-3153-4405-be19-733f01a4c881","$version":"A","$type":"Bolt.Branch","$id":"16"},{"specifyFallback":false,"kind":"Object","defaultValues":{"name":{"$content":"CustomeventName","$type":"System.String"},"object":null},"position":{"x":-156.0,"y":384.0},"guid":"267d691e-65f8-4d08-9b92-240e52daef37","$version":"A","$type":"Bolt.GetVariable","$id":"18"},{"member":{"name":"activeSelf","parameterTypes":null,"targetType":"UnityEngine.GameObject","targetTypeName":"UnityEngine.GameObject","$version":"A"},"defaultValues":{"target":null},"position":{"x":-242.0,"y":-92.0},"guid":"241cc3b4-6efd-42e3-b028-f57d484f7c1c","$version":"A","$type":"Bolt.GetMember","$id":"20"},{"chainable":false,"member":{"name":"Log","parameterTypes":["System.Object"],"targetType":"UnityEngine.Debug","targetTypeName":"UnityEngine.Debug","$version":"A"},"defaultValues":{},"position":{"x":612.0,"y":-317.0},"guid":"85400746-2622-472c-91f6-a4c322fb964a","$version":"A","$type":"Bolt.InvokeMember","$id":"23"},{"specifyFallback":false,"kind":"Object","defaultValues":{"name":{"$content":"Yarn","$type":"System.String"},"object":null},"position":{"x":130.0,"y":410.0},"guid":"9e26df72-987e-482b-af92-cbc2f88e4a27","$version":"A","$type":"Bolt.GetVariable","$id":"26"},{"type":"System.String","value":{"$content":"Location
      yarn already playing","$type":"System.String"},"defaultValues":{},"position":{"x":354.0,"y":-242.0},"guid":"690cefd1-6981-475c-a9ba-89c622b7c7d0","$version":"A","$type":"Bolt.Literal","$id":"28"},{"chainable":false,"member":{"name":"SetActive","parameterTypes":["System.Boolean"],"targetType":"UnityEngine.GameObject","targetTypeName":"UnityEngine.GameObject","$version":"A"},"defaultValues":{"target":null,"%value":{"$content":false,"$type":"System.Boolean"}},"position":{"x":245.0,"y":-144.0},"guid":"f62bdd32-7564-4633-a5ad-ecd23f72b02d","$version":"A","$type":"Bolt.InvokeMember","$id":"30"},{"kind":"Scene","defaultValues":{"name":{"$content":"isDioramaDialogueRunning","$type":"System.String"}},"position":{"x":785.0,"y":-93.0},"guid":"8a19b265-ea32-4e64-85ef-dfb23c86f69c","$version":"A","$type":"Bolt.SetVariable","$id":"33"},{"specifyFallback":false,"kind":"Object","defaultValues":{"name":{"$content":"Yarn","$type":"System.String"},"object":null},"position":{"x":-449.0,"y":-28.0},"guid":"610c9c54-a347-47da-81a0-34f8c7465552","$version":"A","$type":"Bolt.GetVariable","$id":"35"},{"type":"System.Boolean","value":{"$content":true,"$type":"System.Boolean"},"defaultValues":{},"position":{"x":638.0,"y":-57.0},"guid":"82275ede-9516-44aa-ac39-2edcda485b7e","$version":"A","$type":"Bolt.Literal","$id":"37"},{"chainable":false,"member":{"name":"SetActive","parameterTypes":["System.Boolean"],"targetType":"UnityEngine.GameObject","targetTypeName":"UnityEngine.GameObject","$version":"A"},"defaultValues":{"target":null,"%value":{"$content":false,"$type":"System.Boolean"}},"position":{"x":324.0,"y":264.0},"guid":"a1a23bf4-bd3d-49ee-9d2a-05f3160e60ff","$version":"A","$type":"Bolt.InvokeMember","$id":"39"},{"argumentCount":0,"defaultValues":{"name":{"$content":"","$type":"System.String"},"target":null},"position":{"x":120.0,"y":252.0},"guid":"6c0b8988-2a2b-4258-ae6d-fdd0b5e066f7","$version":"A","$type":"Bolt.TriggerCustomEvent","$id":"42"},{"kind":"Scene","defaultValues":{"name":{"$content":"isDioramaDialogueRunning","$type":"System.String"}},"position":{"x":554.0,"y":271.0},"guid":"28134891-671e-49c1-b92f-c7b9deefcc28","$version":"A","$type":"Bolt.SetVariable","$id":"44"},{"type":"System.Boolean","value":{"$content":false,"$type":"System.Boolean"},"defaultValues":{},"position":{"x":365.0,"y":417.0},"guid":"839e6041-e77e-41f5-86ff-0e8a9a208f63","$version":"A","$type":"Bolt.Literal","$id":"46"},{"specifyFallback":false,"kind":"Scene","defaultValues":{"name":{"$content":"isDioramaDialogueRunning","$type":"System.String"}},"position":{"x":-490.0,"y":-211.0},"guid":"948170e3-6155-4aa4-8605-4c873ab73c00","$version":"A","$type":"Bolt.GetVariable","$id":"48"},{"defaultValues":{},"position":{"x":-212.0,"y":-324.0},"guid":"5f0c7b2c-7ba2-405a-8a81-72c36d85d62a","$version":"A","$type":"Bolt.Branch","$id":"50"},{"coroutine":false,"defaultValues":{"name":{"$content":"YarnComplete","$type":"System.String"}},"position":{"x":-360.0,"y":276.0},"guid":"992b094a-8a48-45fe-9ff5-ce8b5e113768","$version":"A","$type":"Bolt.BoltUnityEvent","$id":"52"},{"specifyFallback":false,"kind":"Object","defaultValues":{"name":{"$content":"ContinueButton","$type":"System.String"},"object":null},"position":{"x":-67.0,"y":63.0},"guid":"191258a1-db9f-44bb-89cb-e31fc9f34189","$version":"A","$type":"Bolt.GetVariable","$id":"54"},{"coroutine":false,"defaultValues":{},"position":{"x":-506.0,"y":-545.0},"guid":"f8c82e3c-4b03-4d17-84e4-1123b23359ad","$version":"A","$type":"Bolt.Start","$id":"56"},{"chainable":false,"member":{"name":"SetActive","parameterTypes":["System.Boolean"],"targetType":"UnityEngine.GameObject","targetTypeName":"UnityEngine.GameObject","$version":"A"},"defaultValues":{"target":null,"%value":{"$content":false,"$type":"System.Boolean"}},"position":{"x":-342.0,"y":-551.0},"guid":"df2b9923-b757-48bf-bc70-22cd386116c3","$version":"A","$type":"Bolt.InvokeMember","$id":"58"},{"sourceUnit":{"$ref":"52"},"sourceKey":"trigger","destinationUnit":{"$ref":"42"},"destinationKey":"enter","guid":"0fbda53b-b455-4321-8536-17863e19c9a1","$type":"Bolt.ControlConnection"},{"sourceUnit":{"$ref":"11"},"sourceKey":"exit","destinationUnit":{"$ref":"33"},"destinationKey":"assign","guid":"ffc083fb-ce13-4b4d-b3bd-345a0bb708db","$type":"Bolt.ControlConnection"},{"sourceUnit":{"$ref":"16"},"sourceKey":"ifTrue","destinationUnit":{"$ref":"23"},"destinationKey":"enter","guid":"305653ec-d196-436f-8c9d-dec3d152d15e","$type":"Bolt.ControlConnection"},{"sourceUnit":{"$ref":"42"},"sourceKey":"exit","destinationUnit":{"$ref":"39"},"destinationKey":"enter","guid":"ca6d8018-077c-449d-83fb-981da86ba6e7","$type":"Bolt.ControlConnection"},{"sourceUnit":{"$ref":"9"},"sourceKey":"trigger","destinationUnit":{"$ref":"50"},"destinationKey":"enter","guid":"b39313ec-e508-4daf-ae30-36fa935f5f9a","$type":"Bolt.ControlConnection"},{"sourceUnit":{"$ref":"39"},"sourceKey":"exit","destinationUnit":{"$ref":"44"},"destinationKey":"assign","guid":"8a931776-2714-48ef-bc02-3e00dec2f989","$type":"Bolt.ControlConnection"},{"sourceUnit":{"$ref":"50"},"sourceKey":"ifFalse","destinationUnit":{"$ref":"16"},"destinationKey":"enter","guid":"eba636e1-a801-4661-bc05-aa7512f8cbae","$type":"Bolt.ControlConnection"},{"sourceUnit":{"$ref":"30"},"sourceKey":"exit","destinationUnit":{"$ref":"11"},"destinationKey":"enter","guid":"51a24649-4b7d-4198-97ff-0af1279454b5","$type":"Bolt.ControlConnection"},{"sourceUnit":{"$ref":"16"},"sourceKey":"ifFalse","destinationUnit":{"$ref":"30"},"destinationKey":"enter","guid":"0e9d1505-a402-443f-9d12-7f92bc0a156a","$type":"Bolt.ControlConnection"},{"sourceUnit":{"$ref":"56"},"sourceKey":"trigger","destinationUnit":{"$ref":"58"},"destinationKey":"enter","guid":"1a05753e-1f6e-42c3-bf81-59ac5200ab5f","$type":"Bolt.ControlConnection"},{"sourceUnit":{"$ref":"35"},"sourceKey":"value","destinationUnit":{"$ref":"20"},"destinationKey":"target","guid":"fa6cf375-58d2-4210-a3bd-593832af3cad","$type":"Bolt.ValueConnection"},{"sourceUnit":{"$ref":"18"},"sourceKey":"value","destinationUnit":{"$ref":"42"},"destinationKey":"name","guid":"6db97bca-938f-4e31-8c80-05e94b933353","$type":"Bolt.ValueConnection"},{"sourceUnit":{"$ref":"54"},"sourceKey":"value","destinationUnit":{"$ref":"30"},"destinationKey":"target","guid":"4f869375-f7ba-49fd-90e6-cb1c2e0ee255","$type":"Bolt.ValueConnection"},{"sourceUnit":{"$ref":"37"},"sourceKey":"output","destinationUnit":{"$ref":"33"},"destinationKey":"input","guid":"18435ad3-cf73-405e-9af3-23482e3097b5","$type":"Bolt.ValueConnection"},{"sourceUnit":{"$ref":"20"},"sourceKey":"value","destinationUnit":{"$ref":"16"},"destinationKey":"condition","guid":"66f67bcc-9c1a-4f13-892f-758893ec2a3b","$type":"Bolt.ValueConnection"},{"sourceUnit":{"$ref":"26"},"sourceKey":"value","destinationUnit":{"$ref":"39"},"destinationKey":"target","guid":"3ec7d67e-559b-4e4b-8dbe-1ec71a5254ac","$type":"Bolt.ValueConnection"},{"sourceUnit":{"$ref":"48"},"sourceKey":"value","destinationUnit":{"$ref":"50"},"destinationKey":"condition","guid":"7930fd72-5f8d-48cf-81b4-88bc2832280b","$type":"Bolt.ValueConnection"},{"sourceUnit":{"$ref":"35"},"sourceKey":"value","destinationUnit":{"$ref":"11"},"destinationKey":"target","guid":"d26c0eb1-47d7-40b6-b11c-62e49b8f1bc3","$type":"Bolt.ValueConnection"},{"sourceUnit":{"$ref":"14"},"sourceKey":"value","destinationUnit":{"$ref":"42"},"destinationKey":"target","guid":"7e1cd526-d619-46b4-b686-1e1a1756704c","$type":"Bolt.ValueConnection"},{"sourceUnit":{"$ref":"46"},"sourceKey":"output","destinationUnit":{"$ref":"44"},"destinationKey":"input","guid":"b6066ade-68d2-44d2-8162-5e3ad5270f2d","$type":"Bolt.ValueConnection"},{"sourceUnit":{"$ref":"28"},"sourceKey":"output","destinationUnit":{"$ref":"23"},"destinationKey":"%message","guid":"095c66ca-ec2a-47a8-ae88-9447aed9194b","$type":"Bolt.ValueConnection"},{"position":{"xMin":-524.0,"yMin":-368.0,"xMax":1070.0,"yMax":190.0},"label":"Check
      and start Yarn","comment":null,"color":{"r":0.0,"g":0.0,"b":0.0,"a":1.0},"guid":"a5341cc2-a89b-43d1-84e0-4d22f11e3407","$version":"A","$type":"Ludiq.GraphGroup"},{"position":{"xMin":-444.0,"yMin":204.0,"xMax":893.0,"yMax":624.0},"label":"Complete
      Yarn and inform the central controller","comment":null,"color":{"r":0.0,"g":0.0,"b":0.0,"a":1.0},"guid":"fd90ccd1-3e0f-46d0-9fa5-66e91b48617a","$version":"A","$type":"Ludiq.GraphGroup"},{"position":{"xMin":-180.0,"yMin":348.0,"xMax":36.0,"yMax":504.0},"label":"Has
      to be a unique name","comment":null,"color":{"r":0.0,"g":0.0,"b":0.0,"a":1.0},"guid":"2581b2ae-0ca0-47b2-892c-e808be402eb8","$version":"A","$type":"Ludiq.GraphGroup"},{"position":{"xMin":-529.0,"yMin":-596.0,"xMax":-153.0,"yMax":-385.0},"label":"Start
      off hidden (Will be re-activated by Yarn)","comment":null,"color":{"r":0.0,"g":0.0,"b":0.0,"a":1.0},"guid":"89158a5d-7ccc-4e0a-a0d3-3d308fed5742","$version":"A","$type":"Ludiq.GraphGroup"}],"$version":"A"}}'
    _objectReferences: []
