%YAML 1.1
%TAG !u! tag:unity3d.com,2011:
--- !u!114 &11400000
MonoBehaviour:
  m_ObjectHideFlags: 0
  m_CorrespondingSourceObject: {fileID: 0}
  m_PrefabInstance: {fileID: 0}
  m_PrefabAsset: {fileID: 0}
  m_GameObject: {fileID: 0}
  m_Enabled: 1
  m_EditorHideFlags: 0
  m_Script: {fileID: -1893448595, guid: a040fb66244a7f54289914d98ea4ef7d, type: 3}
  m_Name: MaterializeController_SuperUnit
  m_EditorClassIdentifier: 
  _data:
    _json: '{"graph":{"variables":{"collection":{"$content":[{"name":"doDespawn","value":{"$content":false,"$type":"System.Boolean"},"$version":"A"},{"name":"doSmoothInterpolation","value":{"$content":false,"$type":"System.Boolean"},"$version":"A"},{"name":"DissolveSpeed","value":{"$content":0.0,"$type":"System.Single"},"$version":"A"},{"name":"Materials","value":{"$content":[],"$type":"Ludiq.AotList"},"$version":"A"},{"name":"Lerp","value":{"$content":0.0,"$type":"System.Single"},"$version":"A"},{"name":"materializeAudio","value":{"$content":0,"$type":"UnityEngine.Object"},"$version":"A"},{"name":"deMaterializeAudio","value":{"$content":1,"$type":"UnityEngine.Object"},"$version":"A"}],"$version":"A"},"$version":"A"},"controlInputDefinitions":[{"key":"FlowIn","label":"Flow
      In","summary":null,"hideLabel":true},{"key":"Event","label":"De-Materialize
      Trigger","summary":"When triggered will start playing animation in reverse.","hideLabel":false}],"controlOutputDefinitions":[{"key":"MaterializeDone","label":"Materialize
      Done","summary":null,"hideLabel":false},{"key":"DeMaterializeDone","label":"De-materialize
      Done","summary":null,"hideLabel":false}],"valueInputDefinitions":[{"hasDefaultValue":false,"defaultValue":null,"_type":"Ludiq.AotList","key":"Materials","label":"Materials","summary":"Materials
      to animate the dissolve effect for.","hideLabel":false},{"hasDefaultValue":true,"defaultValue":{"$content":0.15,"$type":"System.Single"},"_type":"System.Single","key":"Speed","label":"Speed","summary":"Animation
      speed.","hideLabel":false},{"hasDefaultValue":true,"defaultValue":{"$content":false,"$type":"System.Boolean"},"_type":"System.Boolean","key":"doSmoothInterpolation","label":"Smooth
      Interpolation","summary":"Use an S-Curve (true) or a Linear Curve (false) to
      animate the materialization?","hideLabel":false},{"hasDefaultValue":true,"defaultValue":{"$content":2,"$type":"UnityEngine.Object"},"_type":"UnityEngine.AudioClip","key":"MaterializeAudio","label":"Materialize
      Audio","summary":null,"hideLabel":false},{"hasDefaultValue":true,"defaultValue":{"$content":3,"$type":"UnityEngine.Object"},"_type":"UnityEngine.AudioClip","key":"DematerializeAudio","label":"De-Materialize
      Audio","summary":null,"hideLabel":false}],"valueOutputDefinitions":[],"title":"Materialize
      Controller","summary":"A SuperUnit that animates the _Timeline attribute for
      the provided materials. \nWhen given a despawn event it will start playing
      the animation in reverse.\nUpon finishing the animation for either direction
      the flow will continue, with separate outputs for materialize and de-materialize.","pan":{"x":-1274.609,"y":-338.3704},"zoom":1.0,"elements":[{"defaultValues":{},"position":{"x":-2224.0,"y":-380.0},"guid":"5eb8de48-5d0a-48e5-bc9b-f92d3327786b","$version":"A","$type":"Bolt.GraphInput","$id":"26"},{"defaultValues":{},"position":{"x":-1474.0,"y":-438.0},"guid":"aa93b0ad-dd21-48e2-9338-97e9b9926b2c","$version":"A","$type":"Bolt.Once","$id":"28"},{"defaultValues":{},"position":{"x":1346.0,"y":-697.0},"guid":"7d8ae68b-6eaf-440f-8959-c854562b56be","$version":"A","$type":"Bolt.GraphOutput","$id":"30"},{"chainable":false,"member":{"name":"Clamp01","parameterTypes":["System.Single"],"targetType":"UnityEngine.Mathf","targetTypeName":"UnityEngine.Mathf","$version":"A"},"defaultValues":{"%value":{"$content":0.0,"$type":"System.Single"}},"position":{"x":-1014.0,"y":-392.0},"guid":"12cb0f1a-d6cf-4d12-9441-91172105a362","$version":"A","$type":"Bolt.InvokeMember","$id":"32"},{"chainable":false,"member":{"name":"PlayOneShot","parameterTypes":["UnityEngine.AudioClip"],"targetType":"UnityEngine.AudioSource","targetTypeName":"UnityEngine.AudioSource","$version":"A"},"defaultValues":{"target":null,"%clip":{"$content":4,"$type":"UnityEngine.Object"}},"position":{"x":1045.0,"y":-257.0},"guid":"2431d49c-4ce7-4cbc-a45c-16e3be98ab1e","$version":"A","$type":"Bolt.InvokeMember","$id":"35"},{"member":{"name":"deltaTime","parameterTypes":null,"targetType":"UnityEngine.Time","targetTypeName":"UnityEngine.Time","$version":"A"},"defaultValues":{},"position":{"x":-1858.0,"y":-55.0},"guid":"4f0d4cf6-5528-405b-ae0d-09842774e634","$version":"A","$type":"Bolt.GetMember","$id":"38"},{"specifyFallback":false,"kind":"Graph","defaultValues":{"name":{"$content":"doDespawn","$type":"System.String"}},"position":{"x":576.0,"y":-265.0},"guid":"0df42b6a-20bc-448f-a405-551a7f301a5f","$version":"A","$type":"Bolt.GetVariable","$id":"41"},{"specifyFallback":false,"kind":"Graph","defaultValues":{"name":{"$content":"Materials","$type":"System.String"}},"position":{"x":154.0,"y":-481.0},"guid":"49c2af90-2240-4352-b3cc-7c5d5b942b90","$version":"A","$type":"Bolt.GetVariable","$id":"43"},{"kind":"Graph","defaultValues":{"name":{"$content":"materializeAudio","$type":"System.String"}},"position":{"x":-1192.0,"y":-829.0},"guid":"4f2345ac-d479-4c57-b43b-c072d3bd643a","$version":"A","$type":"Bolt.SetVariable","$id":"45"},{"defaultValues":{},"position":{"x":-305.0,"y":-415.0},"guid":"4f0c411f-d981-425e-acab-33c462ffd7e4","$version":"A","$type":"Bolt.SelectUnit","$id":"47"},{"specifyFallback":false,"kind":"Graph","defaultValues":{"name":{"$content":"materializeAudio","$type":"System.String"}},"position":{"x":-1522.0,"y":-542.0},"guid":"b57f9b44-037a-4523-ab74-40c19efe2a51","$version":"A","$type":"Bolt.GetVariable","$id":"49"},{"kind":"Graph","defaultValues":{"name":{"$content":"doDespawn","$type":"System.String"}},"position":{"x":-1716.0,"y":197.0},"guid":"a0e2af35-4c05-4163-a5d9-b341b0c76aa6","$version":"A","$type":"Bolt.SetVariable","$id":"51"},{"specifyFallback":false,"kind":"Graph","defaultValues":{"name":{"$content":"Lerp","$type":"System.String"}},"position":{"x":-1702.0,"y":54.0},"guid":"6c126532-5139-41f6-91c7-c0258a1f305b","$version":"A","$type":"Bolt.GetVariable","$id":"53"},{"specifyFallback":false,"kind":"Graph","defaultValues":{"name":{"$content":"doSmoothInterpolation","$type":"System.String"}},"position":{"x":-570.0,"y":-417.0},"guid":"428ef781-aa43-431d-afc3-39895a388b67","$version":"A","$type":"Bolt.GetVariable","$id":"55"},{"numeric":true,"defaultValues":{"b":{"$content":1.0,"$type":"System.Single"}},"position":{"x":-69.0,"y":-761.0},"guid":"213ec18c-9f4b-466f-9478-34a758e54c88","$version":"A","$type":"Bolt.GreaterOrEqual","$id":"57"},{"kind":"Graph","defaultValues":{"name":{"$content":"DissolveSpeed","$type":"System.String"}},"position":{"x":-1938.0,"y":-823.0},"guid":"903c7c37-77da-486a-a62b-d8d44e770128","$version":"A","$type":"Bolt.SetVariable","$id":"59"},{"defaultValues":{},"position":{"x":-1446.0,"y":-83.0},"guid":"ad59f0d8-27e5-42a8-9c7d-498b47dcd090","$version":"A","$type":"Bolt.GenericAdd","$id":"61"},{"type":"System.Boolean","value":{"$content":true,"$type":"System.Boolean"},"defaultValues":{},"position":{"x":-1844.0,"y":270.0},"guid":"264455f4-3978-4165-9056-b35b7e769dcf","$version":"A","$type":"Bolt.Literal","$id":"63"},{"defaultValues":{},"position":{"x":1235.0,"y":-260.0},"guid":"7164b6f0-bbcc-4250-8a0d-be6b2083e446","$version":"A","$type":"Bolt.Branch","$id":"65"},{"chainable":false,"member":{"name":"SmoothStep","parameterTypes":["System.Single","System.Single","System.Single"],"targetType":"UnityEngine.Mathf","targetTypeName":"UnityEngine.Mathf","$version":"A"},"defaultValues":{"%from":{"$content":0.0,"$type":"System.Single"},"%to":{"$content":1.0,"$type":"System.Single"},"%t":{"$content":0.0,"$type":"System.Single"}},"position":{"x":-526.0,"y":-570.0},"guid":"f5b4adf1-5f55-44ca-84f4-e36c4267e198","$version":"A","$type":"Bolt.InvokeMember","$id":"67"},{"kind":"Graph","defaultValues":{"name":{"$content":"Lerp","$type":"System.String"}},"position":{"x":-832.0,"y":-418.0},"guid":"d1e00fe6-9bf6-4dab-ac1b-44469b6fcafd","$version":"A","$type":"Bolt.SetVariable","$id":"70"},{"defaultValues":{},"position":{"x":125.0,"y":-694.0},"guid":"d0a331a7-5485-4783-8053-c1bae44fc5a9","$version":"A","$type":"Bolt.Branch","$id":"72"},{"dictionary":false,"defaultValues":{},"position":{"x":341.0,"y":-516.0},"guid":"c33a52b6-b0ec-40dc-a99c-317e73b0b707","$version":"A","$type":"Bolt.ForEach","$id":"74"},{"chainable":false,"member":{"name":"SetFloat","parameterTypes":["System.String","System.Single"],"targetType":"UnityEngine.Material","targetTypeName":"UnityEngine.Material","$version":"A"},"defaultValues":{"target":null,"%name":{"$content":"_Timeline","$type":"System.String"},"%value":{"$content":0.0,"$type":"System.Single"}},"position":{"x":551.0,"y":-478.0},"guid":"56d978c0-d431-456b-b692-b19689339192","$version":"A","$type":"Bolt.InvokeMember","$id":"76"},{"defaultValues":{},"position":{"x":-1444.0,"y":198.0},"guid":"385de96d-6a5b-400c-b58b-6202656e0759","$version":"A","$type":"Bolt.GenericSubtract","$id":"79"},{"kind":"Graph","defaultValues":{"name":{"$content":"deMaterializeAudio","$type":"System.String"}},"position":{"x":-962.0,"y":-829.0},"guid":"00b95cf4-f42c-4a82-b9ff-7ed2c6d240ca","$version":"A","$type":"Bolt.SetVariable","$id":"81"},{"specifyFallback":false,"kind":"Graph","defaultValues":{"name":{"$content":"doDespawn","$type":"System.String"}},"position":{"x":-1460.0,"y":57.0},"guid":"cd16ee0f-3b24-42e0-ad02-21e420a84d40","$version":"A","$type":"Bolt.GetVariable","$id":"83"},{"specifyFallback":false,"kind":"Graph","defaultValues":{"name":{"$content":"DissolveSpeed","$type":"System.String"}},"position":{"x":-1858.0,"y":-149.0},"guid":"8e32211c-4b78-497d-8eb1-f3d50a306c21","$version":"A","$type":"Bolt.GetVariable","$id":"85"},{"defaultValues":{},"position":{"x":821.0,"y":-263.0},"guid":"0f782c1b-759e-4182-af04-0943974b7f47","$version":"A","$type":"Bolt.Branch","$id":"87"},{"numeric":true,"defaultValues":{"b":{"$content":0.0,"$type":"System.Single"}},"position":{"x":1047.0,"y":-120.0},"guid":"c613ba9d-4b6f-472b-8e3a-8a95afd123f3","$version":"A","$type":"Bolt.LessOrEqual","$id":"89"},{"chainable":false,"member":{"name":"PlayOneShot","parameterTypes":["UnityEngine.AudioClip"],"targetType":"UnityEngine.AudioSource","targetTypeName":"UnityEngine.AudioSource","$version":"A"},"defaultValues":{"target":null,"%clip":{"$content":5,"$type":"UnityEngine.Object"}},"position":{"x":-1247.0,"y":-531.0},"guid":"8698ff43-9dc1-495d-86cb-d713b7d01e1d","$version":"A","$type":"Bolt.InvokeMember","$id":"91"},{"defaultValues":{},"position":{"x":-1212.0,"y":62.0},"guid":"5d28dffa-bdd0-41c8-8ad6-8d1015b95b50","$version":"A","$type":"Bolt.SelectUnit","$id":"94"},{"coroutine":false,"defaultValues":{},"position":{"x":-2078.0,"y":-821.0},"guid":"255c6cb8-b355-4934-9ec5-550c5dcb3d28","$version":"A","$type":"Bolt.Start","$id":"96"},{"kind":"Graph","defaultValues":{"name":{"$content":"doSmoothInterpolation","$type":"System.String"}},"position":{"x":-1489.0,"y":-830.0},"guid":"750970ad-cb3f-4f84-86ee-b23260091836","$version":"A","$type":"Bolt.SetVariable","$id":"98"},{"specifyFallback":false,"kind":"Graph","defaultValues":{"name":{"$content":"deMaterializeAudio","$type":"System.String"}},"position":{"x":585.0,"y":-116.0},"guid":"a0a39b7a-3695-4187-8f18-bc8b0f462dcb","$version":"A","$type":"Bolt.GetVariable","$id":"100"},{"defaultValues":{},"position":{"x":-1634.0,"y":-80.0},"guid":"18076e21-c1fe-4125-9905-7cf472482414","$version":"A","$type":"Bolt.GenericMultiply","$id":"102"},{"kind":"Graph","defaultValues":{"name":{"$content":"Materials","$type":"System.String"}},"position":{"x":-1698.0,"y":-825.0},"guid":"049f12ab-d4b2-48fc-a0f2-e75faa33607a","$version":"A","$type":"Bolt.SetVariable","$id":"104"},{"sourceUnit":{"$ref":"96"},"sourceKey":"trigger","destinationUnit":{"$ref":"59"},"destinationKey":"assign","guid":"24ca3a88-8f58-46e5-b546-1303b7734266","$type":"Bolt.ControlConnection"},{"sourceUnit":{"$ref":"72"},"sourceKey":"ifFalse","destinationUnit":{"$ref":"74"},"destinationKey":"enter","guid":"4a489f4b-8d54-44da-b805-bfabf9fd7663","$type":"Bolt.ControlConnection"},{"sourceUnit":{"$ref":"59"},"sourceKey":"assigned","destinationUnit":{"$ref":"104"},"destinationKey":"assign","guid":"ca8c27a9-b2fa-4c24-a7f5-cfa5ae64acec","$type":"Bolt.ControlConnection"},{"sourceUnit":{"$ref":"104"},"sourceKey":"assigned","destinationUnit":{"$ref":"98"},"destinationKey":"assign","guid":"b468ce4d-81b3-4a57-bbc0-0361d25ad56b","$type":"Bolt.ControlConnection"},{"sourceUnit":{"$ref":"67"},"sourceKey":"exit","destinationUnit":{"$ref":"72"},"destinationKey":"enter","guid":"71a1209f-2da0-4dab-8938-86527d2f18b7","$type":"Bolt.ControlConnection"},{"sourceUnit":{"$ref":"76"},"sourceKey":"exit","destinationUnit":{"$ref":"87"},"destinationKey":"enter","guid":"5e363a7f-f2e5-4d41-adc4-e804accf4362","$type":"Bolt.ControlConnection"},{"sourceUnit":{"$ref":"70"},"sourceKey":"assigned","destinationUnit":{"$ref":"67"},"destinationKey":"enter","guid":"9dc19c49-5abd-43e2-9d3a-fe5674134c9e","$type":"Bolt.ControlConnection"},{"sourceUnit":{"$ref":"28"},"sourceKey":"after","destinationUnit":{"$ref":"32"},"destinationKey":"enter","guid":"3064adc6-3b66-4946-8311-f5ce14942db2","$type":"Bolt.ControlConnection"},{"sourceUnit":{"$ref":"32"},"sourceKey":"exit","destinationUnit":{"$ref":"70"},"destinationKey":"assign","guid":"ad72e90f-ef01-47a6-ad83-cad6c0eed345","$type":"Bolt.ControlConnection"},{"sourceUnit":{"$ref":"87"},"sourceKey":"ifTrue","destinationUnit":{"$ref":"35"},"destinationKey":"enter","guid":"58ab27fd-6b74-4024-a4b2-39c2151f9e16","$type":"Bolt.ControlConnection"},{"sourceUnit":{"$ref":"28"},"sourceKey":"once","destinationUnit":{"$ref":"91"},"destinationKey":"enter","guid":"b98d3b41-68f5-41a1-9269-e70f94d61fd8","$type":"Bolt.ControlConnection"},{"sourceUnit":{"$ref":"98"},"sourceKey":"assigned","destinationUnit":{"$ref":"45"},"destinationKey":"assign","guid":"84fbc024-050c-41f8-ae5c-ca5c99fab4c2","$type":"Bolt.ControlConnection"},{"sourceUnit":{"$ref":"72"},"sourceKey":"ifTrue","destinationUnit":{"$ref":"30"},"destinationKey":"MaterializeDone","guid":"3173e170-a586-4351-8c1b-b1504135b811","$type":"Bolt.ControlConnection"},{"sourceUnit":{"$ref":"65"},"sourceKey":"ifTrue","destinationUnit":{"$ref":"30"},"destinationKey":"DeMaterializeDone","guid":"8db7f874-8696-46bb-b238-fabe37f8794b","$type":"Bolt.ControlConnection"},{"sourceUnit":{"$ref":"26"},"sourceKey":"FlowIn","destinationUnit":{"$ref":"28"},"destinationKey":"enter","guid":"2029ae8c-8d89-4806-a8bd-f120600609ef","$type":"Bolt.ControlConnection"},{"sourceUnit":{"$ref":"26"},"sourceKey":"Event","destinationUnit":{"$ref":"51"},"destinationKey":"assign","guid":"802e636c-8de0-4930-b2d5-3e8ff707c369","$type":"Bolt.ControlConnection"},{"sourceUnit":{"$ref":"35"},"sourceKey":"exit","destinationUnit":{"$ref":"65"},"destinationKey":"enter","guid":"c3a63aa1-e48c-4bef-982f-cb161f0ff5f9","$type":"Bolt.ControlConnection"},{"sourceUnit":{"$ref":"74"},"sourceKey":"body","destinationUnit":{"$ref":"76"},"destinationKey":"enter","guid":"e8dfd6b3-1fff-4a1b-9f6c-3998274e20a9","$type":"Bolt.ControlConnection"},{"sourceUnit":{"$ref":"45"},"sourceKey":"assigned","destinationUnit":{"$ref":"81"},"destinationKey":"assign","guid":"53351f39-1b7e-404a-af3c-77cb175e60ca","$type":"Bolt.ControlConnection"},{"sourceUnit":{"$ref":"26"},"sourceKey":"MaterializeAudio","destinationUnit":{"$ref":"45"},"destinationKey":"input","guid":"f76db0cb-bc2a-4498-9b08-520497f6683f","$type":"Bolt.ValueConnection"},{"sourceUnit":{"$ref":"47"},"sourceKey":"selection","destinationUnit":{"$ref":"76"},"destinationKey":"%value","guid":"666b28c7-40a8-4230-a98f-b2e9e7ae2764","$type":"Bolt.ValueConnection"},{"sourceUnit":{"$ref":"61"},"sourceKey":"sum","destinationUnit":{"$ref":"94"},"destinationKey":"ifFalse","guid":"833507aa-754f-47e2-823a-fa5c54184272","$type":"Bolt.ValueConnection"},{"sourceUnit":{"$ref":"26"},"sourceKey":"DematerializeAudio","destinationUnit":{"$ref":"81"},"destinationKey":"input","guid":"dcee129e-8099-4733-bcd2-0ee3a3e9373d","$type":"Bolt.ValueConnection"},{"sourceUnit":{"$ref":"53"},"sourceKey":"value","destinationUnit":{"$ref":"79"},"destinationKey":"minuend","guid":"1c38023e-3f10-4646-b372-bd5f136f0afd","$type":"Bolt.ValueConnection"},{"sourceUnit":{"$ref":"26"},"sourceKey":"Speed","destinationUnit":{"$ref":"59"},"destinationKey":"input","guid":"2acf54c6-2c5e-4615-a920-44f8365aad28","$type":"Bolt.ValueConnection"},{"sourceUnit":{"$ref":"47"},"sourceKey":"selection","destinationUnit":{"$ref":"89"},"destinationKey":"a","guid":"02f80949-4f71-4285-ac2b-557d22b9c72b","$type":"Bolt.ValueConnection"},{"sourceUnit":{"$ref":"55"},"sourceKey":"value","destinationUnit":{"$ref":"47"},"destinationKey":"condition","guid":"83824288-31cb-4800-bc90-ec9bab0bd75e","$type":"Bolt.ValueConnection"},{"sourceUnit":{"$ref":"102"},"sourceKey":"product","destinationUnit":{"$ref":"61"},"destinationKey":"b","guid":"a4ec5fd4-8de9-42f7-8154-d2774d551149","$type":"Bolt.ValueConnection"},{"sourceUnit":{"$ref":"41"},"sourceKey":"value","destinationUnit":{"$ref":"87"},"destinationKey":"condition","guid":"262a4604-e6cf-4f36-9ea2-29803bc51bb5","$type":"Bolt.ValueConnection"},{"sourceUnit":{"$ref":"57"},"sourceKey":"comparison","destinationUnit":{"$ref":"72"},"destinationKey":"condition","guid":"821d1f88-b481-4658-a36d-23494f6d9170","$type":"Bolt.ValueConnection"},{"sourceUnit":{"$ref":"53"},"sourceKey":"value","destinationUnit":{"$ref":"61"},"destinationKey":"a","guid":"a9dc8233-3504-4f09-b314-bc50e7b9a53c","$type":"Bolt.ValueConnection"},{"sourceUnit":{"$ref":"49"},"sourceKey":"value","destinationUnit":{"$ref":"91"},"destinationKey":"%clip","guid":"902ad1c0-1ffc-46b5-b613-369c71286627","$type":"Bolt.ValueConnection"},{"sourceUnit":{"$ref":"89"},"sourceKey":"comparison","destinationUnit":{"$ref":"65"},"destinationKey":"condition","guid":"555b617e-544e-4687-aa8f-4e4781060dc1","$type":"Bolt.ValueConnection"},{"sourceUnit":{"$ref":"63"},"sourceKey":"output","destinationUnit":{"$ref":"51"},"destinationKey":"input","guid":"0e5e906f-db0c-4a61-8cee-31b15f926580","$type":"Bolt.ValueConnection"},{"sourceUnit":{"$ref":"67"},"sourceKey":"result","destinationUnit":{"$ref":"47"},"destinationKey":"ifTrue","guid":"a7f27fb3-d8fd-4d31-b402-d6416c8023f2","$type":"Bolt.ValueConnection"},{"sourceUnit":{"$ref":"94"},"sourceKey":"selection","destinationUnit":{"$ref":"32"},"destinationKey":"%value","guid":"1eee9209-fed8-4c63-b1d5-c3bc81a485e2","$type":"Bolt.ValueConnection"},{"sourceUnit":{"$ref":"26"},"sourceKey":"Materials","destinationUnit":{"$ref":"104"},"destinationKey":"input","guid":"94103d97-ea60-41e1-a7bd-1d841fc18471","$type":"Bolt.ValueConnection"},{"sourceUnit":{"$ref":"70"},"sourceKey":"output","destinationUnit":{"$ref":"47"},"destinationKey":"ifFalse","guid":"78becbd9-4eba-4efe-b38a-6e891c19e4a3","$type":"Bolt.ValueConnection"},{"sourceUnit":{"$ref":"43"},"sourceKey":"value","destinationUnit":{"$ref":"74"},"destinationKey":"collection","guid":"ea7708e0-7dc5-4333-89f9-4ae6ec46fafa","$type":"Bolt.ValueConnection"},{"sourceUnit":{"$ref":"74"},"sourceKey":"currentItem","destinationUnit":{"$ref":"76"},"destinationKey":"target","guid":"c253944a-67a1-4dbe-ae8f-0ea7834011dd","$type":"Bolt.ValueConnection"},{"sourceUnit":{"$ref":"38"},"sourceKey":"value","destinationUnit":{"$ref":"102"},"destinationKey":"b","guid":"23ee7577-5ab6-4365-bdb9-fbd2b78e3189","$type":"Bolt.ValueConnection"},{"sourceUnit":{"$ref":"102"},"sourceKey":"product","destinationUnit":{"$ref":"79"},"destinationKey":"subtrahend","guid":"cc2611fe-3583-4fa1-8e12-ff5d36d4a84a","$type":"Bolt.ValueConnection"},{"sourceUnit":{"$ref":"70"},"sourceKey":"output","destinationUnit":{"$ref":"67"},"destinationKey":"%t","guid":"7b4de218-b6ad-4ff1-93d0-977ce5b3e81c","$type":"Bolt.ValueConnection"},{"sourceUnit":{"$ref":"79"},"sourceKey":"difference","destinationUnit":{"$ref":"94"},"destinationKey":"ifTrue","guid":"9737b1e8-5ccd-40ce-be42-5e6ea46c9437","$type":"Bolt.ValueConnection"},{"sourceUnit":{"$ref":"32"},"sourceKey":"result","destinationUnit":{"$ref":"70"},"destinationKey":"input","guid":"cd24b447-439d-4717-bd9a-0e724c75aef6","$type":"Bolt.ValueConnection"},{"sourceUnit":{"$ref":"100"},"sourceKey":"value","destinationUnit":{"$ref":"35"},"destinationKey":"%clip","guid":"25ad0186-f783-4b18-990b-1d0126e665d3","$type":"Bolt.ValueConnection"},{"sourceUnit":{"$ref":"85"},"sourceKey":"value","destinationUnit":{"$ref":"102"},"destinationKey":"a","guid":"7ca2d1cc-8545-49a2-90e5-e80e6f810c88","$type":"Bolt.ValueConnection"},{"sourceUnit":{"$ref":"47"},"sourceKey":"selection","destinationUnit":{"$ref":"57"},"destinationKey":"a","guid":"ce6df314-2d42-4c76-854a-860c61640059","$type":"Bolt.ValueConnection"},{"sourceUnit":{"$ref":"83"},"sourceKey":"value","destinationUnit":{"$ref":"94"},"destinationKey":"condition","guid":"aecf15c1-0c16-4970-9a8d-668c807aac98","$type":"Bolt.ValueConnection"},{"sourceUnit":{"$ref":"26"},"sourceKey":"doSmoothInterpolation","destinationUnit":{"$ref":"98"},"destinationKey":"input","guid":"8c7f9e13-16db-46a9-a3f1-c9209c4bdd0b","$type":"Bolt.ValueConnection"},{"position":{"xMin":-1063.0,"yMin":-642.0,"xMax":-152.0,"yMax":-257.0},"label":"Pick
      linear or smooth interpolation","comment":null,"color":{"r":0.0,"g":0.0,"b":0.0,"a":1.0},"guid":"08dd89e9-5a9c-4351-b80b-ead358c99871","$version":"A","$type":"Ludiq.GraphGroup"},{"position":{"xMin":-2102.0,"yMin":-866.0,"xMax":-741.0,"yMax":-675.0},"label":"Store
      input values as variables","comment":null,"color":{"r":0.0,"g":0.0,"b":0.0,"a":1.0},"guid":"778a16e2-417a-490e-a69b-906b00004b02","$version":"A","$type":"Ludiq.GraphGroup"},{"position":{"xMin":-1872.0,"yMin":-178.0,"xMax":-1323.0,"yMax":36.0},"label":"Materialize","comment":null,"color":{"r":0.0,"g":0.0,"b":0.0,"a":1.0},"guid":"54043fc9-2a23-4a5d-93d0-33b3447e6449","$version":"A","$type":"Ludiq.GraphGroup"},{"position":{"xMin":1322.0,"yMin":-731.0,"xMax":1528.0,"yMax":-584.0},"label":"Exit","comment":null,"color":{"r":0.0,"g":0.0,"b":0.0,"a":1.0},"guid":"045b1388-dff9-4f3f-ab49-9d042869a28c","$version":"A","$type":"Ludiq.GraphGroup"},{"position":{"xMin":-1868.0,"yMin":163.0,"xMax":-1315.0,"yMax":374.0},"label":"De-Materialize","comment":null,"color":{"r":0.0,"g":0.0,"b":0.0,"a":1.0},"guid":"2ae60372-cc65-4f58-8e3e-545385dc32bc","$version":"A","$type":"Ludiq.GraphGroup"},{"position":{"xMin":-1892.0,"yMin":-218.0,"xMax":-1083.0,"yMax":395.0},"label":"Blend
      Value over Time","comment":null,"color":{"r":0.0,"g":0.0,"b":0.0,"a":1.0},"guid":"4f0fd315-3100-4bd4-afef-e2ad37b4afe3","$version":"A","$type":"Ludiq.GraphGroup"},{"position":{"xMin":133.0,"yMin":-557.0,"xMax":719.0,"yMax":-321.0},"label":"Animate
      Material","comment":null,"color":{"r":0.0,"g":0.0,"b":0.0,"a":1.0},"guid":"5487470e-3a24-4e60-915c-9b6c2825e8bd","$version":"A","$type":"Ludiq.GraphGroup"},{"position":{"xMin":-1039.0,"yMin":-458.0,"xMax":-677.0,"yMax":-275.0},"label":"Linear","comment":null,"color":{"r":0.0,"g":0.0,"b":0.0,"a":1.0},"guid":"0b198d66-aba3-4e63-a068-29eff320e90b","$version":"A","$type":"Ludiq.GraphGroup"},{"position":{"xMin":-108.0,"yMin":-813.0,"xMax":256.0,"yMax":-571.0},"label":"Wait
      for Materialize to finish","comment":null,"color":{"r":0.0,"g":0.0,"b":0.0,"a":1.0},"guid":"6cccf4d0-c3c7-4bc0-8f2d-a5219de29d12","$version":"A","$type":"Ludiq.GraphGroup"},{"position":{"xMin":545.0,"yMin":-303.0,"xMax":1528.0,"yMax":5.0},"label":"Wait
      for De-materialize to finish","comment":null,"color":{"r":0.0,"g":0.0,"b":0.0,"a":1.0},"guid":"a1bd37ce-1797-4f05-a2cf-14286c42884a","$version":"A","$type":"Ludiq.GraphGroup"},{"position":{"xMin":-605.0,"yMin":-604.0,"xMax":-186.0,"yMax":-273.0},"label":"Smooth","comment":null,"color":{"r":0.0,"g":0.0,"b":0.0,"a":1.0},"guid":"a3d1a2ca-8806-47fe-9539-85cbcd9a57d5","$version":"A","$type":"Ludiq.GraphGroup"}],"$version":"A"}}'
    _objectReferences:
    - {fileID: 8300000, guid: 88f64b18fe6467f4dbae9b999533cb23, type: 3}
    - {fileID: 8300000, guid: 80f25594b2fd43140832c28cb7191242, type: 3}
    - {fileID: 8300000, guid: 88f64b18fe6467f4dbae9b999533cb23, type: 3}
    - {fileID: 8300000, guid: 80f25594b2fd43140832c28cb7191242, type: 3}
    - {fileID: 8300000, guid: 80f25594b2fd43140832c28cb7191242, type: 3}
    - {fileID: 8300000, guid: 213f231ac8d1c4b798e36a63deda97b5, type: 3}
