%YAML 1.1
%TAG !u! tag:unity3d.com,2011:
--- !u!114 &11400000
MonoBehaviour:
  m_ObjectHideFlags: 0
  m_CorrespondingSourceObject: {fileID: 0}
  m_PrefabInstance: {fileID: 0}
  m_PrefabAsset: {fileID: 0}
  m_GameObject: {fileID: 0}
  m_Enabled: 1
  m_EditorHideFlags: 0
  m_Script: {fileID: -1893448595, guid: a040fb66244a7f54289914d98ea4ef7d, type: 3}
  m_Name: ModelViewer
  m_EditorClassIdentifier: 
  _data:
    _json: '{"graph":{"variables":{"collection":{"$content":[],"$version":"A"},"$version":"A"},"controlInputDefinitions":[],"controlOutputDefinitions":[],"valueInputDefinitions":[],"valueOutputDefinitions":[],"title":"Model
      Viewer","summary":"use CustomEvent-Show with prefab arg, or CustomEvent-Hide","pan":{"x":449.4443,"y":-121.8822},"zoom":1.0,"elements":[{"coroutine":false,"defaultValues":{},"position":{"x":-334.0,"y":-620.0},"guid":"30c55f47-4071-4865-8ffb-b042b5776050","$version":"A","$type":"Bolt.Start","$id":"9"},{"argumentCount":0,"coroutine":false,"defaultValues":{"target":null,"name":{"$content":"Hide","$type":"System.String"}},"position":{"x":-401.0,"y":81.0},"guid":"13efc994-3523-4a2f-9ccd-2bdb355f07d4","$version":"A","$type":"Bolt.CustomEvent","$id":"11"},{"member":{"name":"gameObject","parameterTypes":null,"targetType":"UnityEngine.Transform","targetTypeName":"UnityEngine.Transform","$version":"A"},"defaultValues":{"target":null},"position":{"x":223.0,"y":180.0},"guid":"b3bce5e9-feec-4274-9d85-622166bd5d25","$version":"A","$type":"Bolt.GetMember","$id":"13"},{"chainable":false,"member":{"name":"GetChild","parameterTypes":["System.Int32"],"targetType":"UnityEngine.Transform","targetTypeName":"UnityEngine.Transform","$version":"A"},"defaultValues":{"target":null,"%index":{"$content":0,"$type":"System.Int32"}},"position":{"x":66.0,"y":108.0},"guid":"c82e1b30-59bd-4c67-b714-6c1b7306dcc0","$version":"A","$type":"Bolt.InvokeMember","$id":"16"},{"coroutine":false,"defaultValues":{},"position":{"x":-349.0,"y":-419.0},"guid":"29479758-9c4e-42d9-800b-d06f69bc1199","$version":"A","$type":"Bolt.Update"},{"type":"System.String","value":{"$content":"OnClose","$type":"System.String"},"defaultValues":{},"position":{"x":852.0,"y":249.0},"guid":"b5420714-4115-4870-bedd-93a6f8fee0e8","$version":"A","$type":"Bolt.Literal","$id":"21"},{"specifyFallback":false,"kind":"Object","defaultValues":{"name":{"$content":"Container","$type":"System.String"},"object":null},"position":{"x":-152.0,"y":-181.0},"guid":"df1df60e-0e92-47b8-8684-288ebdbf8519","$version":"A","$type":"Bolt.GetVariable","$id":"23"},{"chainable":false,"member":{"name":"Instantiate","parameterTypes":["UnityEngine.Object","UnityEngine.Transform"],"targetType":"UnityEngine.Object","targetTypeName":"UnityEngine.Object","$version":"A"},"defaultValues":{"%original":null,"%parent":null},"position":{"x":99.0,"y":-275.0},"guid":"62b9f3d3-4725-4a74-ba83-8c06cf299256","$version":"A","$type":"Bolt.InvokeMember","$id":"25"},{"argumentCount":1,"coroutine":false,"defaultValues":{"target":null,"name":{"$content":"Show","$type":"System.String"}},"position":{"x":-387.0,"y":-282.0},"guid":"352e6b8e-b34e-44c1-9c33-faea1b4fd79e","$version":"A","$type":"Bolt.CustomEvent","$id":"28"},{"chainable":false,"member":{"name":"SetActive","parameterTypes":["System.Boolean"],"targetType":"UnityEngine.GameObject","targetTypeName":"UnityEngine.GameObject","$version":"A"},"defaultValues":{"target":null,"%value":{"$content":true,"$type":"System.Boolean"}},"position":{"x":636.0,"y":-314.0},"guid":"f163406d-c9e6-41c2-ba2d-597b8c48233c","$version":"A","$type":"Bolt.InvokeMember","$id":"30"},{"chainable":false,"member":{"name":"SetActive","parameterTypes":["System.Boolean"],"targetType":"UnityEngine.GameObject","targetTypeName":"UnityEngine.GameObject","$version":"A"},"defaultValues":{"target":null,"%value":{"$content":true,"$type":"System.Boolean"}},"position":{"x":458.0,"y":-313.0},"guid":"0dcf75a2-963c-4466-9fb9-a9b7e77adea6","$version":"A","$type":"Bolt.InvokeMember","$id":"33"},{"specifyFallback":false,"kind":"Object","defaultValues":{"name":{"$content":"Camera","$type":"System.String"},"object":null},"position":{"x":-102.0,"y":-509.0},"guid":"239fd35e-ef4f-440e-a3a8-cda1084fa120","$version":"A","$type":"Bolt.GetVariable","$id":"36"},{"specifyFallback":false,"kind":"Object","defaultValues":{"name":{"$content":"Container","$type":"System.String"},"object":null},"position":{"x":-152.0,"y":183.0},"guid":"732bc03f-93f5-41ac-8ae3-ad201f0677ea","$version":"A","$type":"Bolt.GetVariable","$id":"38"},{"specifyFallback":false,"kind":"Object","defaultValues":{"name":{"$content":"BlurBG","$type":"System.String"},"object":null},"position":{"x":452.0,"y":-173.0},"guid":"c77b03d0-cd60-4bcf-9e0a-fcce3452678e","$version":"A","$type":"Bolt.GetVariable","$id":"40"},{"chainable":false,"member":{"name":"Destroy","parameterTypes":["UnityEngine.Object"],"targetType":"UnityEngine.GameObject","targetTypeName":"UnityEngine.GameObject","$version":"A"},"defaultValues":{"%obj":null},"position":{"x":424.0,"y":105.0},"guid":"90499692-bf48-4b22-9ffa-640bb5b73e1d","$version":"A","$type":"Bolt.InvokeMember","$id":"42"},{"chainable":false,"member":{"name":"SetActive","parameterTypes":["System.Boolean"],"targetType":"UnityEngine.GameObject","targetTypeName":"UnityEngine.GameObject","$version":"A"},"defaultValues":{"target":null,"%value":{"$content":false,"$type":"System.Boolean"}},"position":{"x":798.0,"y":103.0},"guid":"71aa19e7-e12e-4304-a4d0-6b52be59402b","$version":"A","$type":"Bolt.InvokeMember","$id":"45"},{"specifyFallback":false,"kind":"Object","defaultValues":{"name":{"$content":"Camera","$type":"System.String"},"object":null},"position":{"x":421.0,"y":253.0},"guid":"f0bcc14b-a926-4555-9dcd-f0c8213cc807","$version":"A","$type":"Bolt.GetVariable","$id":"48"},{"specifyFallback":false,"kind":"Object","defaultValues":{"name":{"$content":"BlurBG","$type":"System.String"},"object":null},"position":{"x":90.0,"y":-509.0},"guid":"6c6d984a-0020-4f90-88b5-23b5b6cb3a16","$version":"A","$type":"Bolt.GetVariable","$id":"50"},{"specifyFallback":false,"kind":"Object","defaultValues":{"name":{"$content":"BlurBG","$type":"System.String"},"object":null},"position":{"x":613.0,"y":253.0},"guid":"f7294e4b-661a-408f-8a54-e53be82060db","$version":"A","$type":"Bolt.GetVariable","$id":"52"},{"chainable":false,"member":{"name":"SetActive","parameterTypes":["System.Boolean"],"targetType":"UnityEngine.GameObject","targetTypeName":"UnityEngine.GameObject","$version":"A"},"defaultValues":{"target":null,"%value":{"$content":false,"$type":"System.Boolean"}},"position":{"x":96.0,"y":-649.0},"guid":"029678b5-5f23-4d8b-9af1-2c33a0d27564","$version":"A","$type":"Bolt.InvokeMember","$id":"54"},{"chainable":false,"member":{"name":"SetActive","parameterTypes":["System.Boolean"],"targetType":"UnityEngine.GameObject","targetTypeName":"UnityEngine.GameObject","$version":"A"},"defaultValues":{"target":null,"%value":{"$content":false,"$type":"System.Boolean"}},"position":{"x":274.0,"y":-630.0},"guid":"646388f9-8676-4f75-9084-f9a8c33a1fdf","$version":"A","$type":"Bolt.InvokeMember","$id":"57"},{"specifyFallback":false,"kind":"Object","defaultValues":{"name":{"$content":"Camera","$type":"System.String"},"object":null},"position":{"x":260.0,"y":-173.0},"guid":"1d2f0fb0-7063-486e-bfb5-a4a9bc8e7df0","$version":"A","$type":"Bolt.GetVariable","$id":"60"},{"chainable":false,"member":{"name":"SetActive","parameterTypes":["System.Boolean"],"targetType":"UnityEngine.GameObject","targetTypeName":"UnityEngine.GameObject","$version":"A"},"defaultValues":{"target":null,"%value":{"$content":false,"$type":"System.Boolean"}},"position":{"x":620.0,"y":104.0},"guid":"c3070845-f00b-41e3-a327-548e5adb707b","$version":"A","$type":"Bolt.InvokeMember","$id":"62"},{"chainable":false,"member":{"name":"SendMessage","parameterTypes":["System.String","System.Object"],"targetType":"UnityEngine.Component","targetTypeName":"UnityEngine.Component","$version":"A"},"defaultValues":{"target":null,"%methodName":{"$content":"InvokeEvent","$type":"System.String"}},"position":{"x":1052.0,"y":136.0},"guid":"b2a87b93-1970-4b12-972b-16ea90151553","$version":"A","$type":"Bolt.InvokeMember","$id":"65"},{"sourceUnit":{"$ref":"28"},"sourceKey":"trigger","destinationUnit":{"$ref":"25"},"destinationKey":"enter","guid":"4bc6d375-4f01-4103-9b00-664bf01f6af6","$type":"Bolt.ControlConnection"},{"sourceUnit":{"$ref":"11"},"sourceKey":"trigger","destinationUnit":{"$ref":"16"},"destinationKey":"enter","guid":"08653d3d-4223-43eb-b841-8eed51169595","$type":"Bolt.ControlConnection"},{"sourceUnit":{"$ref":"16"},"sourceKey":"exit","destinationUnit":{"$ref":"42"},"destinationKey":"enter","guid":"a2eff5a3-9b8c-4302-8c38-3eceaf8b632f","$type":"Bolt.ControlConnection"},{"sourceUnit":{"$ref":"33"},"sourceKey":"exit","destinationUnit":{"$ref":"30"},"destinationKey":"enter","guid":"49898098-5bfe-4411-ab28-7619899ed2d5","$type":"Bolt.ControlConnection"},{"sourceUnit":{"$ref":"54"},"sourceKey":"exit","destinationUnit":{"$ref":"57"},"destinationKey":"enter","guid":"eda09581-12f6-489b-9a3f-4e4dc90089b6","$type":"Bolt.ControlConnection"},{"sourceUnit":{"$ref":"62"},"sourceKey":"exit","destinationUnit":{"$ref":"45"},"destinationKey":"enter","guid":"f95fefc8-4a28-4f76-b81b-413ce4dc7dbe","$type":"Bolt.ControlConnection"},{"sourceUnit":{"$ref":"9"},"sourceKey":"trigger","destinationUnit":{"$ref":"54"},"destinationKey":"enter","guid":"9562dd9e-0245-438f-a894-061ee0970088","$type":"Bolt.ControlConnection"},{"sourceUnit":{"$ref":"42"},"sourceKey":"exit","destinationUnit":{"$ref":"62"},"destinationKey":"enter","guid":"a30404c6-5ede-49a6-b831-0d7ba0043caa","$type":"Bolt.ControlConnection"},{"sourceUnit":{"$ref":"25"},"sourceKey":"exit","destinationUnit":{"$ref":"33"},"destinationKey":"enter","guid":"8fee398a-bc9f-41a6-a3c7-bed921697eef","$type":"Bolt.ControlConnection"},{"sourceUnit":{"$ref":"45"},"sourceKey":"exit","destinationUnit":{"$ref":"65"},"destinationKey":"enter","guid":"a7bad046-47bf-466e-a977-a56983bbbbb9","$type":"Bolt.ControlConnection"},{"sourceUnit":{"$ref":"36"},"sourceKey":"value","destinationUnit":{"$ref":"54"},"destinationKey":"target","guid":"44706bc0-2576-4d80-91a1-d476e5c0fbac","$type":"Bolt.ValueConnection"},{"sourceUnit":{"$ref":"13"},"sourceKey":"value","destinationUnit":{"$ref":"42"},"destinationKey":"%obj","guid":"c088bfc3-db3a-4ece-b6eb-0ec307eab8be","$type":"Bolt.ValueConnection"},{"sourceUnit":{"$ref":"23"},"sourceKey":"value","destinationUnit":{"$ref":"25"},"destinationKey":"%parent","guid":"5dc09f62-6ab9-44c7-9fb3-4b81f7551aad","$type":"Bolt.ValueConnection"},{"sourceUnit":{"$ref":"40"},"sourceKey":"value","destinationUnit":{"$ref":"30"},"destinationKey":"target","guid":"debd0607-fee4-4f8c-b455-5e14699aa992","$type":"Bolt.ValueConnection"},{"sourceUnit":{"$ref":"28"},"sourceKey":"argument_0","destinationUnit":{"$ref":"25"},"destinationKey":"%original","guid":"a597297d-c1da-4848-9a86-edfd94c3f557","$type":"Bolt.ValueConnection"},{"sourceUnit":{"$ref":"52"},"sourceKey":"value","destinationUnit":{"$ref":"45"},"destinationKey":"target","guid":"b9376586-4a97-4bee-9578-99b94cc27152","$type":"Bolt.ValueConnection"},{"sourceUnit":{"$ref":"48"},"sourceKey":"value","destinationUnit":{"$ref":"62"},"destinationKey":"target","guid":"69a34fd9-9c51-4f1d-a2cc-15fddce62b54","$type":"Bolt.ValueConnection"},{"sourceUnit":{"$ref":"38"},"sourceKey":"value","destinationUnit":{"$ref":"16"},"destinationKey":"target","guid":"f88944dd-bce9-40bc-8895-559142de81c8","$type":"Bolt.ValueConnection"},{"sourceUnit":{"$ref":"60"},"sourceKey":"value","destinationUnit":{"$ref":"33"},"destinationKey":"target","guid":"711e0776-4bd2-48f5-900a-d9db5a42e769","$type":"Bolt.ValueConnection"},{"sourceUnit":{"$ref":"16"},"sourceKey":"result","destinationUnit":{"$ref":"13"},"destinationKey":"target","guid":"3df1d4e6-f290-4c5c-ae5e-e14dec3452f3","$type":"Bolt.ValueConnection"},{"sourceUnit":{"$ref":"50"},"sourceKey":"value","destinationUnit":{"$ref":"57"},"destinationKey":"target","guid":"38101e84-2954-4563-968f-31758f2664e5","$type":"Bolt.ValueConnection"},{"sourceUnit":{"$ref":"21"},"sourceKey":"output","destinationUnit":{"$ref":"65"},"destinationKey":"%value","guid":"69a5453f-0906-4aeb-bcc6-414b2879561f","$type":"Bolt.ValueConnection"}],"$version":"A"}}'
    _objectReferences: []
