%YAML 1.1
%TAG !u! tag:unity3d.com,2011:
--- !u!114 &11400000
MonoBehaviour:
  m_ObjectHideFlags: 0
  m_CorrespondingSourceObject: {fileID: 0}
  m_PrefabInstance: {fileID: 0}
  m_PrefabAsset: {fileID: 0}
  m_GameObject: {fileID: 0}
  m_Enabled: 1
  m_EditorHideFlags: 0
  m_Script: {fileID: -1893448595, guid: a040fb66244a7f54289914d98ea4ef7d, type: 3}
  m_Name: SetAnimInt
  m_EditorClassIdentifier: 
  _data:
    _json: '{"graph":{"variables":{"collection":{"$content":[],"$version":"A"},"$version":"A"},"controlInputDefinitions":[],"controlOutputDefinitions":[],"valueInputDefinitions":[],"valueOutputDefinitions":[],"title":null,"summary":null,"pan":{"x":197.5166,"y":-146.4545},"zoom":0.5999999,"elements":[{"coroutine":false,"defaultValues":{},"position":{"x":-680.0,"y":-140.0},"guid":"859dbb9b-543d-4697-b8fe-16d294806d08","$version":"A","$type":"Bolt.Start","$id":"9"},{"specifyFallback":false,"kind":"Object","defaultValues":{"name":{"$content":"Dialogue","$type":"System.String"},"object":null},"position":{"x":-486.0,"y":-57.0},"guid":"f83934f4-9859-433a-bf9a-f92b6b71fd55","$version":"A","$type":"Bolt.GetVariable","$id":"11"},{"specifyFallback":false,"kind":"Object","defaultValues":{"name":{"$content":"Dialogue","$type":"System.String"},"object":null},"position":{"x":776.0,"y":-168.0},"guid":"f1f70e50-db50-49f3-aa5e-d4ae421e7341","$version":"A","$type":"Bolt.GetVariable","$id":"13"},{"chainable":false,"member":{"name":"GetComponent","parameterTypes":["System.Type"],"targetType":"UnityEngine.Component","targetTypeName":"UnityEngine.Component","$version":"A"},"defaultValues":{"target":null,"%type":{"$content":"UnityEngine.Animator","$type":"System.RuntimeType"}},"position":{"x":-78.0,"y":-144.0},"guid":"93ae5649-b40f-4e46-abb2-46384987861f","$version":"A","$type":"Bolt.InvokeMember","$id":"15"},{"specifyFallback":false,"kind":"Object","defaultValues":{"name":{"$content":"ParameterValue","$type":"System.String"},"object":null},"position":{"x":34.0,"y":122.0},"guid":"901e6996-1ce1-454d-b281-ea55482f689e","$version":"A","$type":"Bolt.GetVariable","$id":"18"},{"chainable":false,"member":{"name":"SetActive","parameterTypes":["System.Boolean"],"targetType":"UnityEngine.GameObject","targetTypeName":"UnityEngine.GameObject","$version":"A"},"defaultValues":{"target":null,"%value":{"$content":true,"$type":"System.Boolean"}},"position":{"x":1015.0,"y":-338.0},"guid":"e0065aac-9d29-4222-8e23-22437108c3da","$version":"A","$type":"Bolt.InvokeMember","$id":"20"},{"chainable":false,"member":{"name":"SetActive","parameterTypes":["System.Boolean"],"targetType":"UnityEngine.GameObject","targetTypeName":"UnityEngine.GameObject","$version":"A"},"defaultValues":{"target":null,"%value":{"$content":false,"$type":"System.Boolean"}},"position":{"x":-312.0,"y":-142.0},"guid":"ba90b319-0600-4e81-802e-718cad38a2ae","$version":"A","$type":"Bolt.InvokeMember","$id":"23"},{"coroutine":false,"defaultValues":{"name":{"$content":"AnimDone","$type":"System.String"}},"position":{"x":769.0,"y":-329.0},"guid":"49c564c7-26ea-4751-a83f-a042011b33bf","$version":"A","$type":"Bolt.BoltUnityEvent","$id":"26"},{"specifyFallback":false,"kind":"Object","defaultValues":{"name":{"$content":"AnimatorParameter","$type":"System.String"},"object":null},"position":{"x":19.0,"y":-4.0},"guid":"d813a602-bb15-48fa-b9fa-8808cab2d180","$version":"A","$type":"Bolt.GetVariable","$id":"28"},{"chainable":false,"member":{"name":"SetInteger","parameterTypes":["System.String","System.Int32"],"targetType":"UnityEngine.Animator","targetTypeName":"UnityEngine.Animator","$version":"A"},"defaultValues":{"target":null,"%name":{"$content":"","$type":"System.String"},"%value":{"$content":0,"$type":"System.Int32"}},"position":{"x":318.0,"y":-47.0},"guid":"d5a4cc32-fb2d-4563-be71-d1b3e5d21d65","$version":"A","$type":"Bolt.InvokeMember","$id":"30"},{"sourceUnit":{"$ref":"26"},"sourceKey":"trigger","destinationUnit":{"$ref":"20"},"destinationKey":"enter","guid":"1c82b7b4-aebe-4ccf-813a-2762fae32bfc","$type":"Bolt.ControlConnection"},{"sourceUnit":{"$ref":"9"},"sourceKey":"trigger","destinationUnit":{"$ref":"23"},"destinationKey":"enter","guid":"9f103a3c-05ea-4427-b8a3-8448b16fd0c4","$type":"Bolt.ControlConnection"},{"sourceUnit":{"$ref":"23"},"sourceKey":"exit","destinationUnit":{"$ref":"15"},"destinationKey":"enter","guid":"0bd816ae-cbac-47e5-93e8-685e28b6ef84","$type":"Bolt.ControlConnection"},{"sourceUnit":{"$ref":"15"},"sourceKey":"exit","destinationUnit":{"$ref":"30"},"destinationKey":"enter","guid":"55d3e361-2a02-477f-9e85-d7e5a4ab812c","$type":"Bolt.ControlConnection"},{"sourceUnit":{"$ref":"15"},"sourceKey":"result","destinationUnit":{"$ref":"30"},"destinationKey":"target","guid":"cef68c66-6496-45c4-967b-940d15615fcb","$type":"Bolt.ValueConnection"},{"sourceUnit":{"$ref":"28"},"sourceKey":"value","destinationUnit":{"$ref":"30"},"destinationKey":"%name","guid":"9090a364-014a-4d26-8b6a-839d0ef44dd4","$type":"Bolt.ValueConnection"},{"sourceUnit":{"$ref":"18"},"sourceKey":"value","destinationUnit":{"$ref":"30"},"destinationKey":"%value","guid":"bf452132-95a6-4c26-99f9-c90677c3e761","$type":"Bolt.ValueConnection"},{"sourceUnit":{"$ref":"11"},"sourceKey":"value","destinationUnit":{"$ref":"23"},"destinationKey":"target","guid":"fa2c5787-42a7-4627-ada1-162a05dab7ad","$type":"Bolt.ValueConnection"},{"sourceUnit":{"$ref":"13"},"sourceKey":"value","destinationUnit":{"$ref":"20"},"destinationKey":"target","guid":"91a701d9-08e6-4f0d-ae50-cae250a1867d","$type":"Bolt.ValueConnection"},{"position":{"xMin":708.0,"yMin":-405.0,"xMax":1188.0,"yMax":-43.0},"label":"Show
      Dialogue when animation is done.","comment":"Every clip has an AnimationEvent
      called AnimDone that triggers at the end.\n","color":{"r":0.0,"g":0.0,"b":0.0,"a":1.0},"guid":"4778c280-486d-42bd-ac72-cca29d7f46ad","$version":"A","$type":"Ludiq.GraphGroup"},{"position":{"xMin":-523.2857,"yMin":-185.8571,"xMax":-178.9999,"yMax":83.4286},"label":"Hide
      Dialogue","comment":null,"color":{"r":0.0,"g":0.0,"b":0.0,"a":1.0},"guid":"37f65135-3e83-4409-bb7f-2ae6979258dd","$version":"A","$type":"Ludiq.GraphGroup"},{"position":{"xMin":-106.5714,"yMin":-209.0,"xMax":463.4286,"yMax":251.7143},"label":"Set
      the Animator Parameter to play the corresponding animation.","comment":null,"color":{"r":0.0,"g":0.0,"b":0.0,"a":1.0},"guid":"75783961-32e9-4220-b1d5-19e5a5acc276","$version":"A","$type":"Ludiq.GraphGroup"}],"$version":"A"}}'
    _objectReferences: []
