%YAML 1.1
%TAG !u! tag:unity3d.com,2011:
--- !u!114 &11400000
MonoBehaviour:
  m_ObjectHideFlags: 0
  m_CorrespondingSourceObject: {fileID: 0}
  m_PrefabInstance: {fileID: 0}
  m_PrefabAsset: {fileID: 0}
  m_GameObject: {fileID: 0}
  m_Enabled: 1
  m_EditorHideFlags: 0
  m_Script: {fileID: -1893448595, guid: a040fb66244a7f54289914d98ea4ef7d, type: 3}
  m_Name: ShaderTransition
  m_EditorClassIdentifier: 
  _data:
    _json: '{"graph":{"variables":{"collection":{"$content":[{"name":"dissolveTarget","value":{"$content":0.0,"$type":"System.Single"},"$version":"A"},{"name":"currentDissolve","value":{"$content":0.0,"$type":"System.Single"},"$version":"A"}],"$version":"A"},"$version":"A"},"controlInputDefinitions":[],"controlOutputDefinitions":[],"valueInputDefinitions":[],"valueOutputDefinitions":[],"title":"ShaderTransition","summary":null,"pan":{"x":554.0737,"y":-560.2078},"zoom":1.0,"elements":[{"coroutine":false,"defaultValues":{},"position":{"x":37.0,"y":-874.0},"guid":"6d016a12-7fd2-4c04-b32c-34311ed3e15e","$version":"A","$type":"Bolt.Start","$id":"11"},{"defaultValues":{},"position":{"x":-316.0,"y":-510.0},"guid":"16f1d1cd-4ffe-4fe9-826d-0951b45601c9","$version":"A","$type":"Bolt.GenericMultiply","$id":"13"},{"specifyFallback":false,"kind":"Object","defaultValues":{"name":{"$content":"Dissolver","$type":"System.String"},"object":null},"position":{"x":10.0,"y":-595.0},"guid":"8bc08cb3-c5c2-4bb6-8dbd-9ba22d2e89b0","$version":"A","$type":"Bolt.GetVariable","$id":"15"},{"coroutine":false,"defaultValues":{},"position":{"x":-319.0,"y":-819.0},"guid":"3b797078-5180-4350-b55f-bd636ea8d39d","$version":"A","$type":"Bolt.Update","$id":"17"},{"kind":"Graph","defaultValues":{"name":{"$content":"currentDissolve","$type":"System.String"}},"position":{"x":-23.0,"y":-744.0},"guid":"bf27263a-6499-4407-bff6-8e15fe0a95d0","$version":"A","$type":"Bolt.SetVariable","$id":"19"},{"type":"System.Single","value":{"$content":1.0,"$type":"System.Single"},"defaultValues":{},"position":{"x":-65.0,"y":-109.0},"guid":"333e1d5b-ada9-4223-a39a-4d95ef311ead","$version":"A","$type":"Bolt.Literal","$id":"21"},{"kind":"Graph","defaultValues":{"name":{"$content":"dissolveTarget","$type":"System.String"}},"position":{"x":216.0,"y":-149.0},"guid":"b9a699d2-3b8f-44c7-8f45-f268c023ac90","$version":"A","$type":"Bolt.SetVariable","$id":"23"},{"defaultValues":{"a":{"$content":0.0,"$type":"System.Single"},"b":{"$content":1.0,"$type":"System.Single"},"t":{"$content":0.0,"$type":"System.Single"}},"position":{"x":-156.0,"y":-633.0},"guid":"988227b2-e70b-4c62-a534-424dfd153321","$version":"A","$type":"Bolt.ScalarLerp","$id":"25"},{"defaultValues":{},"position":{"x":52.0,"y":-76.0},"guid":"8f3483fd-82ea-4deb-ae7c-1116235f852d","$version":"A","$type":"Bolt.GenericSubtract","$id":"27"},{"specifyFallback":false,"kind":"Graph","defaultValues":{"name":{"$content":"currentDissolve","$type":"System.String"}},"position":{"x":-374.0,"y":-709.0},"guid":"59fb685c-2b5c-47f9-b0b1-134e72193ce2","$version":"A","$type":"Bolt.GetVariable","$id":"29"},{"specifyFallback":false,"kind":"Graph","defaultValues":{"name":{"$content":"dissolveTarget","$type":"System.String"}},"position":{"x":-372.0,"y":-618.0},"guid":"32f676fe-2281-4c35-b435-34b799d25af5","$version":"A","$type":"Bolt.GetVariable","$id":"31"},{"member":{"name":"material","parameterTypes":null,"targetType":"UnityEngine.Renderer","targetTypeName":"UnityEngine.Renderer","$version":"A"},"defaultValues":{"target":null},"position":{"x":494.0,"y":-574.0},"guid":"a85292ce-cc0f-4590-a77b-107837d34382","$version":"A","$type":"Bolt.GetMember","$id":"33"},{"specifyFallback":false,"kind":"Object","defaultValues":{"name":{"$content":"DissolveSpeed","$type":"System.String"},"object":null},"position":{"x":-555.0,"y":-451.0},"guid":"157d28ed-663d-48cd-b623-fe64b1e7ef3c","$version":"A","$type":"Bolt.GetVariable","$id":"36"},{"specifyFallback":false,"kind":"Graph","defaultValues":{"name":{"$content":"dissolveTarget","$type":"System.String"}},"position":{"x":-144.0,"y":-13.0},"guid":"06704159-8bdd-4cc2-b405-4d8402e10208","$version":"A","$type":"Bolt.GetVariable","$id":"38"},{"chainable":false,"member":{"name":"SetFloat","parameterTypes":["System.String","System.Single"],"targetType":"UnityEngine.Material","targetTypeName":"UnityEngine.Material","$version":"A"},"defaultValues":{"target":null,"%name":{"$content":"_DissolveAmount","$type":"System.String"},"%value":{"$content":0.0,"$type":"System.Single"}},"position":{"x":687.0,"y":-674.0},"guid":"dc816d02-2fef-47ff-ae46-4345aa358a0c","$version":"A","$type":"Bolt.InvokeMember","$id":"40"},{"specifyFallback":false,"kind":"Graph","defaultValues":{"name":{"$content":"currentDissolve","$type":"System.String"}},"position":{"x":463.0,"y":-463.0},"guid":"4f164c53-568b-44d6-92e2-344926193120","$version":"A","$type":"Bolt.GetVariable","$id":"43"},{"member":{"name":"deltaTime","parameterTypes":null,"targetType":"UnityEngine.Time","targetTypeName":"UnityEngine.Time","$version":"A"},"defaultValues":{},"position":{"x":-535.0,"y":-552.0},"guid":"105bfdca-bc99-4bc2-b771-3d0ac2c25430","$version":"A","$type":"Bolt.GetMember","$id":"45"},{"coroutine":false,"defaultValues":{"name":{"$content":"ToggleDissolve","$type":"System.String"}},"position":{"x":-125.0,"y":-223.0},"guid":"03e84ae9-1554-4ca6-ad61-bd0b3810b6db","$version":"A","$type":"Bolt.BoltUnityEvent","$id":"48"},{"type":"System.String","value":{"$content":"rends","$type":"System.String"},"defaultValues":{},"position":{"x":56.0,"y":-470.0},"guid":"eb95253f-345d-4be4-8044-b18b25d7b96c","$version":"A","$type":"Bolt.Literal","$id":"50"},{"nest":{"source":"Embed","macro":null,"embed":{"variables":{"collection":{"$content":[],"$version":"A"},"$version":"A"},"controlInputDefinitions":[{"key":"Enter","label":null,"summary":null,"hideLabel":false}],"controlOutputDefinitions":[{"key":"Exit","label":null,"summary":"The
      action to execute after the loop has been completed","hideLabel":false},{"key":"Body","label":null,"summary":"the
      action to execute at each loop","hideLabel":false}],"valueInputDefinitions":[{"hasDefaultValue":false,"defaultValue":null,"_type":"UnityEngine.GameObject","key":"Parent","label":null,"summary":null,"hideLabel":false},{"hasDefaultValue":false,"defaultValue":null,"_type":"System.String","key":"ListVariable","label":null,"summary":null,"hideLabel":false}],"valueOutputDefinitions":[{"_type":"System.Int32","key":"Index","label":null,"summary":null,"hideLabel":false},{"_type":"System.Object","key":"Item","label":null,"summary":null,"hideLabel":false}],"title":"ForEachComponent","summary":null,"pan":{"x":48.34446,"y":114.8667},"zoom":1.0,"elements":[{"defaultValues":{},"position":{"x":-419.0,"y":44.0},"guid":"428f9e1d-4dba-4486-83ba-f51eccbe1345","$version":"A","$type":"Bolt.GraphInput","$id":"69"},{"defaultValues":{},"position":{"x":327.0,"y":45.0},"guid":"99d228e8-0c5f-4f3c-b611-2bd2fb3ddec0","$version":"A","$type":"Bolt.GraphOutput","$id":"71"},{"nest":{"source":"Embed","macro":null,"embed":{"variables":{"collection":{"$content":[],"$version":"A"},"$version":"A"},"controlInputDefinitions":[{"key":"Enter","label":null,"summary":null,"hideLabel":false}],"controlOutputDefinitions":[{"key":"Exit","label":null,"summary":null,"hideLabel":false}],"valueInputDefinitions":[{"hasDefaultValue":false,"defaultValue":null,"_type":"UnityEngine.GameObject","key":"Parent","label":null,"summary":null,"hideLabel":false},{"hasDefaultValue":false,"defaultValue":null,"_type":"System.String","key":"listVariable","label":null,"summary":null,"hideLabel":false}],"valueOutputDefinitions":[],"title":"GetCachedComponents","summary":null,"pan":{"x":85.04437,"y":290.2861},"zoom":0.8,"elements":[{"defaultValues":{},"position":{"x":-636.0,"y":-38.0},"guid":"428f9e1d-4dba-4486-83ba-f51eccbe1345","$version":"A","$type":"Bolt.GraphInput","$id":"87"},{"chainable":false,"member":{"name":"GetComponentsInChildren","parameterTypes":["System.Type"],"targetType":"UnityEngine.Component","targetTypeName":"UnityEngine.Component","$version":"A"},"defaultValues":{"target":null,"%t":{"$content":"UnityEngine.Renderer","$type":"System.RuntimeType"}},"position":{"x":361.0,"y":329.0},"guid":"d1962e89-b96b-45c8-8313-d6ec691ab39e","$version":"A","$type":"Bolt.InvokeMember","$id":"89"},{"kind":"Graph","defaultValues":{"name":{"$content":"rends","$type":"System.String"}},"position":{"x":619.0,"y":319.0},"guid":"d242da7e-463c-4a7c-8f4f-c1e35dd77283","$version":"A","$type":"Bolt.SetVariable","$id":"92"},{"numeric":true,"defaultValues":{"b":{"$content":0.0,"$type":"System.Single"}},"position":{"x":-186.0,"y":563.0},"guid":"2b33831b-9c3d-4ca1-afff-3547a88579ef","$version":"A","$type":"Bolt.Greater","$id":"94"},{"defaultValues":{},"position":{"x":59.0,"y":152.0},"guid":"6eb5453f-0fca-4b9c-bbc3-a500754dec1e","$version":"A","$type":"Bolt.Branch","$id":"96"},{"kind":"Graph","defaultValues":{"name":{"$content":"rends","$type":"System.String"}},"position":{"x":-215.0,"y":303.0},"guid":"026f57d3-398f-4c0b-810f-a230f0280c57","$version":"A","$type":"Bolt.IsVariableDefined","$id":"98"},{"defaultValues":{},"position":{"x":-337.0,"y":556.0},"guid":"ea3f8081-1e6f-4a2e-84b0-441071b4c795","$version":"A","$type":"Bolt.CountItems","$id":"100"},{"defaultValues":{},"position":{"x":-52.0,"y":22.0},"guid":"825fd210-5ba7-4520-9991-17da4f6ccc32","$version":"A","$type":"Bolt.Branch","$id":"102"},{"specifyFallback":false,"kind":"Graph","defaultValues":{"name":{"$content":"rends","$type":"System.String"}},"position":{"x":-508.0,"y":475.0},"guid":"1246aa10-1fa7-4a40-990d-ffd6bd78e648","$version":"A","$type":"Bolt.GetVariable","$id":"104"},{"numeric":false,"defaultValues":{},"position":{"x":-215.0,"y":136.0},"guid":"5b14a107-7640-4d19-92fc-b54c3deb4107","$version":"A","$type":"Bolt.NotEqual","$id":"106"},{"defaultValues":{},"position":{"x":-366.0,"y":248.0},"guid":"2d305239-c496-4134-9a45-75a54b3d8f3e","$version":"A","$type":"Bolt.Null","$id":"108"},{"defaultValues":{},"position":{"x":250.0,"y":172.0},"guid":"3fcdc140-175c-4dd3-8483-f453e37a3965","$version":"A","$type":"Bolt.Branch","$id":"110"},{"defaultValues":{},"position":{"x":-25.0,"y":482.0},"guid":"a8009f94-42ac-42ee-8126-31f308ab06e4","$version":"A","$type":"Bolt.And","$id":"112"},{"coroutine":false,"defaultValues":{},"position":{"x":212.0,"y":455.0},"guid":"d2778b4d-21c2-407a-b73e-f2a99d82ecd9","$version":"A","$type":"Bolt.Start","$id":"114"},{"defaultValues":{},"position":{"x":484.0,"y":-20.0},"guid":"99d228e8-0c5f-4f3c-b611-2bd2fb3ddec0","$version":"A","$type":"Bolt.GraphOutput","$id":"116"},{"numeric":false,"defaultValues":{},"position":{"x":-187.0,"y":439.0},"guid":"b5bdc32e-9276-4600-9da2-435ddac55c15","$version":"A","$type":"Bolt.NotEqual","$id":"118"},{"sourceUnit":{"$ref":"102"},"sourceKey":"ifTrue","destinationUnit":{"$ref":"96"},"destinationKey":"enter","guid":"958d18a1-c9c8-4063-bc0d-9d0fc2c57575","$type":"Bolt.ControlConnection"},{"sourceUnit":{"$ref":"87"},"sourceKey":"Enter","destinationUnit":{"$ref":"102"},"destinationKey":"enter","guid":"23474e15-31be-4db3-96f3-27fa8bf81b2b","$type":"Bolt.ControlConnection"},{"sourceUnit":{"$ref":"110"},"sourceKey":"ifTrue","destinationUnit":{"$ref":"116"},"destinationKey":"Exit","guid":"9ddc4295-3261-43ef-b51f-e684347a16d0","$type":"Bolt.ControlConnection"},{"sourceUnit":{"$ref":"89"},"sourceKey":"exit","destinationUnit":{"$ref":"92"},"destinationKey":"assign","guid":"e0000ad8-cb24-4a25-bcb3-8729b4adc37c","$type":"Bolt.ControlConnection"},{"sourceUnit":{"$ref":"96"},"sourceKey":"ifFalse","destinationUnit":{"$ref":"89"},"destinationKey":"enter","guid":"33e4ff0d-29de-4155-9257-64d0049df042","$type":"Bolt.ControlConnection"},{"sourceUnit":{"$ref":"110"},"sourceKey":"ifFalse","destinationUnit":{"$ref":"89"},"destinationKey":"enter","guid":"314fb797-2065-4b27-9d6a-38e5a941d611","$type":"Bolt.ControlConnection"},{"sourceUnit":{"$ref":"96"},"sourceKey":"ifTrue","destinationUnit":{"$ref":"110"},"destinationKey":"enter","guid":"8e894921-f97f-458b-a2ec-fee64165cbe9","$type":"Bolt.ControlConnection"},{"sourceUnit":{"$ref":"114"},"sourceKey":"trigger","destinationUnit":{"$ref":"89"},"destinationKey":"enter","guid":"01d77516-29d7-47c7-a8f3-62f80d798919","$type":"Bolt.ControlConnection"},{"sourceUnit":{"$ref":"106"},"sourceKey":"notEqual","destinationUnit":{"$ref":"102"},"destinationKey":"condition","guid":"d401ffc9-66fe-49a0-a1b7-18c64047f869","$type":"Bolt.ValueConnection"},{"sourceUnit":{"$ref":"104"},"sourceKey":"value","destinationUnit":{"$ref":"118"},"destinationKey":"a","guid":"0557b75c-0419-40e6-b4d2-2e3fe874f8c4","$type":"Bolt.ValueConnection"},{"sourceUnit":{"$ref":"104"},"sourceKey":"value","destinationUnit":{"$ref":"100"},"destinationKey":"collection","guid":"59057ada-aa4e-42e3-bae8-281775ee378e","$type":"Bolt.ValueConnection"},{"sourceUnit":{"$ref":"100"},"sourceKey":"count","destinationUnit":{"$ref":"94"},"destinationKey":"a","guid":"e5a47eba-e20c-4e13-81ad-502710dffce5","$type":"Bolt.ValueConnection"},{"sourceUnit":{"$ref":"87"},"sourceKey":"Parent","destinationUnit":{"$ref":"106"},"destinationKey":"a","guid":"3d8e4ed8-0505-48de-99f4-6b87cac5e51c","$type":"Bolt.ValueConnection"},{"sourceUnit":{"$ref":"89"},"sourceKey":"result","destinationUnit":{"$ref":"92"},"destinationKey":"input","guid":"19d8681d-20e6-4592-8b7a-84b903aa0863","$type":"Bolt.ValueConnection"},{"sourceUnit":{"$ref":"87"},"sourceKey":"Parent","destinationUnit":{"$ref":"89"},"destinationKey":"target","guid":"51f4fbdc-a5b3-4969-901f-1cf85c38f707","$type":"Bolt.ValueConnection"},{"sourceUnit":{"$ref":"108"},"sourceKey":"null","destinationUnit":{"$ref":"118"},"destinationKey":"b","guid":"ed76c811-9521-448f-b961-cebe879c269e","$type":"Bolt.ValueConnection"},{"sourceUnit":{"$ref":"98"},"sourceKey":"isDefined","destinationUnit":{"$ref":"96"},"destinationKey":"condition","guid":"7edae23d-1909-4807-8629-31cd62420904","$type":"Bolt.ValueConnection"},{"sourceUnit":{"$ref":"108"},"sourceKey":"null","destinationUnit":{"$ref":"106"},"destinationKey":"b","guid":"067c0f80-4dc4-4b5c-9761-a55f51675c84","$type":"Bolt.ValueConnection"},{"sourceUnit":{"$ref":"94"},"sourceKey":"comparison","destinationUnit":{"$ref":"112"},"destinationKey":"b","guid":"85d49146-6378-4071-a861-39b157356892","$type":"Bolt.ValueConnection"},{"sourceUnit":{"$ref":"118"},"sourceKey":"notEqual","destinationUnit":{"$ref":"112"},"destinationKey":"a","guid":"36a5eba4-1521-4a42-b569-9976fbea070f","$type":"Bolt.ValueConnection"},{"sourceUnit":{"$ref":"87"},"sourceKey":"listVariable","destinationUnit":{"$ref":"104"},"destinationKey":"name","guid":"3ce163af-2053-4658-a705-fc44236a7929","$type":"Bolt.ValueConnection"},{"sourceUnit":{"$ref":"112"},"sourceKey":"result","destinationUnit":{"$ref":"110"},"destinationKey":"condition","guid":"238acdc9-a373-4cba-ae66-bb4265ad72fe","$type":"Bolt.ValueConnection"},{"sourceUnit":{"$ref":"87"},"sourceKey":"listVariable","destinationUnit":{"$ref":"92"},"destinationKey":"name","guid":"ffa83426-5dfd-43f7-b1f6-e30a4cea1e96","$type":"Bolt.ValueConnection"}],"$version":"A"}},"defaultValues":{},"position":{"x":-214.0,"y":53.0},"guid":"4180593d-a9a8-4d86-b407-4e41e070aed3","$version":"A","$type":"Bolt.SuperUnit","$id":"73"},{"dictionary":false,"defaultValues":{},"position":{"x":58.0,"y":40.0},"guid":"ff379799-601c-4b29-82af-35fb1f486697","$version":"A","$type":"Bolt.ForEach","$id":"144"},{"sourceUnit":{"$ref":"73"},"sourceKey":"Exit","destinationUnit":{"$ref":"144"},"destinationKey":"enter","guid":"00c0af47-5489-4ef7-a1fa-977852df5b5d","$type":"Bolt.ControlConnection"},{"sourceUnit":{"$ref":"69"},"sourceKey":"Enter","destinationUnit":{"$ref":"73"},"destinationKey":"Enter","guid":"0337b446-40db-44e4-82ec-b59e57c0a38b","$type":"Bolt.ControlConnection"},{"sourceUnit":{"$ref":"144"},"sourceKey":"exit","destinationUnit":{"$ref":"71"},"destinationKey":"Exit","guid":"31b26913-bf46-46b6-bb0e-b3303eda1207","$type":"Bolt.ControlConnection"},{"sourceUnit":{"$ref":"144"},"sourceKey":"body","destinationUnit":{"$ref":"71"},"destinationKey":"Body","guid":"bd4c9893-16a0-4bdb-8bdf-96997c8feb5d","$type":"Bolt.ControlConnection"},{"sourceUnit":{"$ref":"69"},"sourceKey":"Parent","destinationUnit":{"$ref":"73"},"destinationKey":"Parent","guid":"3e1871fb-6430-4b52-ac8c-f3f1ffda90d6","$type":"Bolt.ValueConnection"},{"sourceUnit":{"$ref":"69"},"sourceKey":"ListVariable","destinationUnit":{"$ref":"73"},"destinationKey":"listVariable","guid":"ee550534-d441-4e05-8dee-f27d887a8b37","$type":"Bolt.ValueConnection"},{"sourceUnit":{"$ref":"144"},"sourceKey":"currentIndex","destinationUnit":{"$ref":"71"},"destinationKey":"Index","guid":"dfb943b1-6b1d-4e93-aab8-acf13f18e58b","$type":"Bolt.ValueConnection"},{"sourceUnit":{"$ref":"144"},"sourceKey":"currentItem","destinationUnit":{"$ref":"71"},"destinationKey":"Item","guid":"55fa17a7-31a0-47f3-9a55-fa90074bdb9c","$type":"Bolt.ValueConnection"}],"$version":"A"}},"defaultValues":{},"position":{"x":275.0,"y":-692.0},"guid":"53015b8c-4f4e-4877-baf9-4c47d46528db","$version":"A","$type":"Bolt.SuperUnit","$id":"52"},{"sourceUnit":{"$ref":"17"},"sourceKey":"trigger","destinationUnit":{"$ref":"19"},"destinationKey":"assign","guid":"2cf3a698-bb03-49a8-8757-7229e16254a1","$type":"Bolt.ControlConnection"},{"sourceUnit":{"$ref":"48"},"sourceKey":"trigger","destinationUnit":{"$ref":"23"},"destinationKey":"assign","guid":"f2fbcd44-05a5-44ae-9338-e68d297a53f9","$type":"Bolt.ControlConnection"},{"sourceUnit":{"$ref":"52"},"sourceKey":"Body","destinationUnit":{"$ref":"40"},"destinationKey":"enter","guid":"9e0b7f9a-9e43-4653-8d51-73efd0ff3331","$type":"Bolt.ControlConnection"},{"sourceUnit":{"$ref":"11"},"sourceKey":"trigger","destinationUnit":{"$ref":"52"},"destinationKey":"Enter","guid":"96d86b6c-4bc6-49d0-96eb-caa0a8c89fd3","$type":"Bolt.ControlConnection"},{"sourceUnit":{"$ref":"19"},"sourceKey":"assigned","destinationUnit":{"$ref":"52"},"destinationKey":"Enter","guid":"076b44c4-6be8-48a8-80ad-372545b44bb0","$type":"Bolt.ControlConnection"},{"sourceUnit":{"$ref":"43"},"sourceKey":"value","destinationUnit":{"$ref":"40"},"destinationKey":"%value","guid":"163654ff-5e6a-4f20-8c24-1430b97a5f58","$type":"Bolt.ValueConnection"},{"sourceUnit":{"$ref":"27"},"sourceKey":"difference","destinationUnit":{"$ref":"23"},"destinationKey":"input","guid":"0ec23ac7-d18a-49f1-b037-df90b952a9b7","$type":"Bolt.ValueConnection"},{"sourceUnit":{"$ref":"33"},"sourceKey":"value","destinationUnit":{"$ref":"40"},"destinationKey":"target","guid":"4557c04e-f0e4-4e55-ad4e-eebd59b62b68","$type":"Bolt.ValueConnection"},{"sourceUnit":{"$ref":"21"},"sourceKey":"output","destinationUnit":{"$ref":"27"},"destinationKey":"minuend","guid":"86c0f1a6-1fd1-4e38-839a-ea5824bcee2a","$type":"Bolt.ValueConnection"},{"sourceUnit":{"$ref":"29"},"sourceKey":"value","destinationUnit":{"$ref":"25"},"destinationKey":"a","guid":"d9299bc3-d4ab-45de-a1d3-b297977d1d4b","$type":"Bolt.ValueConnection"},{"sourceUnit":{"$ref":"25"},"sourceKey":"interpolation","destinationUnit":{"$ref":"19"},"destinationKey":"input","guid":"daed841e-2241-4fad-a7d5-ca376030df4e","$type":"Bolt.ValueConnection"},{"sourceUnit":{"$ref":"36"},"sourceKey":"value","destinationUnit":{"$ref":"13"},"destinationKey":"b","guid":"4c87e423-dd0e-490a-8f43-1665bd5416d9","$type":"Bolt.ValueConnection"},{"sourceUnit":{"$ref":"38"},"sourceKey":"value","destinationUnit":{"$ref":"27"},"destinationKey":"subtrahend","guid":"9167140d-cefc-429c-9ffc-5bf7419d81a0","$type":"Bolt.ValueConnection"},{"sourceUnit":{"$ref":"31"},"sourceKey":"value","destinationUnit":{"$ref":"25"},"destinationKey":"b","guid":"71b02612-a068-49a8-8b61-d8b6c4b6cfea","$type":"Bolt.ValueConnection"},{"sourceUnit":{"$ref":"45"},"sourceKey":"value","destinationUnit":{"$ref":"13"},"destinationKey":"a","guid":"7cc97629-78de-4a22-9a63-98c2072a6720","$type":"Bolt.ValueConnection"},{"sourceUnit":{"$ref":"13"},"sourceKey":"product","destinationUnit":{"$ref":"25"},"destinationKey":"t","guid":"20ddc612-0ae7-40a6-9e49-84a661b07327","$type":"Bolt.ValueConnection"},{"sourceUnit":{"$ref":"52"},"sourceKey":"Item","destinationUnit":{"$ref":"33"},"destinationKey":"target","guid":"5eb1a2cd-d1e6-4b89-9945-6d7b16d6cf25","$type":"Bolt.ValueConnection"},{"sourceUnit":{"$ref":"50"},"sourceKey":"output","destinationUnit":{"$ref":"52"},"destinationKey":"ListVariable","guid":"24ca5dbe-e7c9-4da3-a9f5-0b12d6069073","$type":"Bolt.ValueConnection"},{"sourceUnit":{"$ref":"15"},"sourceKey":"value","destinationUnit":{"$ref":"52"},"destinationKey":"Parent","guid":"139c37f5-dfd3-4c1a-8e00-367d183b1fb4","$type":"Bolt.ValueConnection"}],"$version":"A"}}'
    _objectReferences: []
