%YAML 1.1
%TAG !u! tag:unity3d.com,2011:
--- !u!114 &11400000
MonoBehaviour:
  m_ObjectHideFlags: 0
  m_CorrespondingSourceObject: {fileID: 0}
  m_PrefabInstance: {fileID: 0}
  m_PrefabAsset: {fileID: 0}
  m_GameObject: {fileID: 0}
  m_Enabled: 1
  m_EditorHideFlags: 0
  m_Script: {fileID: -1893448595, guid: a040fb66244a7f54289914d98ea4ef7d, type: 3}
  m_Name: SmartUnparent_SuperUnit
  m_EditorClassIdentifier: 
  _data:
    _json: '{"graph":{"variables":{"collection":{"$content":[],"$version":"A"},"$version":"A"},"controlInputDefinitions":[{"key":"Flow
      In","label":null,"summary":null,"hideLabel":false}],"controlOutputDefinitions":[{"key":"Flow
      Out","label":null,"summary":null,"hideLabel":false}],"valueInputDefinitions":[{"hasDefaultValue":false,"defaultValue":null,"_type":"UnityEngine.GameObject","key":"Step
      Root","label":null,"summary":null,"hideLabel":false},{"hasDefaultValue":false,"defaultValue":null,"_type":"UnityEngine.GameObject","key":"Container","label":null,"summary":null,"hideLabel":false},{"hasDefaultValue":true,"defaultValue":{"$content":1.0,"$type":"System.Single"},"_type":"System.Single","key":"Time
      until deparent","label":null,"summary":null,"hideLabel":false}],"valueOutputDefinitions":[],"title":"Smart
      Deparent","summary":"\"Deparents\" the Container object by calculating its
      height relative to the Root object, and then instantiating it at the correct
      height (deleting the original). It then sends an Enable event to the new instance
      in order for it to activate as normal.","pan":{"x":111.0,"y":106.5},"zoom":1.0,"elements":[{"argumentCount":0,"defaultValues":{"name":{"$content":"Enable","$type":"System.String"},"target":null},"position":{"x":1265.0,"y":236.0},"guid":"32a34d67-99ea-4049-8d79-cdf4bcf62d52","$version":"A","$type":"Bolt.TriggerCustomEvent","$id":"14"},{"member":{"name":"rotation","parameterTypes":null,"targetType":"UnityEngine.Transform","targetTypeName":"UnityEngine.Transform","$version":"A"},"defaultValues":{"target":null},"position":{"x":-272.0,"y":346.0},"guid":"46e9f91f-23c3-45a2-baaa-befea8c5ace8","$version":"A","$type":"Bolt.GetMember","$id":"16"},{"kind":"Graph","defaultValues":{"name":{"$content":"Step_Container","$type":"System.String"}},"position":{"x":-603.0,"y":-321.0},"guid":"18ed32e8-de74-4863-8e6a-938bfe4d3196","$version":"A","$type":"Bolt.SetVariable","$id":"19"},{"member":{"name":"z","parameterTypes":null,"targetType":"UnityEngine.Vector3","targetTypeName":"UnityEngine.Vector3","$version":"A"},"defaultValues":{"target":{"x":0.0,"y":0.0,"z":0.0,"$type":"UnityEngine.Vector3"}},"position":{"x":17.0,"y":163.0},"guid":"2696fffe-3a4e-427c-9432-a5710f0df563","$version":"A","$type":"Bolt.GetMember","$id":"21"},{"member":{"name":"localPosition","parameterTypes":null,"targetType":"UnityEngine.Transform","targetTypeName":"UnityEngine.Transform","$version":"A"},"defaultValues":{"target":null},"position":{"x":-630.0,"y":62.0},"guid":"c3dd7afe-d1bb-4d4a-957b-e79a88573fae","$version":"A","$type":"Bolt.GetMember","$id":"24"},{"member":{"name":"z","parameterTypes":null,"targetType":"UnityEngine.Vector3","targetTypeName":"UnityEngine.Vector3","$version":"A"},"defaultValues":{"target":{"x":0.0,"y":0.0,"z":0.0,"$type":"UnityEngine.Vector3"}},"position":{"x":-415.0,"y":-43.0},"guid":"ae13ff9c-d517-43f0-a43b-4f9ccc8fcf74","$version":"A","$type":"Bolt.GetMember","$id":"27"},{"defaultValues":{"duration":{"$content":1.0,"$type":"System.Single"},"unscaledTime":{"$content":false,"$type":"System.Boolean"}},"position":{"x":-332.0,"y":-326.0},"guid":"8fa64fe8-9448-4beb-813b-00684c361b83","$version":"A","$type":"Bolt.Timer","$id":"30"},{"chainable":false,"member":{"name":"Destroy","parameterTypes":["UnityEngine.Object"],"targetType":"UnityEngine.GameObject","targetTypeName":"UnityEngine.GameObject","$version":"A"},"defaultValues":{"%obj":{"$content":0,"$type":"UnityEngine.Object"}},"position":{"x":884.0,"y":410.0},"guid":"ab2ef6ea-5e88-444f-9a0a-de98ed9dc328","$version":"A","$type":"Bolt.InvokeMember","$id":"32"},{"chainable":false,"member":{"name":".ctor","parameterTypes":["System.Single","System.Single","System.Single"],"targetType":"UnityEngine.Vector3","targetTypeName":"UnityEngine.Vector3","$version":"A"},"defaultValues":{"%x":{"$content":0.0,"$type":"System.Single"},"%y":{"$content":0.0,"$type":"System.Single"},"%z":{"$content":0.0,"$type":"System.Single"}},"position":{"x":209.0,"y":-49.0},"guid":"4164138a-bb85-4503-b1a7-3009f7504415","$version":"A","$type":"Bolt.InvokeMember","$id":"35"},{"member":{"name":"x","parameterTypes":null,"targetType":"UnityEngine.Vector3","targetTypeName":"UnityEngine.Vector3","$version":"A"},"defaultValues":{"target":{"x":0.0,"y":0.0,"z":0.0,"$type":"UnityEngine.Vector3"}},"position":{"x":17.0,"y":71.0},"guid":"4ddbe9b0-aa94-4872-93ef-4bda8a49adb8","$version":"A","$type":"Bolt.GetMember","$id":"38"},{"defaultValues":{},"position":{"x":-1057.0,"y":-298.0},"guid":"914cb76c-c8cf-4781-94fb-6f976b894a3f","$version":"A","$type":"Bolt.GraphInput","$id":"41"},{"kind":"Scene","defaultValues":{"name":{"$content":"Step_Root","$type":"System.String"}},"position":{"x":-816.0,"y":-360.0},"guid":"2009eacc-d8a1-47bd-a927-230b178d8527","$version":"A","$type":"Bolt.SetVariable","$id":"43"},{"chainable":false,"member":{"name":"Instantiate","parameterTypes":["UnityEngine.Object","UnityEngine.Vector3","UnityEngine.Quaternion"],"targetType":"UnityEngine.GameObject","targetTypeName":"UnityEngine.GameObject","$version":"A"},"defaultValues":{"%original":{"$content":1,"$type":"UnityEngine.Object"},"%position":{"x":0.0,"y":0.0,"z":0.0,"$type":"UnityEngine.Vector3"}},"position":{"x":653.0,"y":280.0},"guid":"b3013a16-e3ee-41ea-81f3-d198379a838d","$version":"A","$type":"Bolt.InvokeMember","$id":"45"},{"member":{"name":"position","parameterTypes":null,"targetType":"UnityEngine.Transform","targetTypeName":"UnityEngine.Transform","$version":"A"},"defaultValues":{"target":null},"position":{"x":-274.0,"y":248.0},"guid":"64ba1a93-0a93-4290-bb2b-246eb2a852e5","$version":"A","$type":"Bolt.GetMember","$id":"48"},{"defaultValues":{},"position":{"x":1493.0,"y":254.0},"guid":"13da35e6-e8d7-4f59-b633-3584934e3916","$version":"A","$type":"Bolt.GraphOutput","$id":"51"},{"member":{"name":"y","parameterTypes":null,"targetType":"UnityEngine.Vector3","targetTypeName":"UnityEngine.Vector3","$version":"A"},"defaultValues":{"target":{"x":0.0,"y":0.0,"z":0.0,"$type":"UnityEngine.Vector3"}},"position":{"x":-416.0,"y":60.0},"guid":"9f99e97e-acac-4f8f-9d13-a4ded974560e","$version":"A","$type":"Bolt.GetMember","$id":"53"},{"specifyFallback":false,"kind":"Scene","defaultValues":{"name":{"$content":"Step_Root","$type":"System.String"}},"position":{"x":-857.0,"y":58.0},"guid":"d43533fe-6b7f-4755-84e3-1a6ebf1d0aff","$version":"A","$type":"Bolt.GetVariable","$id":"56"},{"specifyFallback":false,"kind":"Graph","defaultValues":{"name":{"$content":"Step_Container","$type":"System.String"}},"position":{"x":-862.0,"y":-47.0},"guid":"0011512e-c4c0-494f-98d9-83a2670b5818","$version":"A","$type":"Bolt.GetVariable","$id":"58"},{"member":{"name":"localPosition","parameterTypes":null,"targetType":"UnityEngine.Transform","targetTypeName":"UnityEngine.Transform","$version":"A"},"defaultValues":{"target":null},"position":{"x":-630.0,"y":-42.0},"guid":"e7b957bf-c9b8-4308-9bb4-755eddef0225","$version":"A","$type":"Bolt.GetMember","$id":"60"},{"specifyFallback":false,"kind":"Scene","defaultValues":{"name":{"$content":"Step_Root","$type":"System.String"}},"position":{"x":-484.0,"y":291.0},"guid":"2c270813-2a9b-40ea-bda6-bf877f31e004","$version":"A","$type":"Bolt.GetVariable","$id":"63"},{"defaultValues":{},"position":{"x":-235.0,"y":-2.0},"guid":"4dc1dd8a-999f-46f0-bae8-c2ae58b3e284","$version":"A","$type":"Bolt.GenericAdd","$id":"65"},{"specifyFallback":false,"kind":"Graph","defaultValues":{"name":{"$content":"Step_Container","$type":"System.String"}},"position":{"x":427.0,"y":426.0},"guid":"ddfc7643-ace1-415f-9cd4-07a2a2ff3d3c","$version":"A","$type":"Bolt.GetVariable","$id":"67"},{"sourceUnit":{"$ref":"32"},"sourceKey":"exit","destinationUnit":{"$ref":"14"},"destinationKey":"enter","guid":"804abb70-f9b4-4250-9c85-fa8bff69f795","$type":"Bolt.ControlConnection"},{"sourceUnit":{"$ref":"35"},"sourceKey":"exit","destinationUnit":{"$ref":"45"},"destinationKey":"enter","guid":"f26c52b5-8349-47ba-ac66-91a679112467","$type":"Bolt.ControlConnection"},{"sourceUnit":{"$ref":"45"},"sourceKey":"exit","destinationUnit":{"$ref":"32"},"destinationKey":"enter","guid":"b51e79cb-a933-416d-a103-22fef7a8d1e8","$type":"Bolt.ControlConnection"},{"sourceUnit":{"$ref":"14"},"sourceKey":"exit","destinationUnit":{"$ref":"51"},"destinationKey":"Flow
      Out","guid":"591f72ff-a324-4b4c-937b-8148d83b3e5b","$type":"Bolt.ControlConnection"},{"sourceUnit":{"$ref":"41"},"sourceKey":"Flow
      In","destinationUnit":{"$ref":"43"},"destinationKey":"assign","guid":"da93eb63-0f97-4676-880d-7be963fad3c0","$type":"Bolt.ControlConnection"},{"sourceUnit":{"$ref":"43"},"sourceKey":"assigned","destinationUnit":{"$ref":"19"},"destinationKey":"assign","guid":"007bcd78-0788-4b4d-909c-6bde59551a39","$type":"Bolt.ControlConnection"},{"sourceUnit":{"$ref":"30"},"sourceKey":"completed","destinationUnit":{"$ref":"35"},"destinationKey":"enter","guid":"a7360221-9e37-403b-9faf-630e736b82ab","$type":"Bolt.ControlConnection"},{"sourceUnit":{"$ref":"19"},"sourceKey":"assigned","destinationUnit":{"$ref":"30"},"destinationKey":"start","guid":"ab217892-e9b3-4ac2-aff4-ece6aaed6412","$type":"Bolt.ControlConnection"},{"sourceUnit":{"$ref":"21"},"sourceKey":"value","destinationUnit":{"$ref":"35"},"destinationKey":"%z","guid":"abc0337f-b470-49ff-9936-ae1ee9654902","$type":"Bolt.ValueConnection"},{"sourceUnit":{"$ref":"16"},"sourceKey":"value","destinationUnit":{"$ref":"45"},"destinationKey":"%rotation","guid":"2592f12d-1a65-47fe-ab0d-cca3f04c6769","$type":"Bolt.ValueConnection"},{"sourceUnit":{"$ref":"38"},"sourceKey":"value","destinationUnit":{"$ref":"35"},"destinationKey":"%x","guid":"c124ad3f-e5ae-493b-8604-cc6acca14efd","$type":"Bolt.ValueConnection"},{"sourceUnit":{"$ref":"27"},"sourceKey":"value","destinationUnit":{"$ref":"65"},"destinationKey":"a","guid":"c52dc3eb-67b0-480f-91e0-d3ce3a6caf27","$type":"Bolt.ValueConnection"},{"sourceUnit":{"$ref":"65"},"sourceKey":"sum","destinationUnit":{"$ref":"35"},"destinationKey":"%y","guid":"cf9910b6-5024-49f5-963d-8035f36c6483","$type":"Bolt.ValueConnection"},{"sourceUnit":{"$ref":"67"},"sourceKey":"value","destinationUnit":{"$ref":"45"},"destinationKey":"%original","guid":"fb0ee738-c273-448b-83a3-0dca312a9f0d","$type":"Bolt.ValueConnection"},{"sourceUnit":{"$ref":"58"},"sourceKey":"value","destinationUnit":{"$ref":"60"},"destinationKey":"target","guid":"22dcdeca-84cb-41c3-8d33-c7ede6a1cb20","$type":"Bolt.ValueConnection"},{"sourceUnit":{"$ref":"41"},"sourceKey":"Container","destinationUnit":{"$ref":"19"},"destinationKey":"input","guid":"f97eb8b1-6070-49ed-89fa-13004a350a77","$type":"Bolt.ValueConnection"},{"sourceUnit":{"$ref":"53"},"sourceKey":"value","destinationUnit":{"$ref":"65"},"destinationKey":"b","guid":"eb5cb9dc-5020-428c-8e16-7cb1f2791a77","$type":"Bolt.ValueConnection"},{"sourceUnit":{"$ref":"67"},"sourceKey":"value","destinationUnit":{"$ref":"32"},"destinationKey":"%obj","guid":"e9d627d2-b4be-46c1-ba21-15f0745a615d","$type":"Bolt.ValueConnection"},{"sourceUnit":{"$ref":"45"},"sourceKey":"result","destinationUnit":{"$ref":"14"},"destinationKey":"target","guid":"7d31473d-90b2-4a01-8652-f298e551a4a7","$type":"Bolt.ValueConnection"},{"sourceUnit":{"$ref":"63"},"sourceKey":"value","destinationUnit":{"$ref":"16"},"destinationKey":"target","guid":"ae2d53cc-3339-483c-b7ef-3d8c00421e44","$type":"Bolt.ValueConnection"},{"sourceUnit":{"$ref":"60"},"sourceKey":"value","destinationUnit":{"$ref":"27"},"destinationKey":"target","guid":"28770e1e-1240-4a4a-918d-746a4a59210d","$type":"Bolt.ValueConnection"},{"sourceUnit":{"$ref":"35"},"sourceKey":"result","destinationUnit":{"$ref":"45"},"destinationKey":"%position","guid":"07e8dd84-a4ee-4f14-9506-cf32e000f334","$type":"Bolt.ValueConnection"},{"sourceUnit":{"$ref":"41"},"sourceKey":"Step
      Root","destinationUnit":{"$ref":"43"},"destinationKey":"input","guid":"289cfaf6-4201-47e9-ad26-8e99284cf979","$type":"Bolt.ValueConnection"},{"sourceUnit":{"$ref":"41"},"sourceKey":"Time
      until deparent","destinationUnit":{"$ref":"30"},"destinationKey":"duration","guid":"4dbdf0ad-015d-41fe-b402-4e25abfb7373","$type":"Bolt.ValueConnection"},{"sourceUnit":{"$ref":"24"},"sourceKey":"value","destinationUnit":{"$ref":"53"},"destinationKey":"target","guid":"911328a5-d885-4c01-86c6-52957d5de837","$type":"Bolt.ValueConnection"},{"sourceUnit":{"$ref":"56"},"sourceKey":"value","destinationUnit":{"$ref":"24"},"destinationKey":"target","guid":"d7602f31-a51d-4346-9efe-4f3fa1ba0845","$type":"Bolt.ValueConnection"},{"sourceUnit":{"$ref":"48"},"sourceKey":"value","destinationUnit":{"$ref":"38"},"destinationKey":"target","guid":"6446fb92-4809-43cc-a943-634d6f3c7ac5","$type":"Bolt.ValueConnection"},{"sourceUnit":{"$ref":"48"},"sourceKey":"value","destinationUnit":{"$ref":"21"},"destinationKey":"target","guid":"f930b8da-9556-4b86-bd6b-6849d9209f7b","$type":"Bolt.ValueConnection"},{"sourceUnit":{"$ref":"63"},"sourceKey":"value","destinationUnit":{"$ref":"48"},"destinationKey":"target","guid":"a42f2a94-ca66-481a-b0c6-8d452c92da9c","$type":"Bolt.ValueConnection"},{"position":{"xMin":-1083.0,"yMin":-412.0,"xMax":-420.0,"yMax":-138.0},"label":"Input
      variables","comment":null,"color":{"r":0.0,"g":0.0,"b":0.0,"a":1.0},"guid":"cea2f4e2-75a7-454a-b9f2-4fa8f5f2030d","$version":"A","$type":"Ludiq.GraphGroup"},{"position":{"xMin":-906.0,"yMin":-104.0,"xMax":-113.0,"yMax":171.0},"label":"Calculate
      container''s world Y (height) position relative to the root object","comment":"uses
      container''s z position and root''s y position because the image marker object
      is rotated 90 degrees","color":{"r":0.0,"g":0.0,"b":0.0,"a":1.0},"guid":"5b06aa29-4ae0-4982-b1f0-9003dca6450c","$version":"A","$type":"Ludiq.GraphGroup"},{"position":{"xMin":-510.0,"yMin":204.0,"xMax":-117.0,"yMax":455.0},"label":"Get
      root object''s world position and rotation","comment":null,"color":{"r":0.0,"g":0.0,"b":0.0,"a":1.0},"guid":"05e0d0df-a603-4b82-b274-600768548bef","$version":"A","$type":"Ludiq.GraphGroup"},{"position":{"xMin":-50.0,"yMin":-100.0,"xMax":339.0,"yMax":275.0},"label":"Construct
      a new world space position vector","comment":null,"color":{"r":0.0,"g":0.0,"b":0.0,"a":1.0},"guid":"ed4a620c-4971-48c0-bb5d-41ccb9710496","$version":"A","$type":"Ludiq.GraphGroup"},{"position":{"xMin":396.0,"yMin":220.0,"xMax":794.0,"yMax":532.0},"label":"create
      an instance of the container at the new position","comment":null,"color":{"r":0.0,"g":0.0,"b":0.0,"a":1.0},"guid":"432601a8-c507-407d-8d01-79f573e4a574","$version":"A","$type":"Ludiq.GraphGroup"},{"position":{"xMin":861.0,"yMin":367.0,"xMax":1021.0,"yMax":530.0},"label":"and
      destroy the original container","comment":null,"color":{"r":0.0,"g":0.0,"b":0.0,"a":1.0},"guid":"4446d4a4-e0b5-450b-9e64-80b2c5fe4e2a","$version":"A","$type":"Ludiq.GraphGroup"},{"position":{"xMin":1201.0,"yMin":184.0,"xMax":1438.0,"yMax":417.0},"label":"Send
      event to new container to tell it to activate its subobjects and anchor component","comment":null,"color":{"r":0.0,"g":0.0,"b":0.0,"a":1.0},"guid":"9d8df5a9-2594-4ea6-a90e-f47337de7bea","$version":"A","$type":"Ludiq.GraphGroup"}],"$version":"A"}}'
    _objectReferences:
    - {fileID: 0}
    - {fileID: 0}
