%YAML 1.1
%TAG !u! tag:unity3d.com,2011:
--- !u!114 &11400000
MonoBehaviour:
  m_ObjectHideFlags: 0
  m_CorrespondingSourceObject: {fileID: 0}
  m_PrefabInstance: {fileID: 0}
  m_PrefabAsset: {fileID: 0}
  m_GameObject: {fileID: 0}
  m_Enabled: 1
  m_EditorHideFlags: 0
  m_Script: {fileID: -1893448595, guid: a040fb66244a7f54289914d98ea4ef7d, type: 3}
  m_Name: SpriteAnimationController
  m_EditorClassIdentifier: 
  _data:
    _json: '{"graph":{"variables":{"collection":{"$content":[],"$version":"A"},"$version":"A"},"controlInputDefinitions":[],"controlOutputDefinitions":[],"valueInputDefinitions":[],"valueOutputDefinitions":[],"title":null,"summary":null,"pan":{"x":1984.235,"y":505.9979},"zoom":0.6,"elements":[{"coroutine":false,"defaultValues":{},"position":{"x":25.0,"y":-436.0},"guid":"af5c1d9b-c99b-440c-8c29-05096f5de50a","$version":"A","$type":"Bolt.Start","$id":"9"},{"specifyFallback":false,"kind":"Object","defaultValues":{"name":{"$content":"IngridListening","$type":"System.String"},"object":null},"position":{"x":1893.0,"y":749.0},"guid":"a287f90d-852b-4de4-9ee5-1d7f0487158f","$version":"A","$type":"Bolt.GetVariable","$id":"11"},{"chainable":false,"member":{"name":"GetCurrentAnimatorStateInfo","parameterTypes":["System.Int32"],"targetType":"UnityEngine.Animator","targetTypeName":"UnityEngine.Animator","$version":"A"},"defaultValues":{"target":null,"%layerIndex":{"$content":0,"$type":"System.Int32"}},"position":{"x":2872.0,"y":402.0},"guid":"e6ca73f4-e9c6-498b-a44a-780676577683","$version":"A","$type":"Bolt.InvokeMember","$id":"13"},{"coroutine":false,"defaultValues":{},"position":{"x":-204.0,"y":60.0},"guid":"373d047f-e452-44e0-bbb0-c8c3d45f0284","$version":"A","$type":"Bolt.Update","$id":"16"},{"chainable":false,"member":{"name":"SetActive","parameterTypes":["System.Boolean"],"targetType":"UnityEngine.GameObject","targetTypeName":"UnityEngine.GameObject","$version":"A"},"defaultValues":{"target":null,"%value":{"$content":true,"$type":"System.Boolean"}},"position":{"x":2317.0,"y":340.0},"guid":"22619c4c-eb5d-4199-8ebb-44c451e40f27","$version":"A","$type":"Bolt.InvokeMember","$id":"18"},{"specifyFallback":false,"kind":"Object","defaultValues":{"name":{"$content":"IngridListening","$type":"System.String"},"object":null},"position":{"x":3526.0,"y":668.0},"guid":"a4c81251-ce26-4fbc-a953-52aaab638f25","$version":"A","$type":"Bolt.GetVariable","$id":"21"},{"specifyFallback":false,"kind":"Object","defaultValues":{"name":{"$content":"IngridListening","$type":"System.String"},"object":null},"position":{"x":2262.0,"y":731.0},"guid":"10230667-6c23-41c1-b973-bd6de3ebd76d","$version":"A","$type":"Bolt.GetVariable","$id":"23"},{"chainable":false,"member":{"name":"SetActive","parameterTypes":["System.Boolean"],"targetType":"UnityEngine.GameObject","targetTypeName":"UnityEngine.GameObject","$version":"A"},"defaultValues":{"target":null,"%value":{"$content":false,"$type":"System.Boolean"}},"position":{"x":406.0,"y":-438.0},"guid":"b0bc35e5-2c87-4223-b85a-1ff65c7058ca","$version":"A","$type":"Bolt.InvokeMember","$id":"25"},{"specifyFallback":false,"kind":"Object","defaultValues":{"name":{"$content":"IngridListening","$type":"System.String"},"object":null},"position":{"x":65.0,"y":-116.0},"guid":"ce2fc230-049f-4226-a599-6549e361566b","$version":"A","$type":"Bolt.GetVariable","$id":"28"},{"chainable":false,"member":{"name":"SetActive","parameterTypes":["System.Boolean"],"targetType":"UnityEngine.GameObject","targetTypeName":"UnityEngine.GameObject","$version":"A"},"defaultValues":{"target":null,"%value":{"$content":false,"$type":"System.Boolean"}},"position":{"x":1324.0,"y":244.0},"guid":"a45035a2-1ce5-42cd-902c-049d427ba5be","$version":"A","$type":"Bolt.InvokeMember","$id":"30"},{"chainable":false,"member":{"name":"SetActive","parameterTypes":["System.Boolean"],"targetType":"UnityEngine.GameObject","targetTypeName":"UnityEngine.GameObject","$version":"A"},"defaultValues":{"target":null,"%value":{"$content":false,"$type":"System.Boolean"}},"position":{"x":3863.0,"y":464.0},"guid":"770f1dc8-8fb4-4cb5-8095-c848cd8180f4","$version":"A","$type":"Bolt.InvokeMember","$id":"33"},{"chainable":false,"member":{"name":"IsName","parameterTypes":["System.String"],"targetType":"UnityEngine.AnimatorStateInfo","targetTypeName":"UnityEngine.AnimatorStateInfo","$version":"A"},"defaultValues":{"%name":{"$content":"Done","$type":"System.String"}},"position":{"x":754.0,"y":136.0},"guid":"4b1105ba-ba99-478c-8eea-9ac5c37e1fd4","$version":"A","$type":"Bolt.InvokeMember","$id":"36"},{"chainable":false,"member":{"name":"GetComponent","parameterTypes":["System.Type"],"targetType":"UnityEngine.Component","targetTypeName":"UnityEngine.Component","$version":"A"},"defaultValues":{"target":null,"%type":{"$content":"UnityEngine.Animator","$type":"System.RuntimeType"}},"position":{"x":16.0,"y":107.0},"guid":"49daea6f-62e8-4feb-9b92-bebf7dcb49f9","$version":"A","$type":"Bolt.InvokeMember","$id":"39"},{"chainable":false,"member":{"name":"GetCurrentAnimatorStateInfo","parameterTypes":["System.Int32"],"targetType":"UnityEngine.Animator","targetTypeName":"UnityEngine.Animator","$version":"A"},"defaultValues":{"target":null,"%layerIndex":{"$content":0,"$type":"System.Int32"}},"position":{"x":402.0,"y":115.0},"guid":"fbb62b76-8948-4202-b37b-bd7233b7d3a7","$version":"A","$type":"Bolt.InvokeMember","$id":"42"},{"specifyFallback":false,"kind":"Object","defaultValues":{"name":{"$content":"IngridSkulking","$type":"System.String"},"object":null},"position":{"x":-280.0,"y":315.0},"guid":"780d59d9-9a14-4cb4-9086-a7f99ef9856a","$version":"A","$type":"Bolt.GetVariable"},{"chainable":false,"member":{"name":"IsName","parameterTypes":["System.String"],"targetType":"UnityEngine.AnimatorStateInfo","targetTypeName":"UnityEngine.AnimatorStateInfo","$version":"A"},"defaultValues":{"%name":{"$content":"Done","$type":"System.String"}},"position":{"x":3316.0,"y":405.0},"guid":"adc5060f-1173-4a58-aa7b-89274722c950","$version":"A","$type":"Bolt.InvokeMember","$id":"47"},{"chainable":false,"member":{"name":"GetComponent","parameterTypes":["System.Type"],"targetType":"UnityEngine.Component","targetTypeName":"UnityEngine.Component","$version":"A"},"defaultValues":{"target":null,"%type":{"$content":"UnityEngine.Animator","$type":"System.RuntimeType"}},"position":{"x":2512.0,"y":397.0},"guid":"37e8b427-3550-49ce-b274-87fc1dfb134e","$version":"A","$type":"Bolt.InvokeMember","$id":"50"},{"defaultValues":{},"position":{"x":1034.0,"y":132.0},"guid":"05973443-71d2-44fe-a26e-79f9478bc6cf","$version":"A","$type":"Bolt.Branch","$id":"53"},{"specifyFallback":false,"kind":"Object","defaultValues":{"name":{"$content":"IngridSkulking","$type":"System.String"},"object":null},"position":{"x":922.0,"y":358.0},"guid":"dae68a2d-8ca2-4435-84d9-0f15bf34351a","$version":"A","$type":"Bolt.GetVariable","$id":"55"},{"defaultValues":{},"position":{"x":3639.0,"y":412.0},"guid":"debe8e09-b9c5-4891-8846-93ef2b06113c","$version":"A","$type":"Bolt.Branch","$id":"57"},{"sourceUnit":{"$ref":"30"},"sourceKey":"exit","destinationUnit":{"$ref":"18"},"destinationKey":"enter","guid":"75060466-2760-4357-97d7-d6631a127529","$type":"Bolt.ControlConnection"},{"sourceUnit":{"$ref":"42"},"sourceKey":"exit","destinationUnit":{"$ref":"36"},"destinationKey":"enter","guid":"ef369d10-9581-4db6-8c3e-08457b444694","$type":"Bolt.ControlConnection"},{"sourceUnit":{"$ref":"57"},"sourceKey":"ifTrue","destinationUnit":{"$ref":"33"},"destinationKey":"enter","guid":"41eb878c-b411-401e-8624-e0d4b93aef14","$type":"Bolt.ControlConnection"},{"sourceUnit":{"$ref":"47"},"sourceKey":"exit","destinationUnit":{"$ref":"57"},"destinationKey":"enter","guid":"a7469d1b-f15c-4457-905d-19fcc07ce043","$type":"Bolt.ControlConnection"},{"sourceUnit":{"$ref":"36"},"sourceKey":"exit","destinationUnit":{"$ref":"53"},"destinationKey":"enter","guid":"58cff895-db12-44a0-b438-4e101d6ba3d8","$type":"Bolt.ControlConnection"},{"sourceUnit":{"$ref":"50"},"sourceKey":"exit","destinationUnit":{"$ref":"13"},"destinationKey":"enter","guid":"425fe783-e785-4d4b-806a-7c1f53e20ebf","$type":"Bolt.ControlConnection"},{"sourceUnit":{"$ref":"18"},"sourceKey":"exit","destinationUnit":{"$ref":"50"},"destinationKey":"enter","guid":"6f6e0e5e-ed71-4d31-8fa9-5a1e6f67f2c1","$type":"Bolt.ControlConnection"},{"sourceUnit":{"$ref":"39"},"sourceKey":"exit","destinationUnit":{"$ref":"42"},"destinationKey":"enter","guid":"4413d8d9-f4b9-4f01-86fb-097f983e0f39","$type":"Bolt.ControlConnection"},{"sourceUnit":{"$ref":"16"},"sourceKey":"trigger","destinationUnit":{"$ref":"39"},"destinationKey":"enter","guid":"6f71f1c5-c298-4292-a88b-9a046774d670","$type":"Bolt.ControlConnection"},{"sourceUnit":{"$ref":"9"},"sourceKey":"trigger","destinationUnit":{"$ref":"25"},"destinationKey":"enter","guid":"abac4bda-51b0-42ec-97f8-a591c0e409ca","$type":"Bolt.ControlConnection"},{"sourceUnit":{"$ref":"13"},"sourceKey":"exit","destinationUnit":{"$ref":"47"},"destinationKey":"enter","guid":"2308a582-4c05-46b8-b411-f720713eab19","$type":"Bolt.ControlConnection"},{"sourceUnit":{"$ref":"53"},"sourceKey":"ifTrue","destinationUnit":{"$ref":"30"},"destinationKey":"enter","guid":"aae004f9-97dc-48ed-9f78-a2eee874597c","$type":"Bolt.ControlConnection"},{"sourceUnit":{"$ref":"50"},"sourceKey":"result","destinationUnit":{"$ref":"13"},"destinationKey":"target","guid":"1471fd85-6f85-4044-93e8-9e3acb2467ed","$type":"Bolt.ValueConnection"},{"sourceUnit":{"$ref":"13"},"sourceKey":"result","destinationUnit":{"$ref":"47"},"destinationKey":"target","guid":"4b96d6f2-a8df-459a-9f2f-989e50ed0198","$type":"Bolt.ValueConnection"},{"sourceUnit":{"$ref":"55"},"sourceKey":"value","destinationUnit":{"$ref":"30"},"destinationKey":"target","guid":"3f3fb3ca-a276-47c2-99f1-83b1367702b7","$type":"Bolt.ValueConnection"},{"sourceUnit":{"$ref":"21"},"sourceKey":"value","destinationUnit":{"$ref":"33"},"destinationKey":"target","guid":"f26bfec4-29be-4639-a23e-a9ef44f173b0","$type":"Bolt.ValueConnection"},{"sourceUnit":{"$ref":"28"},"sourceKey":"value","destinationUnit":{"$ref":"25"},"destinationKey":"target","guid":"d32cadf0-309f-44e7-8503-9d39c1e89005","$type":"Bolt.ValueConnection"},{"sourceUnit":{"$ref":"42"},"sourceKey":"result","destinationUnit":{"$ref":"36"},"destinationKey":"target","guid":"80368477-0710-4c0d-bd66-e3ecb50d88e5","$type":"Bolt.ValueConnection"},{"sourceUnit":{"$ref":"11"},"sourceKey":"value","destinationUnit":{"$ref":"18"},"destinationKey":"target","guid":"2780da39-f7df-4815-b37c-7e52cb2f6591","$type":"Bolt.ValueConnection"},{"sourceUnit":{"$ref":"23"},"sourceKey":"value","destinationUnit":{"$ref":"50"},"destinationKey":"target","guid":"1dccd4dd-a80c-4e62-80bd-513e67c9cdfd","$type":"Bolt.ValueConnection"},{"sourceUnit":{"$ref":"39"},"sourceKey":"result","destinationUnit":{"$ref":"42"},"destinationKey":"target","guid":"840bee68-facc-403b-85ca-e947a5e3b749","$type":"Bolt.ValueConnection"},{"sourceUnit":{"$ref":"47"},"sourceKey":"result","destinationUnit":{"$ref":"57"},"destinationKey":"condition","guid":"2eac0f14-605d-4538-828e-a4678dbab527","$type":"Bolt.ValueConnection"},{"sourceUnit":{"$ref":"36"},"sourceKey":"result","destinationUnit":{"$ref":"53"},"destinationKey":"condition","guid":"6bac631f-3c3e-48f4-8635-081df1a75a28","$type":"Bolt.ValueConnection"}],"$version":"A"}}'
    _objectReferences: []
