%YAML 1.1
%TAG !u! tag:unity3d.com,2011:
--- !u!114 &11400000
MonoBehaviour:
  m_ObjectHideFlags: 0
  m_CorrespondingSourceObject: {fileID: 0}
  m_PrefabInstance: {fileID: 0}
  m_PrefabAsset: {fileID: 0}
  m_GameObject: {fileID: 0}
  m_Enabled: 1
  m_EditorHideFlags: 0
  m_Script: {fileID: -1893448595, guid: a040fb66244a7f54289914d98ea4ef7d, type: 3}
  m_Name: Step0_Prolog Controller
  m_EditorClassIdentifier: 
  _data:
    _json: '{"graph":{"variables":{"collection":{"$content":[],"$version":"A"},"$version":"A"},"controlInputDefinitions":[],"controlOutputDefinitions":[],"valueInputDefinitions":[],"valueOutputDefinitions":[],"title":null,"summary":"Turn
      son graphical poster plays music wait and then plays yar, then shows end screen.","pan":{"x":-912.0712,"y":-19.26952},"zoom":1.0,"elements":[{"coroutine":false,"defaultValues":{},"position":{"x":-1884.0,"y":-132.0},"guid":"121c4097-dc6a-4b56-a340-c3e8e1883ab3","$version":"A","$type":"Bolt.Start","$id":"9"},{"member":{"name":"length","parameterTypes":null,"targetType":"UnityEngine.AudioClip","targetTypeName":"UnityEngine.AudioClip","$version":"A"},"defaultValues":{"target":null},"position":{"x":-960.0,"y":-12.0},"guid":"ba5db7cc-6ed3-43e7-8298-b239d11c937c","$version":"A","$type":"Bolt.GetMember","$id":"11"},{"specifyFallback":false,"kind":"Object","defaultValues":{"name":{"$content":"Poster","$type":"System.String"},"object":null},"position":{"x":-1722.0,"y":-59.0},"guid":"d122f085-d3f5-4a3f-8091-26187c4cf91e","$version":"A","$type":"Bolt.GetVariable","$id":"14"},{"chainable":false,"member":{"name":"SetActive","parameterTypes":["System.Boolean"],"targetType":"UnityEngine.GameObject","targetTypeName":"UnityEngine.GameObject","$version":"A"},"defaultValues":{"target":null,"%value":{"$content":true,"$type":"System.Boolean"}},"position":{"x":-1500.0,"y":-132.0},"guid":"62ebc8c6-d0f5-4274-83ca-9adb1c420c50","$version":"A","$type":"Bolt.InvokeMember","$id":"16"},{"defaultValues":{"duration":{"$content":5.0,"$type":"System.Single"},"unscaledTime":{"$content":false,"$type":"System.Boolean"}},"position":{"x":-792.0,"y":-144.0},"guid":"236aaf8a-e305-4f0d-908f-3e8f69478884","$version":"A","$type":"Bolt.Timer","$id":"19"},{"type":"UnityEngine.AudioClip","value":{"$content":0,"$type":"UnityEngine.Object"},"defaultValues":{},"position":{"x":-1224.0,"y":-12.0},"guid":"e89cb1e6-3760-4fcc-9a58-77cc617913b6","$version":"A","$type":"Bolt.Literal","$id":"21"},{"chainable":false,"member":{"name":"SetActive","parameterTypes":["System.Boolean"],"targetType":"UnityEngine.GameObject","targetTypeName":"UnityEngine.GameObject","$version":"A"},"defaultValues":{"target":null,"%value":{"$content":true,"$type":"System.Boolean"}},"position":{"x":58.0,"y":-132.0},"guid":"8549a53a-d6ea-43e7-956f-7f12a1c636da","$version":"A","$type":"Bolt.InvokeMember","$id":"23"},{"specifyFallback":false,"kind":"Object","defaultValues":{"name":{"$content":"Yarn","$type":"System.String"},"object":null},"position":{"x":-190.0,"y":-44.0},"guid":"e7ed65d8-3306-45a5-875e-4cfd10d8ced1","$version":"A","$type":"Bolt.GetVariable","$id":"26"},{"sourceUnit":{"$ref":"16"},"sourceKey":"exit","destinationUnit":{"$ref":"19"},"destinationKey":"start","guid":"f1334136-dfe5-4e0f-beba-f43b441bd456","$type":"Bolt.ControlConnection"},{"sourceUnit":{"$ref":"19"},"sourceKey":"completed","destinationUnit":{"$ref":"23"},"destinationKey":"enter","guid":"ad901258-6e63-4a34-afb9-c2d315b00028","$type":"Bolt.ControlConnection"},{"sourceUnit":{"$ref":"9"},"sourceKey":"trigger","destinationUnit":{"$ref":"16"},"destinationKey":"enter","guid":"cda38cb7-8bd7-45eb-83f9-300f43895b83","$type":"Bolt.ControlConnection"},{"sourceUnit":{"$ref":"26"},"sourceKey":"value","destinationUnit":{"$ref":"23"},"destinationKey":"target","guid":"698716f6-e112-437c-85ee-f607cec41748","$type":"Bolt.ValueConnection"},{"sourceUnit":{"$ref":"21"},"sourceKey":"output","destinationUnit":{"$ref":"11"},"destinationKey":"target","guid":"7d80ac72-7a22-4aa5-b5b4-84d297352fe2","$type":"Bolt.ValueConnection"},{"sourceUnit":{"$ref":"14"},"sourceKey":"value","destinationUnit":{"$ref":"16"},"destinationKey":"target","guid":"b4ec802f-8628-4fa7-a70f-9e5a1940067d","$type":"Bolt.ValueConnection"},{"position":{"xMin":-1920.0,"yMin":-180.0,"xMax":-1344.0,"yMax":84.0},"label":"Show
      Startplakat","comment":null,"color":{"r":0.0,"g":0.0,"b":0.0,"a":1.0},"guid":"b977d823-1095-4180-bd29-f63055ecb32b","$version":"A","$type":"Ludiq.GraphGroup"},{"position":{"xMin":-231.0,"yMin":-176.0,"xMax":210.0,"yMax":82.0},"label":"Play
      Yarn","comment":null,"color":{"r":0.0,"g":0.0,"b":0.0,"a":1.0},"guid":"afc2a554-d9bf-4b2a-ad42-603d05894f31","$version":"A","$type":"Ludiq.GraphGroup"},{"position":{"xMin":-1332.0,"yMin":-180.0,"xMax":-252.0,"yMax":84.0},"label":"Wait
      until x seconds into the intro music","comment":null,"color":{"r":0.0,"g":0.0,"b":0.0,"a":1.0},"guid":"5a549ae9-c9dc-49e7-a924-1de1562be266","$version":"A","$type":"Ludiq.GraphGroup"}],"$version":"A"}}'
    _objectReferences:
    - {fileID: 8300000, guid: ac2950fb9adbe498ba06a6ff4f1bbf6e, type: 3}
