%YAML 1.1
%TAG !u! tag:unity3d.com,2011:
--- !u!1045 &1
EditorBuildSettings:
  m_ObjectHideFlags: 0
  serializedVersion: 2
  m_Scenes:
  - enabled: 1
    path: Assets/Scenes/Main.unity
    guid: 02c560e2202736745b65dccffa02a7d6
  - enabled: 0
    path: Assets/Scenes/Main_FullSettupBackup.unity
    guid: d0f713a7ca2ce7948a73e5afe4552974
  - enabled: 0
    path: Assets/Scenes/TEST/Background_Testscene.unity
    guid: 25384336b18b08c43858ed796c9d1e3f
  m_configObjects:
    Unity.XR.Oculus.Settings: {fileID: 11400000, guid: 738cdaa6b307cbf48b5799507280e92e, type: 2}
    UnityEditor.XR.ARCore.ARCoreSettings: {fileID: 11400000, guid: 590ff9a9f1f8a1447af14500000193e1, type: 2}
    UnityEditor.XR.ARKit.ARKitSettings: {fileID: 11400000, guid: c86ce45b31aacdb48bb8b4e6059e9640, type: 2}
    com.unity.addressableassets: {fileID: 11400000, guid: 4f8f00941563748ceb08a590c1453e78, type: 2}
    com.unity.xr.management.loader_settings: {fileID: 11400000, guid: 179ca3f2f16b68d4f871c7761024457d, type: 2}
