%YAML 1.1
%TAG !u! tag:unity3d.com,2011:
--- !u!21 &2100000
Material:
  serializedVersion: 6
  m_ObjectHideFlags: 0
  m_CorrespondingSourceObject: {fileID: 0}
  m_PrefabInstance: {fileID: 0}
  m_PrefabAsset: {fileID: 0}
  m_Name: FarmerSpectre-Beam_MAT
  m_Shader: {fileID: 4800000, guid: 60266cd06b00d004facaa22456b235af, type: 3}
  m_ShaderKeywords: 
  m_LightmapFlags: 4
  m_EnableInstancingVariants: 0
  m_DoubleSidedGI: 0
  m_CustomRenderQueue: -1
  stringTagMap: {}
  disabledShaderPasses: []
  m_SavedProperties:
    serializedVersion: 3
    m_TexEnvs:
    - _TextureSample2:
        m_Texture: {fileID: 2800000, guid: 4947b45c47e3f4a4490bec10b2201dc3, type: 3}
        m_Scale: {x: 1, y: 1}
        m_Offset: {x: 0, y: 0}
    - _TopTexture0:
        m_Texture: {fileID: 2800000, guid: 5645cd84e3a5f95429c10d153de48019, type: 3}
        m_Scale: {x: 1, y: 1}
        m_Offset: {x: 0, y: 0}
    - _texcoord:
        m_Texture: {fileID: 0}
        m_Scale: {x: 1, y: 1}
        m_Offset: {x: 0, y: 0}
    m_Floats:
    - _Cutoff: 0.5
    - _Float0: 1
    - _Float1: 2
    - _Float2: 1
    - _LowerLimit: -0.906
    - _NoiseScale: 100
    - _NoiseScale1: 100
    - _TimeScaleSmall: 0.08
    - _TimeScaleSmall1: 0.08
    - _Timeline: 0
    - _UpperLimit: 0.991
    - __dirty: 0
    m_Colors:
    - _Beamcolor: {r: 4.0367107, g: 4.793594, b: 24.094116, a: 0}
  m_BuildTextureStacks: []
