%YAML 1.1
%TAG !u! tag:unity3d.com,2011:
--- !u!114 &11400000
MonoBehaviour:
  m_ObjectHideFlags: 0
  m_CorrespondingSourceObject: {fileID: 0}
  m_PrefabInstance: {fileID: 0}
  m_PrefabAsset: {fileID: 0}
  m_GameObject: {fileID: 0}
  m_Enabled: 1
  m_EditorHideFlags: 0
  m_Script: {fileID: 11500000, guid: 1089c6a0d35c9418fac39e1bbc04ece5, type: 3}
  m_Name: HundorpSoundBank
  m_EditorClassIdentifier: 
  audioClips:
  - {fileID: 8300000, guid: 7aaec909909335740a36123b90d92598, type: 3}
  - {fileID: 8300000, guid: 5a35be009da619047a853f2f28f91796, type: 3}
  - {fileID: 8300000, guid: 14a7749e1c89de34cadf572a035f38c8, type: 3}
  - {fileID: 8300000, guid: 2c4dc64f51b0c9149bc1c7828d44f1c6, type: 3}
  - {fileID: 8300000, guid: 08e54b832a7a5b14cb7d3400f4217c28, type: 3}
  - {fileID: 8300000, guid: 80b8fe703dc231c44ba3c893d8dcbb07, type: 3}
  - {fileID: 8300000, guid: ecac817856a9d304186fa209b23f1e85, type: 3}
  - {fileID: 8300000, guid: 0ed9ad9c3ec04b649a13b6fc18d7304f, type: 3}
  - {fileID: 8300000, guid: fb2c2048843201440b985caf4e9fdddf, type: 3}
  - {fileID: 8300000, guid: 59a10f4130a31324d9c03f75648d12d5, type: 3}
  - {fileID: 8300000, guid: 579b81e1307b9f74ea25049778049f30, type: 3}
  - {fileID: 8300000, guid: ee82f13a2f881a447b74975a693eb3d4, type: 3}
  - {fileID: 8300000, guid: a9ae183b2894bbf489a3db498155195f, type: 3}
  - {fileID: 8300000, guid: f5763267c048bd34cae39b44eb2fe62c, type: 3}
  - {fileID: 8300000, guid: bf6de43c741393b41994a7cd1e79abe8, type: 3}
  - {fileID: 8300000, guid: b132334bdbc968b42a9fe929156a7a20, type: 3}
  - {fileID: 8300000, guid: 2c12335a8956f624b89076f4ab2f363b, type: 3}
  - {fileID: 8300000, guid: e63679b285788d94ab879df8d0d7ac77, type: 3}
  - {fileID: 8300000, guid: 749a719d6b8d5664fa4a5a6235cd43cf, type: 3}
  - {fileID: 8300000, guid: 5a38fb7e24ca0ff49b57821c078bde1d, type: 3}
  - {fileID: 8300000, guid: 731c5cb691598af4b87e3bf430e60163, type: 3}
  - {fileID: 8300000, guid: ec957879066bb3d43bfac771cc20b164, type: 3}
  - {fileID: 8300000, guid: b976400781243cd43b2a072e71882bdc, type: 3}
  - {fileID: 8300000, guid: 539c66afcd1f8174bb85c960ff427617, type: 3}
  - {fileID: 8300000, guid: 974600a52906a6140b3c7b9e0d062cb0, type: 3}
  - {fileID: 8300000, guid: 16ebc5409804c2e48b43dc22eae7db76, type: 3}
  - {fileID: 8300000, guid: 43c1712e62108094abbcd2e3a49fc84b, type: 3}
  - {fileID: 8300000, guid: 2cccb0e23db8d3b4fac3f9f490c81094, type: 3}
  - {fileID: 8300000, guid: 010e85ce837917647bc3d2b6c2942da4, type: 3}
  - {fileID: 8300000, guid: c5f55362be9df9a4daeaf494de5eeee1, type: 3}
  - {fileID: 8300000, guid: e8b31876bbf72044f9da3c0d42e306d2, type: 3}
  - {fileID: 8300000, guid: 743c3c3e09653a6458757ba0ba71d11f, type: 3}
  - {fileID: 8300000, guid: 43a4805f1e992ff4e856c42ab0412bce, type: 3}
  - {fileID: 8300000, guid: 802705c36c4c4604c9c301db954dd4fb, type: 3}
  - {fileID: 8300000, guid: cd7568982eb95b240bc5f3300b43ca8e, type: 3}
  - {fileID: 8300000, guid: e9e47512e8929e247ba18b74fb34cb97, type: 3}
  - {fileID: 8300000, guid: 8a06bef5897f8dc4b93a6747b5bf7b50, type: 3}
  - {fileID: 8300000, guid: f455a08a7f3f19d4199cdaeb6bf6f897, type: 3}
  - {fileID: 8300000, guid: 6511573571519b847aca49295f995f29, type: 3}
  - {fileID: 8300000, guid: c38895f357514934081a345a9a4f3711, type: 3}
  - {fileID: 8300000, guid: 741d64c14afb39f4baf926f1866addda, type: 3}
  - {fileID: 8300000, guid: 022c962f085bbf8418155f09b20a2e9b, type: 3}
  - {fileID: 8300000, guid: 3108767085db3d14e9886c0d09fca04d, type: 3}
  - {fileID: 8300000, guid: c140fe6cdc759894d8160d6f674e2742, type: 3}
  - {fileID: 8300000, guid: 4b5688c58da0d444488d2057db42e55f, type: 3}
  - {fileID: 8300000, guid: a2bb74fcac7c75443b1063eaeb349ae5, type: 3}
  - {fileID: 8300000, guid: 34c4bfc82ba79c643a58f36a532fd09c, type: 3}
  - {fileID: 8300000, guid: 47ee8a795f3896f4ab32c73df237e1c2, type: 3}
  - {fileID: 8300000, guid: 4fccec4e85805de4a981e07c9732d7e6, type: 3}
  - {fileID: 8300000, guid: 5d812dd35843f4a4e941dbb2439e7af2, type: 3}
  - {fileID: 8300000, guid: dd42f83a2844d7a4ea4a35e11e1b31f1, type: 3}
  - {fileID: 8300000, guid: 8b1179aef4debc94e9e98e697015fc07, type: 3}
  - {fileID: 8300000, guid: 4c48316492114b24ebe0c7a7d8b8b695, type: 3}
  - {fileID: 8300000, guid: 6c87bd8c7458a5f4ab01502b065f3e24, type: 3}
  - {fileID: 8300000, guid: e59c6d712167f3e428a61bb01c70d3f4, type: 3}
  - {fileID: 8300000, guid: 095dcf0b1db966b41882f3e7fda05815, type: 3}
  - {fileID: 8300000, guid: 8dc549c1665ceca4f83b0acc008009e1, type: 3}
  - {fileID: 8300000, guid: c7157c966c09eee4992edb86a9317dd4, type: 3}
  - {fileID: 8300000, guid: 30031459bf3133f43869f2d3151eed89, type: 3}
  - {fileID: 8300000, guid: 7a1d6e81b77675d43a6f0d0c2857a65c, type: 3}
  - {fileID: 8300000, guid: f024e90e70e8e8c4b9cd63c5ded18ae5, type: 3}
  - {fileID: 8300000, guid: ffefe1c42c7b9aa49819006e278194bd, type: 3}
  - {fileID: 8300000, guid: 6a3213a2fbf623a45b06640c9a19a83a, type: 3}
  - {fileID: 8300000, guid: adbe939dbd9a5e147802a2d455e0e007, type: 3}
  - {fileID: 8300000, guid: da18b4e80f5b3e34f8fcad88fa09f6fd, type: 3}
  - {fileID: 8300000, guid: db32ec9552d03d44f9bc33f6df863929, type: 3}
  - {fileID: 8300000, guid: 05302c0b68acd10459643d21c2de11ca, type: 3}
  - {fileID: 8300000, guid: 253aecf3a37b4a249a2d876ba24cf79c, type: 3}
  - {fileID: 8300000, guid: f21d7fbab0977d744a1f64034be861c3, type: 3}
  - {fileID: 8300000, guid: 6a5e5dca9bf62f54395ebfab9a90d3a4, type: 3}
  - {fileID: 8300000, guid: b43a6e0f8198f1a408c4d8651a1f89e1, type: 3}
  - {fileID: 8300000, guid: 5fab0035afa05534e9b514b9938b3fb1, type: 3}
  - {fileID: 8300000, guid: 411ec25f9fa483543a5f13cfe10263ac, type: 3}
  - {fileID: 8300000, guid: e74ac04f7a088ec47a8dbe8a5d00ba2c, type: 3}
  - {fileID: 8300000, guid: 090c008c07bfd3a419d1a24eaa5ce6ce, type: 3}
  - {fileID: 8300000, guid: 2beaf9e89c484ee47b5109784c7b3dba, type: 3}
  - {fileID: 8300000, guid: 17619333d34f36442a640e9c09416239, type: 3}
  - {fileID: 8300000, guid: e6e283408e38e2f49984f0a991aa9065, type: 3}
  - {fileID: 8300000, guid: ec3b6609d299d994b8e6cef553cbf49c, type: 3}
  - {fileID: 8300000, guid: b5c0b5bb28c6b564587bbf2e2ce6e95c, type: 3}
  - {fileID: 8300000, guid: 504bd0471006a564cbcf9f3ce67b7d22, type: 3}
  - {fileID: 8300000, guid: 4d323b80c7937ff4b82c41116760e52e, type: 3}
  - {fileID: 8300000, guid: 4b1b756d89ae3e44ab5b3a66ffed048b, type: 3}
  - {fileID: 8300000, guid: eeac7d899091d8742aeffb43bb905a21, type: 3}
