%YAML 1.1
%TAG !u! tag:unity3d.com,2011:
--- !u!114 &11400000
MonoBehaviour:
  m_ObjectHideFlags: 0
  m_CorrespondingSourceObject: {fileID: 0}
  m_PrefabInstance: {fileID: 0}
  m_PrefabAsset: {fileID: 0}
  m_GameObject: {fileID: 0}
  m_Enabled: 1
  m_EditorHideFlags: 0
  m_Script: {fileID: 11500000, guid: ea995ce2aa40b0a43a727511dddd02cb, type: 3}
  m_Name: Debug
  m_EditorClassIdentifier: 
  name: Step0_Debug
  image: {fileID: 2800000, guid: 3d2b50ee007b417458946a3a8286870d, type: 3}
  sizeInMeters: 0.089
