%YAML 1.1
%TAG !u! tag:unity3d.com,2011:
--- !u!114 &11400000
MonoBehaviour:
  m_ObjectHideFlags: 0
  m_CorrespondingSourceObject: {fileID: 0}
  m_PrefabInstance: {fileID: 0}
  m_PrefabAsset: {fileID: 0}
  m_GameObject: {fileID: 0}
  m_Enabled: 1
  m_EditorHideFlags: 0
  m_Script: {fileID: 11500000, guid: ea995ce2aa40b0a43a727511dddd02cb, type: 3}
  m_Name: Step5_OfficeTest
  m_EditorClassIdentifier: 
  name: TheVisistor
  image: {fileID: 2800000, guid: 8d78402a6f51d5841a61cd40ef628b25, type: 3}
  sizeInMeters: 0.297
