%YAML 1.1
%TAG !u! tag:unity3d.com,2011:
--- !u!114 &11400000
MonoBehaviour:
  m_ObjectHideFlags: 0
  m_CorrespondingSourceObject: {fileID: 0}
  m_PrefabInstance: {fileID: 0}
  m_PrefabAsset: {fileID: 0}
  m_GameObject: {fileID: 0}
  m_Enabled: 1
  m_EditorHideFlags: 0
  m_Script: {fileID: 11500000, guid: ea995ce2aa40b0a43a727511dddd02cb, type: 3}
  m_Name: Step4A_BurialMound_Outside_v2
  m_EditorClassIdentifier: 
  name: BurialMound_Outside
  image: {fileID: 2800000, guid: 39f682e7c1b4af047b6b0959a5f0aa74, type: 3}
  sizeInMeters: 0.34
