%YAML 1.1
%TAG !u! tag:unity3d.com,2011:
--- !u!21 &2100000
Material:
  serializedVersion: 6
  m_ObjectHideFlags: 0
  m_CorrespondingSourceObject: {fileID: 0}
  m_PrefabInstance: {fileID: 0}
  m_PrefabAsset: {fileID: 0}
  m_Name: Ingrid ShadowBlob
  m_Shader: {fileID: 4800000, guid: 2995138b2c1734140b7494673434d9a5, type: 3}
  m_ShaderKeywords: ETC1_EXTERNAL_ALPHA
  m_LightmapFlags: 0
  m_EnableInstancingVariants: 1
  m_DoubleSidedGI: 0
  m_CustomRenderQueue: -1
  stringTagMap: {}
  disabledShaderPasses: []
  m_SavedProperties:
    serializedVersion: 3
    m_TexEnvs:
    - _AlphaTex:
        m_Texture: {fileID: 0}
        m_Scale: {x: 1, y: 1}
        m_Offset: {x: 0, y: 0}
    - _MainTex:
        m_Texture: {fileID: 0}
        m_Scale: {x: 1, y: 1}
        m_Offset: {x: 0, y: 0}
    - _Texture0:
        m_Texture: {fileID: 2800000, guid: fbb67147197321a4ea3f6894940c0b61, type: 3}
        m_Scale: {x: 1, y: 1}
        m_Offset: {x: 0, y: 0}
    - _TextureSample0:
        m_Texture: {fileID: 2800000, guid: f36ea0373d707694295320d4763c08d3, type: 3}
        m_Scale: {x: 1, y: 1}
        m_Offset: {x: 0, y: 0}
    - _TextureSample1:
        m_Texture: {fileID: 2800000, guid: f36ea0373d707694295320d4763c08d3, type: 3}
        m_Scale: {x: 1, y: 1}
        m_Offset: {x: 0, y: 0}
    - _TextureSample9:
        m_Texture: {fileID: 2800000, guid: f36ea0373d707694295320d4763c08d3, type: 3}
        m_Scale: {x: 1, y: 1}
        m_Offset: {x: 0, y: 0}
    - _TopTexture1:
        m_Texture: {fileID: 2800000, guid: 27bc543b9fe328a4288f1b271db1dd0f, type: 3}
        m_Scale: {x: 1, y: 1}
        m_Offset: {x: 0, y: 0}
    - _texcoord:
        m_Texture: {fileID: 0}
        m_Scale: {x: 1, y: 1}
        m_Offset: {x: 0, y: 0}
    m_Floats:
    - PixelSnap: 0
    - _Cutoff: 0.5
    - _EnableExternalAlpha: 0
    - _Float0: 0
    - _Float3: 0.7263734
    - _Float5: 0.56
    - _Float6: 0.443
    - _Float7: 1
    - _GlossyReflections: 1
    - _LowerLimit: -0.524
    - _LowerLimit2: 0.3176471
    - _NoiseScale: 200
    - _NoiseScale2: 5
    - _Offset: 0.018
    - _OffsetX: 0
    - _OffsetY: 0
    - _ScaleParameter: 0.988
    - _SpecularHighlights: 1
    - _TilingMultiplierDissolve: 2
    - _TimeScale: -0.2
    - _TimeScaleBig: 0.05
    - _TimeScaleSmall: 0.01
    - _Timeline: 1
    - _Timeline2: 0.4718255
    - _UpperLimit: 1
    - _UpperLimit2: 0.55
    - __dirty: 0
    m_Colors:
    - _Color: {r: 1, g: 1, b: 1, a: 1}
    - _Flip: {r: 1, g: 1, b: 1, a: 1}
    - _RendererColor: {r: 1, g: 1, b: 1, a: 1}
  m_BuildTextureStacks: []
