%YAML 1.1
%TAG !u! tag:unity3d.com,2011:
--- !u!114 &-2857415105279735257
MonoBehaviour:
  m_ObjectHideFlags: 0
  m_CorrespondingSourceObject: {fileID: 0}
  m_PrefabInstance: {fileID: 0}
  m_PrefabAsset: {fileID: 0}
  m_GameObject: {fileID: 0}
  m_Enabled: 1
  m_EditorHideFlags: 0
  m_Script: {fileID: 11500000, guid: f4c3631f5e58749a59194e0cf6baf6d5, type: 3}
  m_Name: Standalone Providers
  m_EditorClassIdentifier: 
  m_RequiresSettingsUpdate: 0
  m_AutomaticLoading: 0
  m_AutomaticRunning: 0
  m_Loaders: []
--- !u!114 &-579640369580182061
MonoBehaviour:
  m_ObjectHideFlags: 0
  m_CorrespondingSourceObject: {fileID: 0}
  m_PrefabInstance: {fileID: 0}
  m_PrefabAsset: {fileID: 0}
  m_GameObject: {fileID: 0}
  m_Enabled: 1
  m_EditorHideFlags: 0
  m_Script: {fileID: 11500000, guid: f4c3631f5e58749a59194e0cf6baf6d5, type: 3}
  m_Name: Android Providers
  m_EditorClassIdentifier: 
  m_RequiresSettingsUpdate: 0
  m_AutomaticLoading: 0
  m_AutomaticRunning: 0
  m_Loaders:
  - {fileID: 11400000, guid: 9452cc3ba64fc634eb01bf9525e85301, type: 2}
--- !u!114 &-410572077039146354
MonoBehaviour:
  m_ObjectHideFlags: 0
  m_CorrespondingSourceObject: {fileID: 0}
  m_PrefabInstance: {fileID: 0}
  m_PrefabAsset: {fileID: 0}
  m_GameObject: {fileID: 0}
  m_Enabled: 1
  m_EditorHideFlags: 0
  m_Script: {fileID: 11500000, guid: d236b7d11115f2143951f1e14045df39, type: 3}
  m_Name: Standalone Settings
  m_EditorClassIdentifier: 
  m_LoaderManagerInstance: {fileID: -2857415105279735257}
  m_InitManagerOnStart: 1
--- !u!114 &11400000
MonoBehaviour:
  m_ObjectHideFlags: 0
  m_CorrespondingSourceObject: {fileID: 0}
  m_PrefabInstance: {fileID: 0}
  m_PrefabAsset: {fileID: 0}
  m_GameObject: {fileID: 0}
  m_Enabled: 1
  m_EditorHideFlags: 0
  m_Script: {fileID: 11500000, guid: d2dc886499c26824283350fa532d087d, type: 3}
  m_Name: XRGeneralSettings
  m_EditorClassIdentifier: 
  Keys: 0100000007000000
  Values:
  - {fileID: -410572077039146354}
  - {fileID: 6445790389372524064}
--- !u!114 &6445790389372524064
MonoBehaviour:
  m_ObjectHideFlags: 0
  m_CorrespondingSourceObject: {fileID: 0}
  m_PrefabInstance: {fileID: 0}
  m_PrefabAsset: {fileID: 0}
  m_GameObject: {fileID: 0}
  m_Enabled: 1
  m_EditorHideFlags: 0
  m_Script: {fileID: 11500000, guid: d236b7d11115f2143951f1e14045df39, type: 3}
  m_Name: Android Settings
  m_EditorClassIdentifier: 
  m_LoaderManagerInstance: {fileID: -579640369580182061}
  m_InitManagerOnStart: 1
